time,username,winsession_id,intsession_id,hwnd_orig,processname,PID,hookmode,provocation,message_id,x_pos,y_pos,hwnd,hittest, extra_info
2024-05-10T14:00:50.743,shetinin,0x1,1,0x2903f4,pycharm64.exe,19032,0,0,512,538,565,0x300768,1,0
2024-05-10T14:00:50.749,shetinin,0x1,1,0x2903f4,pycharm64.exe,19032,0,0,512,548,556,0x300768,1,0
2024-05-10T14:00:50.756,shetinin,0x1,1,0x2903f4,pycharm64.exe,19032,0,0,512,561,546,0x300768,1,0
2024-05-10T14:00:50.764,shetinin,0x1,1,0x2903f4,pycharm64.exe,19032,0,0,512,579,533,0x300768,1,0
2024-05-10T14:00:50.774,shetinin,0x1,1,0x2903f4,pycharm64.exe,19032,0,0,512,606,519,0x300768,1,0
2024-05-10T14:00:50.777,shetinin,0x1,1,0x2903f4,putty.exe,31704,0,0,160,640,503,0x2903f4,15,0
2024-05-10T14:00:50.784,shetinin,0x1,1,0x2903f4,putty.exe,31704,0,0,512,676,485,0x2903f4,1,0
2024-05-10T14:00:50.791,shetinin,0x1,1,0x2903f4,putty.exe,31704,0,0,512,706,472,0x2903f4,1,0
2024-05-10T14:00:50.799,shetinin,0x1,1,0x2903f4,putty.exe,31704,0,0,512,728,464,0x2903f4,1,0
2024-05-10T14:00:50.805,shetinin,0x1,1,0x2903f4,putty.exe,31704,0,0,512,741,458,0x2903f4,1,0
2024-05-10T14:00:50.817,shetinin,0x1,1,0x2903f4,putty.exe,31704,0,0,512,750,455,0x2903f4,1,0
2024-05-10T14:00:50.819,shetinin,0x1,1,0x2903f4,putty.exe,31704,0,0,512,757,452,0x2903f4,1,0
2024-05-10T14:00:50.826,shetinin,0x1,1,0x2903f4,putty.exe,31704,0,0,512,761,449,0x2903f4,1,0
2024-05-10T14:00:50.833,shetinin,0x1,1,0x2903f4,putty.exe,31704,0,0,512,764,448,0x2903f4,1,0
2024-05-10T14:00:50.840,shetinin,0x1,1,0x2903f4,putty.exe,31704,0,0,512,766,447,0x2903f4,1,0
2024-05-10T14:00:50.850,shetinin,0x1,1,0x2903f4,putty.exe,31704,0,0,512,768,445,0x2903f4,1,0
2024-05-10T14:00:50.854,shetinin,0x1,1,0x2903f4,putty.exe,31704,0,0,512,769,444,0x2903f4,1,0
2024-05-10T14:00:50.861,shetinin,0x1,1,0x2903f4,putty.exe,31704,0,0,512,771,444,0x2903f4,1,0
2024-05-10T14:00:50.869,shetinin,0x1,1,0x2903f4,putty.exe,31704,0,0,512,772,443,0x2903f4,1,0
2024-05-10T14:00:50.876,shetinin,0x1,1,0x2903f4,putty.exe,31704,0,0,513,772,443,0x2903f4,1,0
2024-05-10T14:00:50.961,shetinin,0x1,1,0x2903f4,putty.exe,31704,0,0,514,772,443,0x2903f4,1,0
2024-05-10T14:00:50.961,shetinin,0x1,1,0x2903f4,putty.exe,31704,0,0,512,772,443,0x2903f4,1,0
2024-05-10T14:00:52.922,shetinin,0x1,1,0x2903f4,putty.exe,31704,0,0,512,766,449,0x2903f4,1,0
2024-05-10T14:00:52.927,shetinin,0x1,1,0x2903f4,putty.exe,31704,0,0,512,759,455,0x2903f4,1,0
2024-05-10T14:00:52.934,shetinin,0x1,1,0x2903f4,putty.exe,31704,0,0,512,752,461,0x2903f4,1,0
2024-05-10T14:00:52.941,shetinin,0x1,1,0x2903f4,putty.exe,31704,0,0,512,743,465,0x2903f4,1,0
2024-05-10T14:00:52.954,shetinin,0x1,1,0x2903f4,putty.exe,31704,0,0,512,735,469,0x2903f4,1,0
2024-05-10T14:00:52.955,shetinin,0x1,1,0x2903f4,putty.exe,31704,0,0,512,727,471,0x2903f4,1,0
2024-05-10T14:00:52.962,shetinin,0x1,1,0x2903f4,putty.exe,31704,0,0,512,719,473,0x2903f4,1,0
2024-05-10T14:00:52.970,shetinin,0x1,1,0x2903f4,putty.exe,31704,0,0,512,711,474,0x2903f4,1,0
2024-05-10T14:00:52.976,shetinin,0x1,1,0x2903f4,putty.exe,31704,0,0,512,703,473,0x2903f4,1,0
2024-05-10T14:00:52.983,shetinin,0x1,1,0x2903f4,putty.exe,31704,0,0,512,694,472,0x2903f4,1,0
2024-05-10T14:00:52.990,shetinin,0x1,1,0x2903f4,putty.exe,31704,0,0,512,686,468,0x2903f4,1,0
2024-05-10T14:00:53.000,shetinin,0x1,1,0x2903f4,putty.exe,31704,0,0,512,677,463,0x2903f4,1,0
2024-05-10T14:00:53.004,shetinin,0x1,1,0x2903f4,putty.exe,31704,0,0,512,668,457,0x2903f4,1,0
2024-05-10T14:00:53.012,shetinin,0x1,1,0x2903f4,putty.exe,31704,0,0,512,660,448,0x2903f4,1,0
2024-05-10T14:00:53.018,shetinin,0x1,1,0x2903f4,putty.exe,31704,0,0,512,651,435,0x2903f4,1,0
2024-05-10T14:00:53.025,shetinin,0x1,1,0x2903f4,putty.exe,31704,0,0,512,642,418,0x2903f4,1,0
2024-05-10T14:00:53.032,shetinin,0x1,1,0x2903f4,putty.exe,31704,0,0,512,631,392,0x2903f4,1,0
2024-05-10T14:00:53.040,shetinin,0x1,1,0x2903f4,putty.exe,31704,0,0,512,617,360,0x2903f4,1,0
2024-05-10T14:00:53.046,shetinin,0x1,1,0x2903f4,putty.exe,31704,0,0,512,602,324,0x2903f4,1,0
2024-05-10T14:00:53.056,shetinin,0x1,1,0x2903f4,putty.exe,31704,0,0,512,588,295,0x2903f4,1,0
2024-05-10T14:00:53.061,shetinin,0x1,1,0x2903f4,putty.exe,31704,0,0,512,577,271,0x2903f4,1,0
2024-05-10T14:00:53.068,shetinin,0x1,1,0x2903f4,putty.exe,31704,0,0,512,566,253,0x2903f4,1,0
2024-05-10T14:00:53.076,shetinin,0x1,1,0x2903f4,putty.exe,31704,0,0,512,557,238,0x2903f4,1,0
2024-05-10T14:00:53.082,shetinin,0x1,1,0x2903f4,putty.exe,31704,0,0,512,550,228,0x2903f4,1,0
2024-05-10T14:00:53.089,shetinin,0x1,1,0x2903f4,putty.exe,31704,0,0,512,544,222,0x2903f4,1,0
2024-05-10T14:00:53.096,shetinin,0x1,1,0x2903f4,putty.exe,31704,0,0,512,540,218,0x2903f4,1,0
2024-05-10T14:00:53.103,shetinin,0x1,1,0x2903f4,putty.exe,31704,0,0,512,536,216,0x2903f4,1,0
2024-05-10T14:00:53.109,shetinin,0x1,1,0x2903f4,putty.exe,31704,0,0,512,533,215,0x2903f4,1,0
2024-05-10T14:00:53.116,shetinin,0x1,1,0x2903f4,putty.exe,31704,0,0,512,532,215,0x2903f4,1,0
2024-05-10T14:00:53.309,shetinin,0x1,1,0x2903f4,putty.exe,31704,0,0,512,539,223,0x2903f4,1,0
2024-05-10T14:00:53.319,shetinin,0x1,1,0x2903f4,putty.exe,31704,0,0,512,546,233,0x2903f4,1,0
2024-05-10T14:00:53.322,shetinin,0x1,1,0x2903f4,putty.exe,31704,0,0,512,555,242,0x2903f4,1,0
2024-05-10T14:00:53.330,shetinin,0x1,1,0x2903f4,putty.exe,31704,0,0,512,564,252,0x2903f4,1,0
2024-05-10T14:00:53.336,shetinin,0x1,1,0x2903f4,putty.exe,31704,0,0,512,574,265,0x2903f4,1,0
2024-05-10T14:00:53.344,shetinin,0x1,1,0x2903f4,putty.exe,31704,0,0,512,584,277,0x2903f4,1,0
2024-05-10T14:00:53.350,shetinin,0x1,1,0x2903f4,putty.exe,31704,0,0,512,593,287,0x2903f4,1,0
2024-05-10T14:00:53.357,shetinin,0x1,1,0x2903f4,putty.exe,31704,0,0,512,601,295,0x2903f4,1,0
2024-05-10T14:00:53.363,shetinin,0x1,1,0x2903f4,putty.exe,31704,0,0,512,609,303,0x2903f4,1,0
2024-05-10T14:00:53.371,shetinin,0x1,1,0x2903f4,putty.exe,31704,0,0,512,615,310,0x2903f4,1,0
2024-05-10T14:00:53.379,shetinin,0x1,1,0x2903f4,putty.exe,31704,0,0,512,621,316,0x2903f4,1,0
2024-05-10T14:00:53.384,shetinin,0x1,1,0x2903f4,putty.exe,31704,0,0,512,626,321,0x2903f4,1,0
2024-05-10T14:00:53.393,shetinin,0x1,1,0x2903f4,putty.exe,31704,0,0,512,629,325,0x2903f4,1,0
2024-05-10T14:00:53.404,shetinin,0x1,1,0x2903f4,putty.exe,31704,0,0,512,631,328,0x2903f4,1,0
2024-05-10T14:00:53.406,shetinin,0x1,1,0x2903f4,putty.exe,31704,0,0,512,633,331,0x2903f4,1,0
2024-05-10T14:00:53.412,shetinin,0x1,1,0x2903f4,putty.exe,31704,0,0,512,635,333,0x2903f4,1,0
2024-05-10T14:00:53.420,shetinin,0x1,1,0x2903f4,putty.exe,31704,0,0,512,636,336,0x2903f4,1,0
2024-05-10T14:00:53.427,shetinin,0x1,1,0x2903f4,putty.exe,31704,0,0,512,636,337,0x2903f4,1,0
2024-05-10T14:00:53.434,shetinin,0x1,1,0x2903f4,putty.exe,31704,0,0,512,635,339,0x2903f4,1,0
2024-05-10T14:00:53.442,shetinin,0x1,1,0x2903f4,putty.exe,31704,0,0,512,633,341,0x2903f4,1,0
2024-05-10T14:00:53.448,shetinin,0x1,1,0x2903f4,putty.exe,31704,0,0,512,627,343,0x2903f4,1,0
2024-05-10T14:00:53.455,shetinin,0x1,1,0x2903f4,putty.exe,31704,0,0,512,615,343,0x2903f4,1,0
2024-05-10T14:00:53.462,shetinin,0x1,1,0x2903f4,putty.exe,31704,0,0,512,602,342,0x2903f4,1,0
2024-05-10T14:00:53.469,shetinin,0x1,1,0x2903f4,putty.exe,31704,0,0,512,584,339,0x2903f4,1,0
2024-05-10T14:00:53.476,shetinin,0x1,1,0x2903f4,putty.exe,31704,0,0,512,563,331,0x2903f4,1,0
2024-05-10T14:00:53.485,shetinin,0x1,1,0x2903f4,putty.exe,31704,0,0,512,527,314,0x2903f4,1,0
2024-05-10T14:00:53.490,shetinin,0x1,1,0x2903f4,putty.exe,31704,0,0,512,480,287,0x2903f4,1,0
2024-05-10T14:00:53.497,shetinin,0x1,1,0x2903f4,pycharm64.exe,19032,0,0,512,419,244,0x300768,1,0
2024-05-10T14:00:53.504,shetinin,0x1,1,0x2903f4,pycharm64.exe,19032,0,0,512,364,189,0x300768,1,0
2024-05-10T14:00:53.511,shetinin,0x1,1,0x2903f4,pycharm64.exe,19032,0,0,512,318,138,0x300768,1,0
2024-05-10T14:00:53.531,shetinin,0x1,1,0x2903f4,pycharm64.exe,19032,0,0,512,264,71,0x300768,1,0
2024-05-10T14:00:53.532,shetinin,0x1,1,0x2903f4,pycharm64.exe,19032,0,0,512,246,45,0x300768,1,0
2024-05-10T14:00:53.543,shetinin,0x1,1,0x2903f4,pycharm64.exe,19032,0,0,160,232,25,0x300768,2,0
2024-05-10T14:00:53.550,shetinin,0x1,1,0x2903f4,pycharm64.exe,19032,0,0,160,222,12,0x300768,2,0
2024-05-10T14:00:53.553,shetinin,0x1,1,0x2903f4,pycharm64.exe,19032,0,0,160,216,4,0x300768,2,0
2024-05-10T14:00:54.298,shetinin,0x1,1,0x2903f4,pycharm64.exe,19032,0,0,512,188,112,0x300768,1,0
2024-05-10T14:00:54.317,shetinin,0x1,1,0x2903f4,pycharm64.exe,19032,0,0,512,213,236,0x300768,1,0
2024-05-10T14:00:54.332,shetinin,0x1,1,0x2903f4,pycharm64.exe,19032,0,0,512,246,361,0x300768,1,0
2024-05-10T14:00:54.348,shetinin,0x1,1,0x2903f4,pycharm64.exe,19032,0,0,512,287,487,0x300768,1,0
2024-05-10T14:00:54.366,shetinin,0x1,1,0x2903f4,pycharm64.exe,19032,0,0,512,350,633,0x300768,1,0
2024-05-10T14:00:54.383,shetinin,0x1,1,0x2903f4,pycharm64.exe,19032,0,0,512,382,694,0x300768,1,0
2024-05-10T14:00:54.399,shetinin,0x1,1,0x2903f4,pycharm64.exe,19032,0,0,512,400,726,0x300768,1,0
2024-05-10T14:00:54.415,shetinin,0x1,1,0x2903f4,pycharm64.exe,19032,0,0,512,412,747,0x300768,1,0
2024-05-10T14:00:54.432,shetinin,0x1,1,0x2903f4,pycharm64.exe,19032,0,0,512,413,749,0x300768,1,0
2024-05-10T14:00:54.598,shetinin,0x1,1,0x2903f4,pycharm64.exe,19032,0,0,512,417,755,0x300768,1,0
2024-05-10T14:00:54.604,shetinin,0x1,1,0x2903f4,explorer.exe,6940,0,0,512,421,761,0x100da,1,0
2024-05-10T14:00:54.612,shetinin,0x1,1,0x2903f4,explorer.exe,6940,0,0,512,424,769,0x100da,1,0
2024-05-10T14:00:54.618,shetinin,0x1,1,0x2903f4,explorer.exe,6940,0,0,512,428,776,0x100da,1,0
2024-05-10T14:00:54.625,shetinin,0x1,1,0x2903f4,explorer.exe,6940,0,0,512,431,784,0x100da,1,0
2024-05-10T14:00:54.635,shetinin,0x1,1,0x2903f4,explorer.exe,6940,0,0,512,434,792,0x100da,1,0
2024-05-10T14:00:54.731,shetinin,0x1,1,0x2903f4,explorer.exe,6940,0,0,512,422,793,0x100da,1,0
2024-05-10T14:00:54.741,shetinin,0x1,1,0x2903f4,explorer.exe,6940,0,0,512,414,788,0x100da,1,0
2024-05-10T14:00:54.745,shetinin,0x1,1,0x2903f4,explorer.exe,6940,0,0,512,406,783,0x100da,1,0
2024-05-10T14:00:54.752,shetinin,0x1,1,0x2903f4,explorer.exe,6940,0,0,512,399,778,0x100da,1,0
2024-05-10T14:00:54.759,shetinin,0x1,1,0x2903f4,explorer.exe,6940,0,0,512,393,774,0x100da,1,0
2024-05-10T14:00:54.766,shetinin,0x1,1,0x2903f4,explorer.exe,6940,0,0,512,386,771,0x100da,1,0
2024-05-10T14:00:54.773,shetinin,0x1,1,0x2903f4,explorer.exe,6940,0,0,512,380,768,0x100da,1,0
2024-05-10T14:00:54.780,shetinin,0x1,1,0x2903f4,explorer.exe,6940,0,0,512,374,765,0x100da,1,0
2024-05-10T14:00:54.792,shetinin,0x1,1,0x2903f4,explorer.exe,6940,0,0,512,369,762,0x100da,1,0
2024-05-10T14:00:54.794,shetinin,0x1,1,0x2903f4,explorer.exe,6940,0,0,512,365,761,0x100da,1,0
2024-05-10T14:00:54.816,shetinin,0x1,1,0x2903f4,explorer.exe,6940,0,0,512,358,759,0x100da,1,0
2024-05-10T14:00:54.817,shetinin,0x1,1,0x2903f4,explorer.exe,6940,0,0,512,357,759,0x100da,1,0
2024-05-10T14:00:54.822,shetinin,0x1,1,0x2903f4,explorer.exe,6940,0,0,512,354,759,0x100da,1,0
2024-05-10T14:00:54.836,shetinin,0x1,1,0x2903f4,explorer.exe,6940,0,0,512,352,759,0x100da,1,0
2024-05-10T14:00:54.843,shetinin,0x1,1,0x2903f4,explorer.exe,6940,0,0,512,351,759,0x100da,1,0
2024-05-10T14:00:54.862,shetinin,0x1,1,0x2903f4,explorer.exe,6940,0,0,512,350,759,0x100da,1,0
2024-05-10T14:00:54.864,shetinin,0x1,1,0x2903f4,explorer.exe,6940,0,0,512,349,759,0x100da,1,0
2024-05-10T14:00:54.879,shetinin,0x1,1,0x2903f4,explorer.exe,6940,0,0,512,348,759,0x100da,1,0
2024-05-10T14:00:54.888,shetinin,0x1,1,0x2903f4,explorer.exe,6940,0,0,512,347,759,0x100da,1,0
2024-05-10T14:00:54.892,shetinin,0x1,1,0x2903f4,explorer.exe,6940,0,0,512,346,759,0x100da,1,0
2024-05-10T14:00:54.899,shetinin,0x1,1,0x2903f4,explorer.exe,6940,0,0,512,345,759,0x100da,1,0
2024-05-10T14:00:54.908,shetinin,0x1,1,0x2903f4,explorer.exe,6940,0,0,512,343,759,0x100da,1,0
2024-05-10T14:00:54.916,shetinin,0x1,1,0x2903f4,explorer.exe,6940,0,0,512,342,759,0x100da,1,0
2024-05-10T14:00:54.921,shetinin,0x1,1,0x2903f4,explorer.exe,6940,0,0,512,340,759,0x100da,1,0
2024-05-10T14:00:54.931,shetinin,0x1,1,0x2903f4,explorer.exe,6940,0,0,512,337,759,0x100da,1,0
2024-05-10T14:00:54.949,shetinin,0x1,1,0x2903f4,explorer.exe,6940,0,0,512,334,759,0x100da,1,0
2024-05-10T14:00:54.949,shetinin,0x1,1,0x2903f4,explorer.exe,6940,0,0,512,331,759,0x100da,1,0
2024-05-10T14:00:54.970,shetinin,0x1,1,0x2903f4,explorer.exe,6940,0,0,512,328,759,0x100da,1,0
2024-05-10T14:00:54.978,shetinin,0x1,1,0x2903f4,explorer.exe,6940,0,0,512,327,759,0x100da,1,0
2024-05-10T14:00:55.008,shetinin,0x1,1,0,explorer.exe,6940,0,0,513,327,759,0x100da,1,0
2024-05-10T14:00:55.090,shetinin,0x1,1,0,explorer.exe,6940,0,0,514,327,759,0x100da,1,0
2024-05-10T14:00:55.091,shetinin,0x1,1,0xe02be,explorer.exe,6940,0,0,512,327,759,0x100da,1,0
2024-05-10T14:00:55.092,shetinin,0x1,1,0xe02be,explorer.exe,6940,0,0,512,327,759,0x100da,1,0
2024-05-10T14:00:55.330,shetinin,0x1,1,0xe02be,devenv.exe,12504,0,0,512,334,755,0xe02be,1,0
2024-05-10T14:00:55.337,shetinin,0x1,1,0xe02be,devenv.exe,12504,0,0,512,342,748,0xe02be,1,0
2024-05-10T14:00:55.344,shetinin,0x1,1,0xe02be,devenv.exe,12504,0,0,512,352,741,0xe02be,1,0
2024-05-10T14:00:55.351,shetinin,0x1,1,0xe02be,devenv.exe,12504,0,0,512,366,728,0xe02be,1,0
2024-05-10T14:00:55.358,shetinin,0x1,1,0xe02be,devenv.exe,12504,0,0,512,383,711,0xe02be,1,0
2024-05-10T14:00:55.365,shetinin,0x1,1,0xe02be,devenv.exe,12504,0,0,512,407,683,0x1091a,1,0
2024-05-10T14:00:55.372,shetinin,0x1,1,0xe02be,devenv.exe,12504,0,0,512,431,649,0x1091a,1,0
2024-05-10T14:00:55.381,shetinin,0x1,1,0xe02be,devenv.exe,12504,0,0,512,460,609,0x1091a,1,0
2024-05-10T14:00:55.386,shetinin,0x1,1,0xe02be,devenv.exe,12504,0,0,512,488,573,0x1091a,1,0
2024-05-10T14:00:55.393,shetinin,0x1,1,0xe02be,devenv.exe,12504,0,0,512,525,535,0x1091a,1,0
2024-05-10T14:00:55.400,shetinin,0x1,1,0xe02be,devenv.exe,12504,0,0,512,559,503,0xe02be,1,0
2024-05-10T14:00:55.407,shetinin,0x1,1,0xe02be,devenv.exe,12504,0,0,512,585,478,0xe02be,1,0
2024-05-10T14:00:55.414,shetinin,0x1,1,0xe02be,devenv.exe,12504,0,0,512,602,457,0xe02be,1,0
2024-05-10T14:00:55.422,shetinin,0x1,1,0xe02be,devenv.exe,12504,0,0,512,615,437,0xe02be,1,0
2024-05-10T14:00:55.429,shetinin,0x1,1,0xe02be,devenv.exe,12504,0,0,512,625,422,0xe02be,1,0
2024-05-10T14:00:55.436,shetinin,0x1,1,0xe02be,devenv.exe,12504,0,0,512,634,410,0xe02be,1,0
2024-05-10T14:00:55.443,shetinin,0x1,1,0xe02be,devenv.exe,12504,0,0,512,642,401,0xe02be,1,0
2024-05-10T14:00:55.450,shetinin,0x1,1,0xe02be,devenv.exe,12504,0,0,512,648,392,0xe02be,1,0
2024-05-10T14:00:55.457,shetinin,0x1,1,0xe02be,devenv.exe,12504,0,0,512,652,385,0xe02be,1,0
2024-05-10T14:00:55.464,shetinin,0x1,1,0xe02be,devenv.exe,12504,0,0,512,655,382,0xe02be,1,0
2024-05-10T14:00:55.471,shetinin,0x1,1,0xe02be,devenv.exe,12504,0,0,512,656,381,0xe02be,1,0
2024-05-10T14:00:55.612,shetinin,0x1,1,0xe02be,devenv.exe,12504,0,0,513,656,381,0xe02be,1,0
2024-05-10T14:00:55.718,shetinin,0x1,1,0xe02be,devenv.exe,12504,0,0,514,656,381,0xe02be,1,0
2024-05-10T14:00:55.965,shetinin,0x1,1,0xe02be,devenv.exe,12504,0,0,512,651,389,0xe02be,1,0
2024-05-10T14:00:55.983,shetinin,0x1,1,0xe02be,devenv.exe,12504,0,0,512,647,394,0xe02be,1,0
2024-05-10T14:00:55.985,shetinin,0x1,1,0xe02be,devenv.exe,12504,0,0,512,646,396,0xe02be,1,0
2024-05-10T14:00:55.992,shetinin,0x1,1,0xe02be,devenv.exe,12504,0,0,512,645,397,0xe02be,1,0
2024-05-10T14:00:56.003,shetinin,0x1,1,0xe02be,devenv.exe,12504,0,0,512,644,397,0xe02be,1,0
2024-05-10T14:00:56.007,shetinin,0x1,1,0xe02be,devenv.exe,12504,0,0,512,643,397,0xe02be,1,0
2024-05-10T14:00:56.013,shetinin,0x1,1,0xe02be,devenv.exe,12504,0,0,512,641,398,0xe02be,1,0
2024-05-10T14:00:56.020,shetinin,0x1,1,0xe02be,devenv.exe,12504,0,0,512,638,398,0xe02be,1,0
2024-05-10T14:00:56.027,shetinin,0x1,1,0xe02be,devenv.exe,12504,0,0,512,636,397,0xe02be,1,0
2024-05-10T14:00:56.036,shetinin,0x1,1,0xe02be,devenv.exe,12504,0,0,512,635,396,0xe02be,1,0
2024-05-10T14:00:56.041,shetinin,0x1,1,0xe02be,devenv.exe,12504,0,0,512,634,395,0xe02be,1,0
2024-05-10T14:00:56.268,shetinin,0x1,1,0xe02be,devenv.exe,12504,0,0,522,634,395,0xe02be,0,0
2024-05-10T14:00:56.274,shetinin,0x1,1,0xe02be,devenv.exe,12504,0,0,522,634,395,0xe02be,0,0
2024-05-10T14:00:56.282,shetinin,0x1,1,0xe02be,devenv.exe,12504,0,0,522,634,395,0xe02be,0,0
2024-05-10T14:00:56.289,shetinin,0x1,1,0xe02be,devenv.exe,12504,0,0,522,634,395,0xe02be,0,0
2024-05-10T14:00:56.299,shetinin,0x1,1,0xe02be,devenv.exe,12504,0,0,522,634,395,0xe02be,0,0
2024-05-10T14:00:56.303,shetinin,0x1,1,0xe02be,devenv.exe,12504,0,0,522,634,395,0xe02be,0,0
2024-05-10T14:00:56.314,shetinin,0x1,1,0xe02be,devenv.exe,12504,0,0,522,634,395,0xe02be,0,0
2024-05-10T14:00:56.321,shetinin,0x1,1,0xe02be,devenv.exe,12504,0,0,522,634,395,0xe02be,0,0
2024-05-10T14:00:56.324,shetinin,0x1,1,0xe02be,devenv.exe,12504,0,0,522,634,395,0xe02be,0,0
2024-05-10T14:00:56.333,shetinin,0x1,1,0xe02be,devenv.exe,12504,0,0,522,634,395,0xe02be,0,0
2024-05-10T14:00:56.339,shetinin,0x1,1,0xe02be,devenv.exe,12504,0,0,522,634,395,0xe02be,0,0
2024-05-10T14:00:56.347,shetinin,0x1,1,0xe02be,devenv.exe,12504,0,0,522,634,395,0xe02be,0,0
2024-05-10T14:00:56.528,shetinin,0x1,1,0xe02be,devenv.exe,12504,0,0,512,634,407,0xe02be,1,0
2024-05-10T14:00:56.535,shetinin,0x1,1,0xe02be,devenv.exe,12504,0,0,512,633,422,0xe02be,1,0
2024-05-10T14:00:56.543,shetinin,0x1,1,0xe02be,devenv.exe,12504,0,0,512,630,441,0xe02be,1,0
2024-05-10T14:00:56.549,shetinin,0x1,1,0xe02be,devenv.exe,12504,0,0,512,627,467,0xe02be,1,0
2024-05-10T14:00:56.557,shetinin,0x1,1,0xe02be,devenv.exe,12504,0,0,512,622,501,0xe02be,1,0
2024-05-10T14:00:56.563,shetinin,0x1,1,0xe02be,devenv.exe,12504,0,0,512,618,536,0x1091a,1,0
2024-05-10T14:00:56.570,shetinin,0x1,1,0xe02be,devenv.exe,12504,0,0,512,613,566,0x1091a,1,0
2024-05-10T14:00:56.577,shetinin,0x1,1,0xe02be,devenv.exe,12504,0,0,512,610,589,0x1091a,1,0
2024-05-10T14:00:56.584,shetinin,0x1,1,0xe02be,devenv.exe,12504,0,0,512,607,609,0x1091a,1,0
2024-05-10T14:00:56.592,shetinin,0x1,1,0xe02be,devenv.exe,12504,0,0,512,603,629,0x1091a,1,0
2024-05-10T14:00:56.600,shetinin,0x1,1,0xe02be,devenv.exe,12504,0,0,512,600,650,0x1091a,1,0
2024-05-10T14:00:56.605,shetinin,0x1,1,0xe02be,devenv.exe,12504,0,0,512,597,666,0x1091a,1,0
2024-05-10T14:00:56.613,shetinin,0x1,1,0xe02be,devenv.exe,12504,0,0,512,596,679,0x1091a,1,0
2024-05-10T14:00:56.621,shetinin,0x1,1,0xe02be,devenv.exe,12504,0,0,512,594,693,0x1091a,1,0
2024-05-10T14:00:56.627,shetinin,0x1,1,0xe02be,devenv.exe,12504,0,0,512,592,709,0xe02be,1,0
2024-05-10T14:00:56.634,shetinin,0x1,1,0xe02be,devenv.exe,12504,0,0,512,591,721,0xe02be,1,0
2024-05-10T14:00:56.641,shetinin,0x1,1,0xe02be,devenv.exe,12504,0,0,512,591,729,0xe02be,1,0
2024-05-10T14:00:56.648,shetinin,0x1,1,0xe02be,devenv.exe,12504,0,0,512,590,737,0xe02be,1,0
2024-05-10T14:00:56.656,shetinin,0x1,1,0xe02be,devenv.exe,12504,0,0,512,589,741,0xe02be,1,0
2024-05-10T14:00:56.663,shetinin,0x1,1,0xe02be,devenv.exe,12504,0,0,512,589,745,0xe02be,1,0
2024-05-10T14:00:56.669,shetinin,0x1,1,0xe02be,devenv.exe,12504,0,0,512,588,748,0xe02be,1,0
2024-05-10T14:00:56.681,shetinin,0x1,1,0xe02be,devenv.exe,12504,0,0,512,588,751,0xe02be,1,0
2024-05-10T14:00:56.683,shetinin,0x1,1,0xe02be,devenv.exe,12504,0,0,512,586,754,0xe02be,1,0
2024-05-10T14:00:56.690,shetinin,0x1,1,0xe02be,explorer.exe,6940,0,0,512,585,757,0x100da,1,0
2024-05-10T14:00:56.695,shetinin,0x1,1,0xe02be,explorer.exe,6940,0,0,512,585,757,0x100da,1,0
2024-05-10T14:00:56.697,shetinin,0x1,1,0xe02be,explorer.exe,6940,0,0,512,585,761,0x100da,1,0
2024-05-10T14:00:56.704,shetinin,0x1,1,0xe02be,explorer.exe,6940,0,0,512,584,763,0x100da,1,0
2024-05-10T14:00:56.715,shetinin,0x1,1,0xe02be,explorer.exe,6940,0,0,512,584,765,0x100da,1,0
2024-05-10T14:00:56.731,shetinin,0x1,1,0xe02be,explorer.exe,6940,0,0,512,583,768,0x100da,1,0
2024-05-10T14:00:56.732,shetinin,0x1,1,0xe02be,explorer.exe,6940,0,0,512,582,770,0x100da,1,0
2024-05-10T14:00:56.740,shetinin,0x1,1,0xe02be,explorer.exe,6940,0,0,512,582,771,0x100da,1,0
2024-05-10T14:00:56.747,shetinin,0x1,1,0xe02be,explorer.exe,6940,0,0,512,581,773,0x100da,1,0
2024-05-10T14:00:56.753,shetinin,0x1,1,0xe02be,explorer.exe,6940,0,0,512,581,774,0x100da,1,0
2024-05-10T14:00:56.762,shetinin,0x1,1,0xe02be,explorer.exe,6940,0,0,512,580,775,0x100da,1,0
2024-05-10T14:00:56.769,shetinin,0x1,1,0xe02be,explorer.exe,6940,0,0,512,580,777,0x100da,1,0
2024-05-10T14:00:56.790,shetinin,0x1,1,0xe02be,explorer.exe,6940,0,0,512,579,778,0x100da,1,0
2024-05-10T14:00:56.796,shetinin,0x1,1,0xe02be,explorer.exe,6940,0,0,512,578,778,0x100da,1,0
2024-05-10T14:00:56.803,shetinin,0x1,1,0xe02be,explorer.exe,6940,0,0,512,575,779,0x100da,1,0
2024-05-10T14:00:56.810,shetinin,0x1,1,0xe02be,explorer.exe,6940,0,0,512,572,779,0x100da,1,0
2024-05-10T14:00:56.817,shetinin,0x1,1,0xe02be,explorer.exe,6940,0,0,512,568,778,0x100da,1,0
2024-05-10T14:00:56.825,shetinin,0x1,1,0xe02be,explorer.exe,6940,0,0,512,563,777,0x100da,1,0
2024-05-10T14:00:56.831,shetinin,0x1,1,0xe02be,explorer.exe,6940,0,0,512,558,775,0x100da,1,0
2024-05-10T14:00:56.838,shetinin,0x1,1,0xe02be,explorer.exe,6940,0,0,512,554,773,0x100da,1,0
2024-05-10T14:00:56.847,shetinin,0x1,1,0xe02be,explorer.exe,6940,0,0,512,550,770,0x100da,1,0
2024-05-10T14:00:56.852,shetinin,0x1,1,0xe02be,explorer.exe,6940,0,0,512,547,768,0x100da,1,0
2024-05-10T14:00:56.861,shetinin,0x1,1,0xe02be,explorer.exe,6940,0,0,512,544,765,0x100da,1,0
2024-05-10T14:00:56.866,shetinin,0x1,1,0xe02be,explorer.exe,6940,0,0,512,542,764,0x100da,1,0
2024-05-10T14:00:56.873,shetinin,0x1,1,0xe02be,explorer.exe,6940,0,0,512,541,763,0x100da,1,0
2024-05-10T14:00:56.881,shetinin,0x1,1,0xe02be,explorer.exe,6940,0,0,512,540,763,0x100da,1,0
2024-05-10T14:00:56.887,shetinin,0x1,1,0xe02be,explorer.exe,6940,0,0,512,539,762,0x100da,1,0
2024-05-10T14:00:56.932,shetinin,0x1,1,0xe02be,explorer.exe,6940,0,0,512,537,762,0x100da,1,0
2024-05-10T14:00:56.936,shetinin,0x1,1,0xe02be,explorer.exe,6940,0,0,512,535,761,0x100da,1,0
2024-05-10T14:00:56.944,shetinin,0x1,1,0xe02be,explorer.exe,6940,0,0,512,533,761,0x100da,1,0
2024-05-10T14:00:56.951,shetinin,0x1,1,0xe02be,explorer.exe,6940,0,0,512,531,762,0x100da,1,0
2024-05-10T14:00:56.959,shetinin,0x1,1,0xe02be,explorer.exe,6940,0,0,512,528,764,0x100da,1,0
2024-05-10T14:00:56.968,shetinin,0x1,1,0xe02be,explorer.exe,6940,0,0,512,526,766,0x100da,1,0
2024-05-10T14:00:56.984,shetinin,0x1,1,0xe02be,explorer.exe,6940,0,0,512,522,771,0x100da,1,0
2024-05-10T14:00:56.988,shetinin,0x1,1,0xe02be,explorer.exe,6940,0,0,512,520,773,0x100da,1,0
2024-05-10T14:00:56.994,shetinin,0x1,1,0xe02be,explorer.exe,6940,0,0,512,519,774,0x100da,1,0
2024-05-10T14:00:57.001,shetinin,0x1,1,0xe02be,explorer.exe,6940,0,0,512,518,775,0x100da,1,0
2024-05-10T14:00:57.009,shetinin,0x1,1,0xe02be,explorer.exe,6940,0,0,512,517,776,0x100da,1,0
2024-05-10T14:00:57.015,shetinin,0x1,1,0xe02be,explorer.exe,6940,0,0,512,516,776,0x100da,1,0
2024-05-10T14:00:57.022,shetinin,0x1,1,0xe02be,explorer.exe,6940,0,0,512,515,777,0x100da,1,0
2024-05-10T14:00:57.044,shetinin,0x1,1,0,explorer.exe,6940,0,0,513,515,777,0x100da,1,0
2024-05-10T14:00:57.135,shetinin,0x1,1,0,explorer.exe,6940,0,0,514,515,777,0x100da,1,0
2024-05-10T14:00:57.136,shetinin,0x1,1,0x5b08e8,explorer.exe,6940,0,0,512,515,777,0x100da,1,0
2024-05-10T14:00:57.152,shetinin,0x1,1,0x5b08e8,explorer.exe,6940,0,0,512,515,777,0x100da,1,0
2024-05-10T14:00:57.152,shetinin,0x1,1,0x5b08e8,explorer.exe,6940,0,0,512,515,777,0x100da,1,0
2024-05-10T14:00:57.256,shetinin,0x1,1,0x5b08e8,explorer.exe,6940,0,0,512,521,775,0x100da,1,0
2024-05-10T14:00:57.261,shetinin,0x1,1,0x5b08e8,explorer.exe,6940,0,0,512,527,774,0x100da,1,0
2024-05-10T14:00:57.271,shetinin,0x1,1,0x5b08e8,explorer.exe,6940,0,0,512,534,772,0x100da,1,0
2024-05-10T14:00:57.275,shetinin,0x1,1,0x5b08e8,explorer.exe,6940,0,0,512,541,770,0x100da,1,0
2024-05-10T14:00:57.282,shetinin,0x1,1,0x5b08e8,explorer.exe,6940,0,0,512,546,768,0x100da,1,0
2024-05-10T14:00:57.294,shetinin,0x1,1,0x5b08e8,explorer.exe,6940,0,0,512,553,766,0x100da,1,0
2024-05-10T14:00:57.297,shetinin,0x1,1,0x5b08e8,explorer.exe,6940,0,0,512,559,764,0x100da,1,0
2024-05-10T14:00:57.303,shetinin,0x1,1,0x5b08e8,explorer.exe,6940,0,0,512,565,762,0x100da,1,0
2024-05-10T14:00:57.310,shetinin,0x1,1,0x5b08e8,explorer.exe,6940,0,0,512,572,759,0x100da,1,0
2024-05-10T14:00:57.667,shetinin,0x1,1,0x5b08e8,explorer.exe,6940,0,0,512,622,758,0x20024,1,0
2024-05-10T14:00:57.670,shetinin,0x1,1,0x5b08e8,explorer.exe,6940,0,0,512,616,766,0x20024,1,0
2024-05-10T14:00:57.683,shetinin,0x1,1,0x5b08e8,explorer.exe,6940,0,0,512,611,774,0x20024,1,0
2024-05-10T14:00:57.684,shetinin,0x1,1,0x5b08e8,explorer.exe,6940,0,0,512,606,781,0x20024,1,0
2024-05-10T14:00:57.691,shetinin,0x1,1,0x5b08e8,explorer.exe,6940,0,0,512,601,787,0x20024,1,0
2024-05-10T14:00:57.702,shetinin,0x1,1,0x5b08e8,explorer.exe,6940,0,0,512,596,791,0x20024,1,0
2024-05-10T14:00:57.705,shetinin,0x1,1,0x5b08e8,explorer.exe,6940,0,0,512,593,795,0x20024,1,0
2024-05-10T14:00:57.882,shetinin,0x1,1,0x5b08e8,explorer.exe,6940,0,0,512,562,795,0x100da,1,0
2024-05-10T14:00:57.889,shetinin,0x1,1,0x5b08e8,explorer.exe,6940,0,0,512,560,794,0x100da,1,0
2024-05-10T14:00:57.895,shetinin,0x1,1,0x5b08e8,explorer.exe,6940,0,0,512,558,793,0x100da,1,0
2024-05-10T14:00:57.903,shetinin,0x1,1,0x5b08e8,explorer.exe,6940,0,0,512,556,791,0x100da,1,0
2024-05-10T14:00:57.909,shetinin,0x1,1,0x5b08e8,explorer.exe,6940,0,0,512,555,791,0x100da,1,0
2024-05-10T14:00:57.917,shetinin,0x1,1,0x5b08e8,explorer.exe,6940,0,0,512,554,790,0x100da,1,0
2024-05-10T14:00:57.927,shetinin,0x1,1,0x5b08e8,explorer.exe,6940,0,0,512,553,790,0x100da,1,0
2024-05-10T14:00:57.980,shetinin,0x1,1,0,explorer.exe,6940,0,0,513,553,790,0x100da,1,0
2024-05-10T14:00:58.093,shetinin,0x1,1,0,explorer.exe,6940,0,0,514,553,790,0x100da,1,0
2024-05-10T14:00:58.093,shetinin,0x1,1,0,explorer.exe,6940,0,0,512,553,790,0x100da,1,0
2024-05-10T14:00:58.094,shetinin,0x1,1,0x1209d0,explorer.exe,6940,0,0,512,553,790,0x100da,1,0
2024-05-10T14:00:58.290,shetinin,0x1,1,0x1209d0,explorer.exe,6940,0,0,512,556,788,0x100da,1,0
2024-05-10T14:00:58.298,shetinin,0x1,1,0x1209d0,explorer.exe,6940,0,0,512,558,785,0x100da,1,0
2024-05-10T14:00:58.304,shetinin,0x1,1,0x1209d0,explorer.exe,6940,0,0,512,561,780,0x100da,1,0
2024-05-10T14:00:58.311,shetinin,0x1,1,0x1209d0,explorer.exe,6940,0,0,512,564,773,0x100da,1,0
2024-05-10T14:00:58.318,shetinin,0x1,1,0x1209d0,explorer.exe,6940,0,0,512,567,765,0x100da,1,0
2024-05-10T14:00:58.374,shetinin,0x1,1,0x1209d0,VsDebugConsole.exe,22988,0,0,512,578,633,0x1209d0,1,0
2024-05-10T14:00:58.381,shetinin,0x1,1,0x1209d0,VsDebugConsole.exe,22988,0,0,512,579,610,0x1209d0,1,0
2024-05-10T14:00:58.388,shetinin,0x1,1,0x1209d0,VsDebugConsole.exe,22988,0,0,512,579,590,0x1209d0,1,0
2024-05-10T14:00:58.396,shetinin,0x1,1,0x1209d0,VsDebugConsole.exe,22988,0,0,512,580,567,0x1209d0,1,0
2024-05-10T14:00:58.402,shetinin,0x1,1,0x1209d0,VsDebugConsole.exe,22988,0,0,512,581,539,0x1209d0,1,0
2024-05-10T14:00:58.408,shetinin,0x1,1,0x1209d0,VsDebugConsole.exe,22988,0,0,512,581,521,0x1209d0,1,0
2024-05-10T14:00:58.416,shetinin,0x1,1,0x1209d0,VsDebugConsole.exe,22988,0,0,512,581,513,0x1209d0,1,0
2024-05-10T14:00:58.601,shetinin,0x1,1,0x1209d0,VsDebugConsole.exe,22988,0,0,513,581,513,0x1209d0,1,0
2024-05-10T14:00:57.332,shetinin,0x1,1,0x5b08e8,devenv.exe,12504,0,0,512,591,749,0xe02be,1,0
2024-05-10T14:00:57.339,shetinin,0x1,1,0x5b08e8,devenv.exe,12504,0,0,512,597,746,0xe02be,1,0
2024-05-10T14:00:57.346,shetinin,0x1,1,0x5b08e8,devenv.exe,12504,0,0,512,602,742,0xe02be,1,0
2024-05-10T14:00:57.353,shetinin,0x1,1,0x5b08e8,devenv.exe,12504,0,0,512,608,738,0xe02be,1,0
2024-05-10T14:00:57.361,shetinin,0x1,1,0x5b08e8,devenv.exe,12504,0,0,512,613,732,0xe02be,1,0
2024-05-10T14:00:57.367,shetinin,0x1,1,0x5b08e8,devenv.exe,12504,0,0,512,619,727,0xe02be,1,0
2024-05-10T14:00:57.377,shetinin,0x1,1,0x5b08e8,devenv.exe,12504,0,0,512,623,722,0xe02be,1,0
2024-05-10T14:00:57.381,shetinin,0x1,1,0x5b08e8,devenv.exe,12504,0,0,512,627,715,0xe02be,1,0
2024-05-10T14:00:57.388,shetinin,0x1,1,0x5b08e8,devenv.exe,12504,0,0,512,631,708,0xe02be,1,0
2024-05-10T14:00:57.399,shetinin,0x1,1,0x5b08e8,devenv.exe,12504,0,0,512,635,699,0x1091a,1,0
2024-05-10T14:00:57.403,shetinin,0x1,1,0x5b08e8,devenv.exe,12504,0,0,512,639,689,0x1091a,1,0
2024-05-10T14:00:57.410,shetinin,0x1,1,0x5b08e8,devenv.exe,12504,0,0,512,642,680,0x1091a,1,0
2024-05-10T14:00:57.620,shetinin,0x1,1,0x5b08e8,devenv.exe,12504,0,0,512,659,685,0x1091a,1,0
2024-05-10T14:00:57.627,shetinin,0x1,1,0x5b08e8,devenv.exe,12504,0,0,512,652,700,0x1091a,1,0
2024-05-10T14:00:57.634,shetinin,0x1,1,0x5b08e8,devenv.exe,12504,0,0,512,646,713,0xe02be,1,0
2024-05-10T14:00:57.641,shetinin,0x1,1,0x5b08e8,devenv.exe,12504,0,0,512,640,727,0xe02be,1,0
2024-05-10T14:00:57.648,shetinin,0x1,1,0x5b08e8,devenv.exe,12504,0,0,512,634,740,0xe02be,1,0
2024-05-10T14:00:57.656,shetinin,0x1,1,0x5b08e8,devenv.exe,12504,0,0,512,628,749,0xe02be,1,0
2024-05-10T14:00:58.325,shetinin,0x1,1,0x1209d0,devenv.exe,12504,0,0,512,570,755,0xe02be,1,0
2024-05-10T14:00:58.332,shetinin,0x1,1,0x1209d0,devenv.exe,12504,0,0,512,572,743,0xe02be,1,0
2024-05-10T14:00:58.339,shetinin,0x1,1,0x1209d0,devenv.exe,12504,0,0,512,574,732,0xe02be,1,0
2024-05-10T14:00:58.346,shetinin,0x1,1,0x1209d0,devenv.exe,12504,0,0,512,576,718,0xe02be,1,0
2024-05-10T14:00:58.353,shetinin,0x1,1,0x1209d0,devenv.exe,12504,0,0,512,577,704,0x1091a,1,0
2024-05-10T14:00:58.361,shetinin,0x1,1,0x1209d0,devenv.exe,12504,0,0,512,578,683,0x1091a,1,0
2024-05-10T14:00:57.416,shetinin,0x1,1,0x5b08e8,notepad++.exe,27748,0,0,512,645,670,0xf03b2,1,0
2024-05-10T14:00:57.423,shetinin,0x1,1,0x5b08e8,notepad++.exe,27748,0,0,512,649,661,0xf03b2,1,0
2024-05-10T14:00:57.431,shetinin,0x1,1,0x5b08e8,notepad++.exe,27748,0,0,512,653,651,0xf03b2,1,0
2024-05-10T14:00:57.440,shetinin,0x1,1,0x5b08e8,notepad++.exe,27748,0,0,160,656,642,0xe0430,6,0
2024-05-10T14:00:57.445,shetinin,0x1,1,0x5b08e8,notepad++.exe,27748,0,0,160,659,635,0xe0430,6,0
2024-05-10T14:00:57.451,shetinin,0x1,1,0x5b08e8,notepad++.exe,27748,0,0,160,662,627,0xe0430,6,0
2024-05-10T14:00:57.460,shetinin,0x1,1,0x5b08e8,notepad++.exe,27748,0,0,512,665,619,0xe0430,1,0
2024-05-10T14:00:57.465,shetinin,0x1,1,0x5b08e8,notepad++.exe,27748,0,0,512,668,611,0xe0430,1,0
2024-05-10T14:00:57.473,shetinin,0x1,1,0x5b08e8,notepad++.exe,27748,0,0,512,670,605,0xe0430,1,0
2024-05-10T14:00:57.482,shetinin,0x1,1,0x5b08e8,notepad++.exe,27748,0,0,512,672,599,0xe0430,1,0
2024-05-10T14:00:57.486,shetinin,0x1,1,0x5b08e8,notepad++.exe,27748,0,0,512,674,593,0xe0430,1,0
2024-05-10T14:00:57.493,shetinin,0x1,1,0x5b08e8,notepad++.exe,27748,0,0,512,676,587,0xe0430,1,0
2024-05-10T14:00:57.501,shetinin,0x1,1,0x5b08e8,notepad++.exe,27748,0,0,512,678,582,0xe0430,1,0
2024-05-10T14:00:57.508,shetinin,0x1,1,0x5b08e8,notepad++.exe,27748,0,0,512,680,579,0xe0430,1,0
2024-05-10T14:00:57.514,shetinin,0x1,1,0x5b08e8,notepad++.exe,27748,0,0,512,681,575,0xe0430,1,0
2024-05-10T14:00:57.522,shetinin,0x1,1,0x5b08e8,notepad++.exe,27748,0,0,512,682,573,0xe0430,1,0
2024-05-10T14:00:57.528,shetinin,0x1,1,0x5b08e8,notepad++.exe,27748,0,0,512,682,572,0xe0430,1,0
2024-05-10T14:00:57.581,shetinin,0x1,1,0x5b08e8,notepad++.exe,27748,0,0,512,684,577,0xe0430,1,0
2024-05-10T14:00:57.585,shetinin,0x1,1,0x5b08e8,notepad++.exe,27748,0,0,512,683,587,0xe0430,1,0
2024-05-10T14:00:57.592,shetinin,0x1,1,0x5b08e8,notepad++.exe,27748,0,0,512,681,600,0xe0430,1,0
2024-05-10T14:00:57.599,shetinin,0x1,1,0x5b08e8,notepad++.exe,27748,0,0,512,678,614,0xe0430,1,0
2024-05-10T14:00:57.608,shetinin,0x1,1,0x5b08e8,notepad++.exe,27748,0,0,160,673,636,0xe0430,6,0
2024-05-10T14:00:57.613,shetinin,0x1,1,0x5b08e8,notepad++.exe,27748,0,0,512,666,662,0xf03b2,1,0
2024-05-10T14:00:58.367,shetinin,0x1,1,0x1209d0,notepad++.exe,27748,0,0,512,578,658,0xf03b2,1,0
2024-05-10T14:00:58.734,shetinin,0x1,1,0x1209d0,VsDebugConsole.exe,22988,0,0,514,581,513,0x1209d0,1,0
2024-05-10T14:00:58.735,shetinin,0x1,1,0x1209d0,VsDebugConsole.exe,22988,0,0,512,581,513,0x1209d0,1,0
2024-05-10T14:00:59.680,shetinin,0x1,1,0x1209d0,VsDebugConsole.exe,22988,0,0,512,590,509,0x1209d0,1,0
2024-05-10T14:00:59.685,shetinin,0x1,1,0x1209d0,VsDebugConsole.exe,22988,0,0,512,603,504,0x1209d0,1,0
2024-05-10T14:00:59.692,shetinin,0x1,1,0x1209d0,VsDebugConsole.exe,22988,0,0,512,619,498,0x1209d0,1,0
2024-05-10T14:00:59.699,shetinin,0x1,1,0x1209d0,VsDebugConsole.exe,22988,0,0,512,646,490,0x1209d0,1,0
2024-05-10T14:00:59.706,shetinin,0x1,1,0x1209d0,VsDebugConsole.exe,22988,0,0,512,681,482,0x1209d0,1,0
2024-05-10T14:00:59.713,shetinin,0x1,1,0x1209d0,VsDebugConsole.exe,22988,0,0,512,719,473,0x1209d0,1,0
2024-05-10T14:00:59.720,shetinin,0x1,1,0x1209d0,VsDebugConsole.exe,22988,0,0,512,747,465,0x1209d0,1,0
2024-05-10T14:00:59.728,shetinin,0x1,1,0x1209d0,VsDebugConsole.exe,22988,0,0,512,767,459,0x1209d0,1,0
2024-05-10T14:00:59.735,shetinin,0x1,1,0x1209d0,VsDebugConsole.exe,22988,0,0,512,781,454,0x1209d0,1,0
2024-05-10T14:00:59.741,shetinin,0x1,1,0x1209d0,VsDebugConsole.exe,22988,0,0,512,792,450,0x1209d0,1,0
2024-05-10T14:00:59.749,shetinin,0x1,1,0x1209d0,VsDebugConsole.exe,22988,0,0,512,801,447,0x1209d0,1,0
2024-05-10T14:00:59.759,shetinin,0x1,1,0x1209d0,VsDebugConsole.exe,22988,0,0,512,810,445,0x1209d0,1,0
2024-05-10T14:00:59.763,shetinin,0x1,1,0x1209d0,VsDebugConsole.exe,22988,0,0,512,817,443,0x1209d0,1,0
2024-05-10T14:00:59.770,shetinin,0x1,1,0x1209d0,VsDebugConsole.exe,22988,0,0,512,822,442,0x1209d0,1,0
2024-05-10T14:00:59.777,shetinin,0x1,1,0x1209d0,VsDebugConsole.exe,22988,0,0,512,826,439,0x1209d0,1,0
2024-05-10T14:00:59.784,shetinin,0x1,1,0x1209d0,VsDebugConsole.exe,22988,0,0,512,829,437,0x1209d0,1,0
2024-05-10T14:00:59.791,shetinin,0x1,1,0x1209d0,VsDebugConsole.exe,22988,0,0,512,832,434,0x1209d0,1,0
2024-05-10T14:00:59.798,shetinin,0x1,1,0x1209d0,VsDebugConsole.exe,22988,0,0,512,833,433,0x1209d0,1,0
2024-05-10T14:00:59.807,shetinin,0x1,1,0x1209d0,VsDebugConsole.exe,22988,0,0,512,833,432,0x1209d0,1,0
2024-05-10T14:00:59.815,shetinin,0x1,1,0x1209d0,VsDebugConsole.exe,22988,0,0,512,833,429,0x1209d0,1,0
2024-05-10T14:00:59.820,shetinin,0x1,1,0x1209d0,VsDebugConsole.exe,22988,0,0,512,831,424,0x1209d0,1,0
2024-05-10T14:00:59.826,shetinin,0x1,1,0x1209d0,VsDebugConsole.exe,22988,0,0,512,824,418,0x1209d0,1,0
2024-05-10T14:00:59.835,shetinin,0x1,1,0x1209d0,VsDebugConsole.exe,22988,0,0,512,812,410,0x1209d0,1,0
2024-05-10T14:00:59.841,shetinin,0x1,1,0x1209d0,VsDebugConsole.exe,22988,0,0,512,793,401,0x1209d0,1,0
2024-05-10T14:00:59.847,shetinin,0x1,1,0x1209d0,VsDebugConsole.exe,22988,0,0,512,763,392,0x1209d0,1,0
2024-05-10T14:00:59.855,shetinin,0x1,1,0x1209d0,VsDebugConsole.exe,22988,0,0,512,726,383,0x1209d0,1,0
2024-05-10T14:00:59.862,shetinin,0x1,1,0x1209d0,VsDebugConsole.exe,22988,0,0,512,687,377,0x1209d0,1,0
2024-05-10T14:00:59.869,shetinin,0x1,1,0x1209d0,VsDebugConsole.exe,22988,0,0,512,661,374,0x1209d0,1,0
2024-05-10T14:00:59.878,shetinin,0x1,1,0x1209d0,VsDebugConsole.exe,22988,0,0,512,644,373,0x1209d0,1,0
2024-05-10T14:00:59.883,shetinin,0x1,1,0x1209d0,VsDebugConsole.exe,22988,0,0,512,633,373,0x1209d0,1,0
2024-05-10T14:00:59.890,shetinin,0x1,1,0x1209d0,VsDebugConsole.exe,22988,0,0,512,622,374,0x1209d0,1,0
2024-05-10T14:00:59.897,shetinin,0x1,1,0x1209d0,VsDebugConsole.exe,22988,0,0,512,612,377,0x1209d0,1,0
2024-05-10T14:00:59.904,shetinin,0x1,1,0x1209d0,VsDebugConsole.exe,22988,0,0,512,604,381,0x1209d0,1,0
2024-05-10T14:00:59.911,shetinin,0x1,1,0x1209d0,VsDebugConsole.exe,22988,0,0,512,597,388,0x1209d0,1,0
2024-05-10T14:00:59.919,shetinin,0x1,1,0x1209d0,VsDebugConsole.exe,22988,0,0,512,591,397,0x1209d0,1,0
2024-05-10T14:00:59.925,shetinin,0x1,1,0x1209d0,VsDebugConsole.exe,22988,0,0,512,588,409,0x1209d0,1,0
2024-05-10T14:00:59.932,shetinin,0x1,1,0x1209d0,VsDebugConsole.exe,22988,0,0,512,586,421,0x1209d0,1,0
2024-05-10T14:00:59.939,shetinin,0x1,1,0x1209d0,VsDebugConsole.exe,22988,0,0,512,587,432,0x1209d0,1,0
2024-05-10T14:00:59.946,shetinin,0x1,1,0x1209d0,VsDebugConsole.exe,22988,0,0,512,589,444,0x1209d0,1,0
2024-05-10T14:00:59.953,shetinin,0x1,1,0x1209d0,VsDebugConsole.exe,22988,0,0,512,593,459,0x1209d0,1,0
2024-05-10T14:00:59.963,shetinin,0x1,1,0x1209d0,VsDebugConsole.exe,22988,0,0,512,598,473,0x1209d0,1,0
2024-05-10T14:00:59.967,shetinin,0x1,1,0x1209d0,VsDebugConsole.exe,22988,0,0,512,604,483,0x1209d0,1,0
2024-05-10T14:00:59.974,shetinin,0x1,1,0x1209d0,VsDebugConsole.exe,22988,0,0,512,610,490,0x1209d0,1,0
2024-05-10T14:00:59.981,shetinin,0x1,1,0x1209d0,VsDebugConsole.exe,22988,0,0,512,617,496,0x1209d0,1,0
2024-05-10T14:00:59.988,shetinin,0x1,1,0x1209d0,VsDebugConsole.exe,22988,0,0,512,624,499,0x1209d0,1,0
2024-05-10T14:00:59.999,shetinin,0x1,1,0x1209d0,VsDebugConsole.exe,22988,0,0,512,633,499,0x1209d0,1,0
2024-05-10T14:01:00.003,shetinin,0x1,1,0x1209d0,VsDebugConsole.exe,22988,0,0,512,641,499,0x1209d0,1,0
2024-05-10T14:01:00.014,shetinin,0x1,1,0x1209d0,VsDebugConsole.exe,22988,0,0,512,648,496,0x1209d0,1,0
2024-05-10T14:01:00.019,shetinin,0x1,1,0x1209d0,VsDebugConsole.exe,22988,0,0,512,656,490,0x1209d0,1,0
2024-05-10T14:01:00.024,shetinin,0x1,1,0x1209d0,VsDebugConsole.exe,22988,0,0,512,662,482,0x1209d0,1,0
2024-05-10T14:01:00.035,shetinin,0x1,1,0x1209d0,VsDebugConsole.exe,22988,0,0,512,667,470,0x1209d0,1,0
2024-05-10T14:01:00.038,shetinin,0x1,1,0x1209d0,VsDebugConsole.exe,22988,0,0,512,670,458,0x1209d0,1,0
2024-05-10T14:01:00.047,shetinin,0x1,1,0x1209d0,VsDebugConsole.exe,22988,0,0,512,670,447,0x1209d0,1,0
2024-05-10T14:01:00.051,shetinin,0x1,1,0x1209d0,VsDebugConsole.exe,22988,0,0,512,668,435,0x1209d0,1,0
2024-05-10T14:01:00.059,shetinin,0x1,1,0x1209d0,VsDebugConsole.exe,22988,0,0,512,663,422,0x1209d0,1,0
2024-05-10T14:01:00.065,shetinin,0x1,1,0x1209d0,VsDebugConsole.exe,22988,0,0,512,657,409,0x1209d0,1,0
2024-05-10T14:01:00.073,shetinin,0x1,1,0x1209d0,VsDebugConsole.exe,22988,0,0,512,649,398,0x1209d0,1,0
2024-05-10T14:01:00.083,shetinin,0x1,1,0x1209d0,VsDebugConsole.exe,22988,0,0,512,640,388,0x1209d0,1,0
2024-05-10T14:01:00.091,shetinin,0x1,1,0x1209d0,VsDebugConsole.exe,22988,0,0,512,630,378,0x1209d0,1,0
2024-05-10T14:01:00.094,shetinin,0x1,1,0x1209d0,VsDebugConsole.exe,22988,0,0,512,619,371,0x1209d0,1,0
2024-05-10T14:01:00.101,shetinin,0x1,1,0x1209d0,VsDebugConsole.exe,22988,0,0,512,606,365,0x1209d0,1,0
2024-05-10T14:01:00.109,shetinin,0x1,1,0x1209d0,VsDebugConsole.exe,22988,0,0,512,592,362,0x1209d0,1,0
2024-05-10T14:01:00.116,shetinin,0x1,1,0x1209d0,VsDebugConsole.exe,22988,0,0,512,576,362,0x1209d0,1,0
2024-05-10T14:01:00.123,shetinin,0x1,1,0x1209d0,VsDebugConsole.exe,22988,0,0,512,558,365,0x1209d0,1,0
2024-05-10T14:01:00.130,shetinin,0x1,1,0x1209d0,VsDebugConsole.exe,22988,0,0,512,533,371,0x1209d0,1,0
2024-05-10T14:01:00.142,shetinin,0x1,1,0x1209d0,VsDebugConsole.exe,22988,0,0,512,507,380,0x1209d0,1,0
2024-05-10T14:01:00.144,shetinin,0x1,1,0x1209d0,VsDebugConsole.exe,22988,0,0,512,480,389,0x1209d0,1,0
2024-05-10T14:01:00.151,shetinin,0x1,1,0x1209d0,VsDebugConsole.exe,22988,0,0,512,462,398,0x1209d0,1,0
2024-05-10T14:01:00.158,shetinin,0x1,1,0x1209d0,VsDebugConsole.exe,22988,0,0,512,447,404,0x1209d0,1,0
2024-05-10T14:01:00.165,shetinin,0x1,1,0x1209d0,VsDebugConsole.exe,22988,0,0,512,436,410,0x1209d0,1,0
2024-05-10T14:01:00.172,shetinin,0x1,1,0x1209d0,VsDebugConsole.exe,22988,0,0,512,425,415,0x1209d0,1,0
2024-05-10T14:01:00.178,shetinin,0x1,1,0x1209d0,VsDebugConsole.exe,22988,0,0,512,418,417,0x1209d0,1,0
2024-05-10T14:01:00.186,shetinin,0x1,1,0x1209d0,VsDebugConsole.exe,22988,0,0,512,414,418,0x1209d0,1,0
2024-05-10T14:01:00.399,shetinin,0x1,1,0x1209d0,VsDebugConsole.exe,22988,0,0,512,402,417,0x1209d0,1,0
2024-05-10T14:01:00.405,shetinin,0x1,1,0x1209d0,VsDebugConsole.exe,22988,0,0,512,387,413,0x1209d0,1,0
2024-05-10T14:01:00.415,shetinin,0x1,1,0x1209d0,VsDebugConsole.exe,22988,0,0,512,363,408,0x1209d0,1,0
2024-05-10T14:01:00.421,shetinin,0x1,1,0x1209d0,VsDebugConsole.exe,22988,0,0,512,332,403,0x1209d0,1,0
2024-05-10T14:01:00.425,shetinin,0x1,1,0x1209d0,VsDebugConsole.exe,22988,0,0,512,298,397,0x1209d0,1,0
2024-05-10T14:01:00.435,shetinin,0x1,1,0x1209d0,VsDebugConsole.exe,22988,0,0,512,275,392,0x1209d0,1,0
2024-05-10T14:01:00.439,shetinin,0x1,1,0x1209d0,VsDebugConsole.exe,22988,0,0,160,257,388,0x1209d0,10,0
2024-05-10T14:01:00.478,shetinin,0x1,1,0x1209d0,devenv.exe,12504,0,0,512,203,378,0xe02be,1,0
2024-05-10T14:01:00.482,shetinin,0x1,1,0x1209d0,devenv.exe,12504,0,0,512,198,376,0xe02be,1,0
2024-05-10T14:01:00.489,shetinin,0x1,1,0x1209d0,devenv.exe,12504,0,0,512,194,376,0xe02be,1,0
2024-05-10T14:01:00.498,shetinin,0x1,1,0x1209d0,devenv.exe,12504,0,0,512,191,376,0xe02be,1,0
2024-05-10T14:01:00.504,shetinin,0x1,1,0x1209d0,devenv.exe,12504,0,0,512,186,375,0xe02be,1,0
2024-05-10T14:01:00.512,shetinin,0x1,1,0x1209d0,devenv.exe,12504,0,0,512,183,375,0xe02be,1,0
2024-05-10T14:01:00.517,shetinin,0x1,1,0x1209d0,devenv.exe,12504,0,0,512,179,374,0xe02be,1,0
2024-05-10T14:01:00.524,shetinin,0x1,1,0x1209d0,devenv.exe,12504,0,0,512,177,374,0xe02be,1,0
2024-05-10T14:01:00.537,shetinin,0x1,1,0x1209d0,devenv.exe,12504,0,0,512,174,374,0xe02be,1,0
2024-05-10T14:01:00.539,shetinin,0x1,1,0x1209d0,devenv.exe,12504,0,0,512,171,374,0xe02be,1,0
2024-05-10T14:01:00.551,shetinin,0x1,1,0x1209d0,devenv.exe,12504,0,0,512,168,374,0xe02be,1,0
2024-05-10T14:01:00.553,shetinin,0x1,1,0x1209d0,devenv.exe,12504,0,0,512,165,374,0xe02be,1,0
2024-05-10T14:01:00.568,shetinin,0x1,1,0x1209d0,devenv.exe,12504,0,0,512,157,375,0xe02be,1,0
2024-05-10T14:01:00.574,shetinin,0x1,1,0x1209d0,devenv.exe,12504,0,0,512,153,376,0xe02be,1,0
2024-05-10T14:01:00.580,shetinin,0x1,1,0x1209d0,devenv.exe,12504,0,0,512,150,376,0xe02be,1,0
2024-05-10T14:01:00.589,shetinin,0x1,1,0x1209d0,devenv.exe,12504,0,0,512,147,376,0xe02be,1,0
2024-05-10T14:01:00.594,shetinin,0x1,1,0x1209d0,devenv.exe,12504,0,0,512,145,376,0xe02be,1,0
2024-05-10T14:01:00.601,shetinin,0x1,1,0x1209d0,devenv.exe,12504,0,0,512,143,376,0xe02be,1,0
2024-05-10T14:01:00.608,shetinin,0x1,1,0x1209d0,devenv.exe,12504,0,0,512,141,376,0xe02be,1,0
2024-05-10T14:01:00.615,shetinin,0x1,1,0x1209d0,devenv.exe,12504,0,0,512,139,376,0xe02be,1,0
2024-05-10T14:01:00.622,shetinin,0x1,1,0x1209d0,devenv.exe,12504,0,0,512,137,376,0xe02be,1,0
2024-05-10T14:01:00.634,shetinin,0x1,1,0x1209d0,devenv.exe,12504,0,0,512,136,376,0xe02be,1,0
2024-05-10T14:01:00.637,shetinin,0x1,1,0x1209d0,devenv.exe,12504,0,0,512,135,376,0xe02be,1,0
2024-05-10T14:01:00.648,shetinin,0x1,1,0x1209d0,devenv.exe,12504,0,0,512,134,376,0xe02be,1,0
2024-05-10T14:01:00.711,shetinin,0x1,1,0,devenv.exe,12504,0,0,513,134,376,0xe02be,1,0
2024-05-10T14:01:00.718,shetinin,0x1,1,0xe02be,devenv.exe,12504,0,0,512,134,376,0xe02be,1,0
2024-05-10T14:01:00.778,shetinin,0x1,1,0xe02be,devenv.exe,12504,0,0,514,134,376,0xe02be,1,0
2024-05-10T14:01:00.448,shetinin,0x1,1,0x1209d0,notepad++.exe,27748,0,0,512,243,385,0xe0430,1,0
2024-05-10T14:01:00.453,shetinin,0x1,1,0x1209d0,notepad++.exe,27748,0,0,512,230,382,0xe0430,1,0
2024-05-10T14:01:00.464,shetinin,0x1,1,0x1209d0,notepad++.exe,27748,0,0,512,220,380,0xe0430,1,0
2024-05-10T14:01:00.470,shetinin,0x1,1,0x1209d0,notepad++.exe,27748,0,0,160,211,379,0x5b08e8,10,0
2024-05-10T14:01:01.750,shetinin,0x1,1,0xe02be,explorer.exe,6940,0,0,512,498,758,0x100da,1,0
2024-05-10T14:01:01.757,shetinin,0x1,1,0xe02be,explorer.exe,6940,0,0,512,499,762,0x100da,1,0
2024-05-10T14:01:01.765,shetinin,0x1,1,0xe02be,explorer.exe,6940,0,0,512,499,765,0x100da,1,0
2024-05-10T14:01:01.771,shetinin,0x1,1,0xe02be,explorer.exe,6940,0,0,512,500,768,0x100da,1,0
2024-05-10T14:01:01.779,shetinin,0x1,1,0xe02be,explorer.exe,6940,0,0,512,501,770,0x100da,1,0
2024-05-10T14:01:01.786,shetinin,0x1,1,0xe02be,explorer.exe,6940,0,0,512,501,772,0x100da,1,0
2024-05-10T14:01:01.793,shetinin,0x1,1,0xe02be,explorer.exe,6940,0,0,512,502,774,0x100da,1,0
2024-05-10T14:01:01.800,shetinin,0x1,1,0xe02be,explorer.exe,6940,0,0,512,502,775,0x100da,1,0
2024-05-10T14:01:01.807,shetinin,0x1,1,0xe02be,explorer.exe,6940,0,0,512,502,776,0x100da,1,0
2024-05-10T14:01:01.813,shetinin,0x1,1,0xe02be,explorer.exe,6940,0,0,512,503,777,0x100da,1,0
2024-05-10T14:01:01.829,shetinin,0x1,1,0,explorer.exe,6940,0,0,512,503,778,0x100da,1,0
2024-05-10T14:01:01.829,shetinin,0x1,1,0,explorer.exe,6940,0,0,513,503,778,0x100da,1,0
2024-05-10T14:01:01.913,shetinin,0x1,1,0,explorer.exe,6940,0,0,514,503,778,0x100da,1,0
2024-05-10T14:01:01.913,shetinin,0x1,1,0x5b08e8,explorer.exe,6940,0,0,512,503,778,0x100da,1,0
2024-05-10T14:01:01.914,shetinin,0x1,1,0x5b08e8,explorer.exe,6940,0,0,512,503,778,0x100da,1,0
2024-05-10T14:01:01.976,shetinin,0x1,1,0x5b08e8,explorer.exe,6940,0,0,512,508,771,0x100da,1,0
2024-05-10T14:01:01.984,shetinin,0x1,1,0x5b08e8,explorer.exe,6940,0,0,512,514,764,0x100da,1,0
2024-05-10T14:01:00.864,shetinin,0x1,1,0xe02be,devenv.exe,12504,0,0,512,137,377,0xe02be,1,0
2024-05-10T14:01:00.885,shetinin,0x1,1,0xe02be,devenv.exe,12504,0,0,512,158,379,0xe02be,1,0
2024-05-10T14:01:00.892,shetinin,0x1,1,0xe02be,devenv.exe,12504,0,0,512,166,381,0xe02be,1,0
2024-05-10T14:01:00.898,shetinin,0x1,1,0xe02be,devenv.exe,12504,0,0,512,174,382,0xe02be,1,0
2024-05-10T14:01:00.905,shetinin,0x1,1,0xe02be,devenv.exe,12504,0,0,512,182,384,0xe02be,1,0
2024-05-10T14:01:00.912,shetinin,0x1,1,0xe02be,devenv.exe,12504,0,0,512,189,385,0xe02be,1,0
2024-05-10T14:01:00.922,shetinin,0x1,1,0xe02be,devenv.exe,12504,0,0,512,196,386,0xe02be,1,0
2024-05-10T14:01:00.927,shetinin,0x1,1,0xe02be,devenv.exe,12504,0,0,512,202,386,0xe02be,1,0
2024-05-10T14:01:00.933,shetinin,0x1,1,0xe02be,devenv.exe,12504,0,0,512,206,386,0xe02be,1,0
2024-05-10T14:01:00.941,shetinin,0x1,1,0xe02be,devenv.exe,12504,0,0,512,211,386,0xe02be,1,0
2024-05-10T14:01:00.947,shetinin,0x1,1,0xe02be,devenv.exe,12504,0,0,512,215,386,0xe02be,1,0
2024-05-10T14:01:00.954,shetinin,0x1,1,0xe02be,devenv.exe,12504,0,0,512,218,385,0xe02be,1,0
2024-05-10T14:01:00.961,shetinin,0x1,1,0xe02be,devenv.exe,12504,0,0,512,220,385,0xe02be,1,0
2024-05-10T14:01:00.968,shetinin,0x1,1,0xe02be,devenv.exe,12504,0,0,512,222,385,0xe02be,1,0
2024-05-10T14:01:00.980,shetinin,0x1,1,0xe02be,devenv.exe,12504,0,0,512,224,384,0xe02be,1,0
2024-05-10T14:01:00.982,shetinin,0x1,1,0xe02be,devenv.exe,12504,0,0,512,225,384,0xe02be,1,0
2024-05-10T14:01:00.998,shetinin,0x1,1,0xe02be,devenv.exe,12504,0,0,512,227,384,0xe02be,1,0
2024-05-10T14:01:01.003,shetinin,0x1,1,0xe02be,devenv.exe,12504,0,0,512,229,384,0xe02be,1,0
2024-05-10T14:01:01.017,shetinin,0x1,1,0xe02be,devenv.exe,12504,0,0,512,231,383,0xe02be,1,0
2024-05-10T14:01:01.031,shetinin,0x1,1,0xe02be,devenv.exe,12504,0,0,512,232,383,0xe02be,1,0
2024-05-10T14:01:01.053,shetinin,0x1,1,0xe02be,devenv.exe,12504,0,0,512,233,383,0xe02be,1,0
2024-05-10T14:01:01.081,shetinin,0x1,1,0xe02be,devenv.exe,12504,0,0,512,234,382,0xe02be,1,0
2024-05-10T14:01:01.090,shetinin,0x1,1,0xe02be,devenv.exe,12504,0,0,512,235,382,0xe02be,1,0
2024-05-10T14:01:01.095,shetinin,0x1,1,0xe02be,devenv.exe,12504,0,0,512,237,381,0xe02be,1,0
2024-05-10T14:01:01.102,shetinin,0x1,1,0xe02be,devenv.exe,12504,0,0,512,240,381,0xe02be,1,0
2024-05-10T14:01:01.109,shetinin,0x1,1,0xe02be,devenv.exe,12504,0,0,512,244,381,0xe02be,1,0
2024-05-10T14:01:01.116,shetinin,0x1,1,0xe02be,devenv.exe,12504,0,0,512,249,381,0xe02be,1,0
2024-05-10T14:01:01.125,shetinin,0x1,1,0xe02be,devenv.exe,12504,0,0,512,256,381,0xe02be,1,0
2024-05-10T14:01:01.130,shetinin,0x1,1,0xe02be,devenv.exe,12504,0,0,512,264,381,0xe02be,1,0
2024-05-10T14:01:01.137,shetinin,0x1,1,0xe02be,devenv.exe,12504,0,0,512,273,381,0xe02be,1,0
2024-05-10T14:01:01.144,shetinin,0x1,1,0xe02be,devenv.exe,12504,0,0,512,284,382,0xe02be,1,0
2024-05-10T14:01:01.151,shetinin,0x1,1,0xe02be,devenv.exe,12504,0,0,512,294,382,0xe02be,1,0
2024-05-10T14:01:01.158,shetinin,0x1,1,0xe02be,devenv.exe,12504,0,0,512,305,383,0xe02be,1,0
2024-05-10T14:01:01.165,shetinin,0x1,1,0xe02be,devenv.exe,12504,0,0,512,316,385,0xe02be,1,0
2024-05-10T14:01:01.173,shetinin,0x1,1,0xe02be,devenv.exe,12504,0,0,512,328,386,0xe02be,1,0
2024-05-10T14:01:01.182,shetinin,0x1,1,0xe02be,devenv.exe,12504,0,0,512,341,388,0xe02be,1,0
2024-05-10T14:01:01.187,shetinin,0x1,1,0xe02be,devenv.exe,12504,0,0,512,355,392,0xe02be,1,0
2024-05-10T14:01:01.194,shetinin,0x1,1,0xe02be,devenv.exe,12504,0,0,512,371,398,0xe02be,1,0
2024-05-10T14:01:01.201,shetinin,0x1,1,0xe02be,devenv.exe,12504,0,0,512,384,404,0xe02be,1,0
2024-05-10T14:01:01.211,shetinin,0x1,1,0xe02be,devenv.exe,12504,0,0,512,398,411,0xe02be,1,0
2024-05-10T14:01:01.215,shetinin,0x1,1,0xe02be,devenv.exe,12504,0,0,512,410,418,0xe02be,1,0
2024-05-10T14:01:01.223,shetinin,0x1,1,0xe02be,devenv.exe,12504,0,0,512,421,425,0xe02be,1,0
2024-05-10T14:01:01.230,shetinin,0x1,1,0xe02be,devenv.exe,12504,0,0,512,433,432,0xe02be,1,0
2024-05-10T14:01:01.251,shetinin,0x1,1,0xe02be,devenv.exe,12504,0,0,512,455,446,0xe02be,1,0
2024-05-10T14:01:01.433,shetinin,0x1,1,0xe02be,devenv.exe,12504,0,0,512,457,457,0xe02be,1,0
2024-05-10T14:01:01.434,shetinin,0x1,1,0xe02be,devenv.exe,12504,0,0,512,460,471,0xe02be,1,0
2024-05-10T14:01:01.440,shetinin,0x1,1,0xe02be,devenv.exe,12504,0,0,512,463,484,0xe02be,1,0
2024-05-10T14:01:01.447,shetinin,0x1,1,0xe02be,devenv.exe,12504,0,0,512,467,499,0xe02be,1,0
2024-05-10T14:01:01.454,shetinin,0x1,1,0xe02be,devenv.exe,12504,0,0,512,470,513,0xe02be,1,0
2024-05-10T14:01:01.465,shetinin,0x1,1,0xe02be,devenv.exe,12504,0,0,512,474,530,0xe02be,1,0
2024-05-10T14:01:01.469,shetinin,0x1,1,0xe02be,devenv.exe,12504,0,0,512,479,546,0x1091a,1,0
2024-05-10T14:01:01.475,shetinin,0x1,1,0xe02be,devenv.exe,12504,0,0,512,484,568,0x1091a,1,0
2024-05-10T14:01:01.482,shetinin,0x1,1,0xe02be,devenv.exe,12504,0,0,512,490,591,0x1091a,1,0
2024-05-10T14:01:01.489,shetinin,0x1,1,0xe02be,devenv.exe,12504,0,0,512,494,610,0x1091a,1,0
2024-05-10T14:01:01.499,shetinin,0x1,1,0xe02be,devenv.exe,12504,0,0,512,498,622,0x1091a,1,0
2024-05-10T14:01:01.504,shetinin,0x1,1,0xe02be,devenv.exe,12504,0,0,512,500,630,0x1091a,1,0
2024-05-10T14:01:01.512,shetinin,0x1,1,0xe02be,devenv.exe,12504,0,0,512,502,639,0x1091a,1,0
2024-05-10T14:01:01.518,shetinin,0x1,1,0xe02be,devenv.exe,12504,0,0,512,503,646,0x1091a,1,0
2024-05-10T14:01:01.528,shetinin,0x1,1,0xe02be,devenv.exe,12504,0,0,512,504,654,0x1091a,1,0
2024-05-10T14:01:01.532,shetinin,0x1,1,0xe02be,devenv.exe,12504,0,0,512,504,660,0x1091a,1,0
2024-05-10T14:01:01.540,shetinin,0x1,1,0xe02be,devenv.exe,12504,0,0,512,504,664,0x1091a,1,0
2024-05-10T14:01:01.546,shetinin,0x1,1,0xe02be,devenv.exe,12504,0,0,512,504,667,0x1091a,1,0
2024-05-10T14:01:01.556,shetinin,0x1,1,0xe02be,devenv.exe,12504,0,0,512,504,671,0x1091a,1,0
2024-05-10T14:01:01.561,shetinin,0x1,1,0xe02be,devenv.exe,12504,0,0,512,503,674,0x1091a,1,0
2024-05-10T14:01:01.567,shetinin,0x1,1,0xe02be,devenv.exe,12504,0,0,512,503,677,0x1091a,1,0
2024-05-10T14:01:01.576,shetinin,0x1,1,0xe02be,devenv.exe,12504,0,0,512,502,679,0x1091a,1,0
2024-05-10T14:01:01.581,shetinin,0x1,1,0xe02be,devenv.exe,12504,0,0,512,502,681,0x1091a,1,0
2024-05-10T14:01:01.589,shetinin,0x1,1,0xe02be,devenv.exe,12504,0,0,512,501,683,0x1091a,1,0
2024-05-10T14:01:01.597,shetinin,0x1,1,0xe02be,devenv.exe,12504,0,0,512,501,686,0x1091a,1,0
2024-05-10T14:01:01.603,shetinin,0x1,1,0xe02be,devenv.exe,12504,0,0,512,500,689,0x1091a,1,0
2024-05-10T14:01:01.612,shetinin,0x1,1,0xe02be,devenv.exe,12504,0,0,512,500,691,0x1091a,1,0
2024-05-10T14:01:01.631,shetinin,0x1,1,0xe02be,devenv.exe,12504,0,0,512,499,699,0x1091a,1,0
2024-05-10T14:01:01.647,shetinin,0x1,1,0xe02be,devenv.exe,12504,0,0,512,499,703,0x1091a,1,0
2024-05-10T14:01:01.659,shetinin,0x1,1,0xe02be,devenv.exe,12504,0,0,512,498,705,0x1091a,1,0
2024-05-10T14:01:01.666,shetinin,0x1,1,0xe02be,devenv.exe,12504,0,0,512,498,707,0xe02be,1,0
2024-05-10T14:01:01.674,shetinin,0x1,1,0xe02be,devenv.exe,12504,0,0,512,497,710,0xe02be,1,0
2024-05-10T14:01:01.683,shetinin,0x1,1,0xe02be,devenv.exe,12504,0,0,512,496,714,0xe02be,1,0
2024-05-10T14:01:01.689,shetinin,0x1,1,0xe02be,devenv.exe,12504,0,0,512,496,717,0xe02be,1,0
2024-05-10T14:01:01.694,shetinin,0x1,1,0xe02be,devenv.exe,12504,0,0,512,496,721,0xe02be,1,0
2024-05-10T14:01:01.704,shetinin,0x1,1,0xe02be,devenv.exe,12504,0,0,512,496,726,0xe02be,1,0
2024-05-10T14:01:01.708,shetinin,0x1,1,0xe02be,devenv.exe,12504,0,0,512,496,731,0xe02be,1,0
2024-05-10T14:01:01.715,shetinin,0x1,1,0xe02be,devenv.exe,12504,0,0,512,496,737,0xe02be,1,0
2024-05-10T14:01:01.722,shetinin,0x1,1,0xe02be,devenv.exe,12504,0,0,512,496,742,0xe02be,1,0
2024-05-10T14:01:01.729,shetinin,0x1,1,0xe02be,devenv.exe,12504,0,0,512,496,747,0xe02be,1,0
2024-05-10T14:01:01.737,shetinin,0x1,1,0xe02be,devenv.exe,12504,0,0,512,497,752,0xe02be,1,0
2024-05-10T14:01:01.744,shetinin,0x1,1,0xe02be,devenv.exe,12504,0,0,512,497,755,0xe02be,1,0
2024-05-10T14:01:01.998,shetinin,0x1,1,0x5b08e8,devenv.exe,12504,0,0,512,534,745,0xe02be,1,0
2024-05-10T14:01:02.004,shetinin,0x1,1,0x5b08e8,devenv.exe,12504,0,0,512,548,731,0xe02be,1,0
2024-05-10T14:01:02.012,shetinin,0x1,1,0x5b08e8,devenv.exe,12504,0,0,512,565,714,0xe02be,1,0
2024-05-10T14:01:02.022,shetinin,0x1,1,0x5b08e8,devenv.exe,12504,0,0,512,586,693,0x1091a,1,0
2024-05-10T14:01:02.025,shetinin,0x1,1,0x5b08e8,notepad++.exe,27748,0,0,512,609,670,0xf03b2,1,0
2024-05-10T14:01:02.032,shetinin,0x1,1,0x5b08e8,notepad++.exe,27748,0,0,160,636,634,0xe0430,6,0
2024-05-10T14:01:02.039,shetinin,0x1,1,0x5b08e8,notepad++.exe,27748,0,0,512,664,591,0xe0430,1,0
2024-05-10T14:01:02.047,shetinin,0x1,1,0x5b08e8,notepad++.exe,27748,0,0,512,697,544,0xe0430,1,0
2024-05-10T14:01:02.053,shetinin,0x1,1,0x5b08e8,notepad++.exe,27748,0,0,512,728,499,0xe0430,1,0
2024-05-10T14:01:02.060,shetinin,0x1,1,0x5b08e8,notepad++.exe,27748,0,0,512,765,460,0xe0430,1,0
2024-05-10T14:01:02.067,shetinin,0x1,1,0x5b08e8,notepad++.exe,27748,0,0,512,801,427,0xe0430,1,0
2024-05-10T14:01:02.074,shetinin,0x1,1,0x5b08e8,notepad++.exe,27748,0,0,512,834,401,0xe0430,1,0
2024-05-10T14:01:02.083,shetinin,0x1,1,0x5b08e8,notepad++.exe,27748,0,0,512,852,386,0xe0430,1,0
2024-05-10T14:01:02.089,shetinin,0x1,1,0x5b08e8,notepad++.exe,27748,0,0,512,864,376,0xe0430,1,0
2024-05-10T14:01:02.095,shetinin,0x1,1,0x5b08e8,notepad++.exe,27748,0,0,512,871,371,0xe0430,1,0
2024-05-10T14:01:02.102,shetinin,0x1,1,0x5b08e8,notepad++.exe,27748,0,0,512,876,369,0xe0430,1,0
2024-05-10T14:01:02.108,shetinin,0x1,1,0x5b08e8,notepad++.exe,27748,0,0,512,877,368,0xe0430,1,0
2024-05-10T14:01:02.288,shetinin,0x1,1,0x5b08e8,notepad++.exe,27748,0,0,512,884,361,0xe0430,1,0
2024-05-10T14:01:02.295,shetinin,0x1,1,0x5b08e8,notepad++.exe,27748,0,0,512,893,353,0xe0430,1,0
2024-05-10T14:01:02.300,shetinin,0x1,1,0x5b08e8,notepad++.exe,27748,0,0,512,903,344,0xe0430,1,0
2024-05-10T14:01:02.307,shetinin,0x1,1,0x5b08e8,notepad++.exe,27748,0,0,512,916,333,0xe0430,1,0
2024-05-10T14:01:02.314,shetinin,0x1,1,0x5b08e8,notepad++.exe,27748,0,0,512,932,322,0xe0430,1,0
2024-05-10T14:01:02.321,shetinin,0x1,1,0x5b08e8,notepad++.exe,27748,0,0,512,951,308,0xe0430,1,0
2024-05-10T14:01:02.336,shetinin,0x1,1,0x5b08e8,notepad++.exe,27748,0,0,512,970,296,0xe0430,1,0
2024-05-10T14:01:02.336,shetinin,0x1,1,0x5b08e8,notepad++.exe,27748,0,0,512,997,282,0xe0430,1,0
2024-05-10T14:01:02.343,shetinin,0x1,1,0x5b08e8,notepad++.exe,27748,0,0,512,1027,268,0xe0430,1,0
2024-05-10T14:01:02.349,shetinin,0x1,1,0x5b08e8,notepad++.exe,27748,0,0,512,1054,253,0xe0430,1,0
2024-05-10T14:01:02.363,shetinin,0x1,1,0x5b08e8,notepad++.exe,27748,0,0,512,1071,243,0xe0430,1,0
2024-05-10T14:01:02.364,shetinin,0x1,1,0x5b08e8,notepad++.exe,27748,0,0,512,1085,233,0xe0430,1,0
2024-05-10T14:01:02.370,shetinin,0x1,1,0x5b08e8,notepad++.exe,27748,0,0,512,1097,225,0xe0430,1,0
2024-05-10T14:01:02.378,shetinin,0x1,1,0x5b08e8,notepad++.exe,27748,0,0,512,1107,216,0xe0430,1,0
2024-05-10T14:01:02.384,shetinin,0x1,1,0x5b08e8,notepad++.exe,27748,0,0,512,1115,209,0xe0430,1,0
2024-05-10T14:01:02.394,shetinin,0x1,1,0x5b08e8,notepad++.exe,27748,0,0,512,1122,201,0xe0430,1,0
2024-05-10T14:01:02.399,shetinin,0x1,1,0x5b08e8,notepad++.exe,27748,0,0,512,1128,192,0xe0430,1,0
2024-05-10T14:01:02.406,shetinin,0x1,1,0x5b08e8,notepad++.exe,27748,0,0,512,1133,184,0xe0430,1,0
2024-05-10T14:01:02.416,shetinin,0x1,1,0x5b08e8,notepad++.exe,27748,0,0,512,1137,176,0xe0430,1,0
2024-05-10T14:01:02.420,shetinin,0x1,1,0x5b08e8,notepad++.exe,27748,0,0,512,1141,168,0xe0430,1,0
2024-05-10T14:01:02.427,shetinin,0x1,1,0x5b08e8,notepad++.exe,27748,0,0,512,1144,161,0xe0430,1,0
2024-05-10T14:01:02.434,shetinin,0x1,1,0x5b08e8,notepad++.exe,27748,0,0,512,1146,155,0xe0430,1,0
2024-05-10T14:01:02.441,shetinin,0x1,1,0x5b08e8,notepad++.exe,27748,0,0,512,1148,149,0xe0430,1,0
2024-05-10T14:01:02.448,shetinin,0x1,1,0x5b08e8,notepad++.exe,27748,0,0,512,1150,146,0xe0430,1,0
2024-05-10T14:01:02.457,shetinin,0x1,1,0x5b08e8,notepad++.exe,27748,0,0,512,1152,142,0xe0430,1,0
2024-05-10T14:01:02.462,shetinin,0x1,1,0x5b08e8,notepad++.exe,27748,0,0,512,1153,140,0xe0430,1,0
2024-05-10T14:01:02.470,shetinin,0x1,1,0x5b08e8,notepad++.exe,27748,0,0,160,1155,138,0xe0430,18,0
2024-05-10T14:01:02.477,shetinin,0x1,1,0x5b08e8,notepad++.exe,27748,0,0,160,1156,137,0xe0430,18,0
2024-05-10T14:01:02.484,shetinin,0x1,1,0x5b08e8,notepad++.exe,27748,0,0,512,1157,136,0x5b08e8,1,0
2024-05-10T14:01:02.493,shetinin,0x1,1,0x5b08e8,notepad++.exe,27748,0,0,512,1158,135,0x5b08e8,1,0
2024-05-10T14:01:02.498,shetinin,0x1,1,0x5b08e8,notepad++.exe,27748,0,0,512,1160,134,0x5b08e8,1,0
2024-05-10T14:01:02.505,shetinin,0x1,1,0x5b08e8,notepad++.exe,27748,0,0,512,1162,132,0x5b08e8,1,0
2024-05-10T14:01:02.512,shetinin,0x1,1,0x5b08e8,notepad++.exe,27748,0,0,512,1164,132,0x5b08e8,1,0
2024-05-10T14:01:02.520,shetinin,0x1,1,0x5b08e8,notepad++.exe,27748,0,0,512,1167,130,0x5b08e8,1,0
2024-05-10T14:01:02.526,shetinin,0x1,1,0x5b08e8,notepad++.exe,27748,0,0,512,1171,128,0x5b08e8,1,0
2024-05-10T14:01:02.533,shetinin,0x1,1,0x5b08e8,notepad++.exe,27748,0,0,512,1175,125,0x5b08e8,1,0
2024-05-10T14:01:02.540,shetinin,0x1,1,0x5b08e8,notepad++.exe,27748,0,0,512,1179,122,0x5b08e8,1,0
2024-05-10T14:01:02.547,shetinin,0x1,1,0x5b08e8,notepad++.exe,27748,0,0,512,1184,119,0x5b08e8,1,0
2024-05-10T14:01:02.561,shetinin,0x1,1,0x5b08e8,notepad++.exe,27748,0,0,512,1190,116,0x5b08e8,1,0
2024-05-10T14:01:02.561,shetinin,0x1,1,0x5b08e8,notepad++.exe,27748,0,0,512,1195,112,0x5b08e8,1,0
2024-05-10T14:01:02.581,shetinin,0x1,1,0x5b08e8,notepad++.exe,27748,0,0,512,1208,103,0x240862,1,0
2024-05-10T14:01:02.583,shetinin,0x1,1,0x5b08e8,notepad++.exe,27748,0,0,512,1214,97,0x240862,1,0
2024-05-10T14:01:02.589,shetinin,0x1,1,0x5b08e8,notepad++.exe,27748,0,0,512,1220,93,0x240862,1,0
2024-05-10T14:01:02.599,shetinin,0x1,1,0x5b08e8,notepad++.exe,27748,0,0,512,1225,90,0x240862,1,0
2024-05-10T14:01:02.603,shetinin,0x1,1,0x5b08e8,notepad++.exe,27748,0,0,512,1229,87,0x240862,1,0
2024-05-10T14:01:02.611,shetinin,0x1,1,0x5b08e8,notepad++.exe,27748,0,0,160,1233,85,0x5b08e8,5,0
2024-05-10T14:01:02.617,shetinin,0x1,1,0x5b08e8,notepad++.exe,27748,0,0,160,1236,83,0x5b08e8,5,0
2024-05-10T14:01:02.627,shetinin,0x1,1,0x5b08e8,notepad++.exe,27748,0,0,160,1239,82,0x5b08e8,5,0
2024-05-10T14:01:02.637,shetinin,0x1,1,0x5b08e8,notepad++.exe,27748,0,0,160,1241,80,0x5b08e8,5,0
2024-05-10T14:01:02.640,shetinin,0x1,1,0x5b08e8,notepad++.exe,27748,0,0,160,1243,80,0x5b08e8,5,0
2024-05-10T14:01:02.645,shetinin,0x1,1,0x5b08e8,notepad++.exe,27748,0,0,160,1244,79,0x5b08e8,5,0
2024-05-10T14:01:02.664,shetinin,0x1,1,0x5b08e8,notepad++.exe,27748,0,0,160,1248,77,0x5b08e8,5,0
2024-05-10T14:01:02.667,shetinin,0x1,1,0x5b08e8,notepad++.exe,27748,0,0,160,1250,75,0x5b08e8,5,0
2024-05-10T14:01:02.673,shetinin,0x1,1,0x5b08e8,notepad++.exe,27748,0,0,160,1252,74,0x5b08e8,5,0
2024-05-10T14:01:02.682,shetinin,0x1,1,0x5b08e8,notepad++.exe,27748,0,0,160,1254,73,0x5b08e8,5,0
2024-05-10T14:01:02.688,shetinin,0x1,1,0x5b08e8,notepad++.exe,27748,0,0,160,1256,72,0x5b08e8,5,0
2024-05-10T14:01:02.697,shetinin,0x1,1,0x5b08e8,notepad++.exe,27748,0,0,160,1258,71,0x5b08e8,5,0
2024-05-10T14:01:02.701,shetinin,0x1,1,0x5b08e8,notepad++.exe,27748,0,0,160,1259,70,0x5b08e8,5,0
2024-05-10T14:01:02.709,shetinin,0x1,1,0x5b08e8,notepad++.exe,27748,0,0,160,1261,69,0x5b08e8,5,0
2024-05-10T14:01:02.731,shetinin,0x1,1,0x5b08e8,notepad++.exe,27748,0,0,160,1266,65,0x5b08e8,20,0
2024-05-10T14:01:02.737,shetinin,0x1,1,0x5b08e8,notepad++.exe,27748,0,0,160,1267,64,0x5b08e8,20,0
2024-05-10T14:01:02.747,shetinin,0x1,1,0x5b08e8,notepad++.exe,27748,0,0,160,1269,63,0x5b08e8,20,0
2024-05-10T14:01:02.766,shetinin,0x1,1,0x5b08e8,notepad++.exe,27748,0,0,160,1274,57,0x5b08e8,20,0
2024-05-10T14:01:02.774,shetinin,0x1,1,0x5b08e8,notepad++.exe,27748,0,0,160,1276,55,0x5b08e8,20,0
2024-05-10T14:01:02.779,shetinin,0x1,1,0x5b08e8,notepad++.exe,27748,0,0,160,1277,54,0x5b08e8,20,0
2024-05-10T14:01:02.786,shetinin,0x1,1,0x5b08e8,notepad++.exe,27748,0,0,160,1279,52,0x5b08e8,20,0
2024-05-10T14:01:02.793,shetinin,0x1,1,0x5b08e8,notepad++.exe,27748,0,0,160,1280,51,0x5b08e8,20,0
2024-05-10T14:01:02.871,shetinin,0x1,1,0x5b08e8,notepad++.exe,27748,0,0,161,1280,51,0x5b08e8,20,0
2024-05-10T14:01:02.991,shetinin,0x1,1,0x5b08e8,notepad++.exe,27748,0,0,514,1280,51,0x5b08e8,1,0
2024-05-10T14:01:03.161,shetinin,0x1,1,0xe02be,ScriptedSandbox64.exe,30212,0,0,512,1135,130,0x1c09e4,1,0
2024-05-10T14:01:03.167,shetinin,0x1,1,0xe02be,ScriptedSandbox64.exe,30212,0,0,512,1092,159,0x1c09e4,1,0
2024-05-10T14:01:03.174,shetinin,0x1,1,0xe02be,ScriptedSandbox64.exe,30212,0,0,512,1033,208,0x1c09e4,1,0
2024-05-10T14:01:03.549,shetinin,0x1,1,0xe02be,explorer.exe,6940,0,0,512,281,763,0x100da,1,0
2024-05-10T14:01:03.568,shetinin,0x1,1,0xe02be,explorer.exe,6940,0,0,512,264,783,0x100da,1,0
2024-05-10T14:01:03.569,shetinin,0x1,1,0xe02be,explorer.exe,6940,0,0,512,257,792,0x100da,1,0
2024-05-10T14:01:03.765,shetinin,0x1,1,0xe02be,explorer.exe,6940,0,0,512,240,792,0x100da,1,0
2024-05-10T14:01:03.768,shetinin,0x1,1,0xe02be,explorer.exe,6940,0,0,512,244,790,0x100da,1,0
2024-05-10T14:01:03.773,shetinin,0x1,1,0xe02be,explorer.exe,6940,0,0,512,247,788,0x100da,1,0
2024-05-10T14:01:03.786,shetinin,0x1,1,0xe02be,explorer.exe,6940,0,0,512,250,785,0x100da,1,0
2024-05-10T14:01:03.788,shetinin,0x1,1,0xe02be,explorer.exe,6940,0,0,512,254,784,0x100da,1,0
2024-05-10T14:01:03.798,shetinin,0x1,1,0xe02be,explorer.exe,6940,0,0,512,259,782,0x100da,1,0
2024-05-10T14:01:03.801,shetinin,0x1,1,0xe02be,explorer.exe,6940,0,0,512,262,780,0x100da,1,0
2024-05-10T14:01:03.808,shetinin,0x1,1,0xe02be,explorer.exe,6940,0,0,512,265,778,0x100da,1,0
2024-05-10T14:01:03.815,shetinin,0x1,1,0xe02be,explorer.exe,6940,0,0,512,267,777,0x100da,1,0
2024-05-10T14:01:03.828,shetinin,0x1,1,0xe02be,explorer.exe,6940,0,0,512,269,776,0x100da,1,0
2024-05-10T14:01:03.829,shetinin,0x1,1,0xe02be,explorer.exe,6940,0,0,512,271,775,0x100da,1,0
2024-05-10T14:01:03.847,shetinin,0x1,1,0xe02be,explorer.exe,6940,0,0,512,272,774,0x100da,1,0
2024-05-10T14:01:03.850,shetinin,0x1,1,0xe02be,explorer.exe,6940,0,0,512,273,774,0x100da,1,0
2024-05-10T14:01:03.883,shetinin,0x1,1,0xe02be,explorer.exe,6940,0,0,512,274,773,0x100da,1,0
2024-05-10T14:01:03.949,shetinin,0x1,1,0xe02be,explorer.exe,6940,0,0,512,275,773,0x100da,1,0
2024-05-10T14:01:03.957,shetinin,0x1,1,0xe02be,explorer.exe,6940,0,0,512,275,772,0x100da,1,0
2024-05-10T14:01:04.077,shetinin,0x1,1,0,explorer.exe,6940,0,0,513,275,772,0x100da,1,0
2024-05-10T14:01:04.162,shetinin,0x1,1,0,explorer.exe,6940,0,0,514,275,772,0x100da,1,0
2024-05-10T14:01:04.162,shetinin,0x1,1,0x3033e,explorer.exe,6940,0,0,512,275,772,0x100da,1,0
2024-05-10T14:01:04.163,shetinin,0x1,1,0x3033e,explorer.exe,6940,0,0,512,275,772,0x100da,1,0
2024-05-10T14:01:04.180,shetinin,0x1,1,0x3033e,explorer.exe,6940,0,0,512,275,772,0x100da,1,0
2024-05-10T14:01:04.352,shetinin,0x1,1,0x3033e,explorer.exe,6940,0,0,512,276,765,0x100da,1,0
2024-05-10T14:01:04.360,shetinin,0x1,1,0x3033e,chrome.exe,1672,0,0,512,278,752,0x550210,1,0
2024-05-10T14:01:04.366,shetinin,0x1,1,0x3033e,chrome.exe,1672,0,0,512,282,735,0x550210,1,0
2024-05-10T14:01:04.372,shetinin,0x1,1,0x3033e,chrome.exe,1672,0,0,512,288,709,0x550210,1,0
2024-05-10T14:01:04.379,shetinin,0x1,1,0x3033e,chrome.exe,1672,0,0,512,298,672,0x550210,1,0
2024-05-10T14:01:04.386,shetinin,0x1,1,0x3033e,chrome.exe,1672,0,0,512,312,623,0x550210,1,0
2024-05-10T14:01:04.393,shetinin,0x1,1,0x3033e,chrome.exe,1672,0,0,512,331,570,0x550210,1,0
2024-05-10T14:01:04.400,shetinin,0x1,1,0x3033e,chrome.exe,1672,0,0,512,352,522,0x550210,1,0
2024-05-10T14:01:04.408,shetinin,0x1,1,0x3033e,chrome.exe,1672,0,0,512,372,479,0x550210,1,0
2024-05-10T14:01:04.414,shetinin,0x1,1,0x3033e,chrome.exe,1672,0,0,512,398,437,0x550210,1,0
2024-05-10T14:01:04.422,shetinin,0x1,1,0x3033e,chrome.exe,1672,0,0,512,425,394,0x550210,1,0
2024-05-10T14:01:04.431,shetinin,0x1,1,0x3033e,chrome.exe,1672,0,0,512,450,356,0x550210,1,0
2024-05-10T14:01:04.435,shetinin,0x1,1,0x3033e,chrome.exe,1672,0,0,512,472,319,0x550210,1,0
2024-05-10T14:01:04.443,shetinin,0x1,1,0x3033e,chrome.exe,1672,0,0,512,491,289,0x550210,1,0
2024-05-10T14:01:04.452,shetinin,0x1,1,0x3033e,chrome.exe,1672,0,0,512,507,265,0x550210,1,0
2024-05-10T14:01:04.457,shetinin,0x1,1,0x3033e,chrome.exe,1672,0,0,512,522,246,0x550210,1,0
2024-05-10T14:01:04.465,shetinin,0x1,1,0x3033e,chrome.exe,1672,0,0,512,534,228,0x550210,1,0
2024-05-10T14:01:04.474,shetinin,0x1,1,0x3033e,chrome.exe,1672,0,0,512,541,216,0x550210,1,0
2024-05-10T14:01:04.480,shetinin,0x1,1,0x3033e,chrome.exe,1672,0,0,512,544,211,0x550210,1,0
2024-05-10T14:01:04.677,shetinin,0x1,1,0x3033e,chrome.exe,1672,0,0,512,540,203,0x550210,1,0
2024-05-10T14:01:04.682,shetinin,0x1,1,0x3033e,chrome.exe,1672,0,0,512,535,195,0x550210,1,0
2024-05-10T14:01:02.998,shetinin,0x1,1,0x5b08e8,devenv.exe,12504,0,0,160,1280,51,0xe02be,2,0
2024-05-10T14:01:03.005,shetinin,0x1,1,0xe02be,devenv.exe,12504,0,0,160,1280,51,0xe02be,2,0
2024-05-10T14:01:03.118,shetinin,0x1,1,0xe02be,devenv.exe,12504,0,0,160,1269,55,0xe02be,2,0
2024-05-10T14:01:03.126,shetinin,0x1,1,0xe02be,devenv.exe,12504,0,0,160,1257,61,0xe02be,2,0
2024-05-10T14:01:03.132,shetinin,0x1,1,0xe02be,devenv.exe,12504,0,0,160,1241,69,0xe02be,2,0
2024-05-10T14:01:03.139,shetinin,0x1,1,0xe02be,devenv.exe,12504,0,0,160,1222,80,0xe02be,2,0
2024-05-10T14:01:03.147,shetinin,0x1,1,0xe02be,devenv.exe,12504,0,0,512,1199,91,0xe02be,1,0
2024-05-10T14:01:03.153,shetinin,0x1,1,0xe02be,devenv.exe,12504,0,0,512,1171,107,0xe02be,1,0
2024-05-10T14:01:03.182,shetinin,0x1,1,0xe02be,devenv.exe,12504,0,0,512,965,266,0xe02be,1,0
2024-05-10T14:01:03.189,shetinin,0x1,1,0xe02be,devenv.exe,12504,0,0,512,871,337,0xe02be,1,0
2024-05-10T14:01:03.195,shetinin,0x1,1,0xe02be,devenv.exe,12504,0,0,512,764,409,0xe02be,1,0
2024-05-10T14:01:03.203,shetinin,0x1,1,0xe02be,devenv.exe,12504,0,0,512,660,474,0xe02be,1,0
2024-05-10T14:01:03.210,shetinin,0x1,1,0xe02be,devenv.exe,12504,0,0,512,583,528,0xe02be,1,0
2024-05-10T14:01:03.216,shetinin,0x1,1,0xe02be,devenv.exe,12504,0,0,512,528,569,0x1091a,1,0
2024-05-10T14:01:03.223,shetinin,0x1,1,0xe02be,devenv.exe,12504,0,0,512,487,604,0x1091a,1,0
2024-05-10T14:01:03.230,shetinin,0x1,1,0xe02be,devenv.exe,12504,0,0,512,454,631,0x1091a,1,0
2024-05-10T14:01:03.240,shetinin,0x1,1,0xe02be,devenv.exe,12504,0,0,512,427,652,0x1091a,1,0
2024-05-10T14:01:03.247,shetinin,0x1,1,0xe02be,devenv.exe,12504,0,0,512,407,667,0x1091a,1,0
2024-05-10T14:01:03.252,shetinin,0x1,1,0xe02be,devenv.exe,12504,0,0,512,397,675,0x1091a,1,0
2024-05-10T14:01:03.258,shetinin,0x1,1,0xe02be,devenv.exe,12504,0,0,512,393,679,0x1091a,1,0
2024-05-10T14:01:03.498,shetinin,0x1,1,0xe02be,devenv.exe,12504,0,0,512,386,682,0x1091a,1,0
2024-05-10T14:01:03.501,shetinin,0x1,1,0xe02be,devenv.exe,12504,0,0,512,377,687,0x1091a,1,0
2024-05-10T14:01:03.506,shetinin,0x1,1,0xe02be,devenv.exe,12504,0,0,512,365,692,0x1091a,1,0
2024-05-10T14:01:03.512,shetinin,0x1,1,0xe02be,devenv.exe,12504,0,0,512,350,701,0x1091a,1,0
2024-05-10T14:01:03.521,shetinin,0x1,1,0xe02be,devenv.exe,12504,0,0,512,336,711,0xe02be,1,0
2024-05-10T14:01:03.526,shetinin,0x1,1,0xe02be,devenv.exe,12504,0,0,512,322,723,0xe02be,1,0
2024-05-10T14:01:04.689,shetinin,0x1,1,0x3033e,chrome.exe,1672,0,0,512,531,185,0x550210,1,0
2024-05-10T14:01:04.696,shetinin,0x1,1,0x3033e,chrome.exe,1672,0,0,512,528,173,0x550210,1,0
2024-05-10T14:01:04.704,shetinin,0x1,1,0x3033e,chrome.exe,1672,0,0,512,525,160,0x550210,1,0
2024-05-10T14:01:04.711,shetinin,0x1,1,0x3033e,chrome.exe,1672,0,0,512,523,148,0x550210,1,0
2024-05-10T14:01:04.719,shetinin,0x1,1,0x3033e,chrome.exe,1672,0,0,512,523,135,0x550210,1,0
2024-05-10T14:01:04.729,shetinin,0x1,1,0x3033e,chrome.exe,1672,0,0,512,523,124,0x550210,1,0
2024-05-10T14:01:04.732,shetinin,0x1,1,0x3033e,chrome.exe,1672,0,0,512,524,111,0x550210,1,0
2024-05-10T14:01:04.739,shetinin,0x1,1,0x3033e,chrome.exe,1672,0,0,512,526,102,0x550210,1,0
2024-05-10T14:01:04.746,shetinin,0x1,1,0x3033e,chrome.exe,1672,0,0,512,528,92,0x550210,1,0
2024-05-10T14:01:04.756,shetinin,0x1,1,0x3033e,chrome.exe,1672,0,0,512,530,84,0x3033e,1,0
2024-05-10T14:01:04.759,shetinin,0x1,1,0x3033e,chrome.exe,1672,0,0,512,532,77,0x3033e,1,0
2024-05-10T14:01:04.767,shetinin,0x1,1,0x3033e,chrome.exe,1672,0,0,512,533,71,0x3033e,1,0
2024-05-10T14:01:04.783,shetinin,0x1,1,0x3033e,chrome.exe,1672,0,0,512,535,67,0x3033e,1,0
2024-05-10T14:01:04.783,shetinin,0x1,1,0x3033e,chrome.exe,1672,0,0,512,536,62,0x3033e,1,0
2024-05-10T14:01:04.788,shetinin,0x1,1,0x3033e,chrome.exe,1672,0,0,512,537,59,0x3033e,1,0
2024-05-10T14:01:04.796,shetinin,0x1,1,0x3033e,chrome.exe,1672,0,0,512,537,56,0x3033e,1,0
2024-05-10T14:01:04.802,shetinin,0x1,1,0x3033e,chrome.exe,1672,0,0,512,538,53,0x3033e,1,0
2024-05-10T14:01:04.814,shetinin,0x1,1,0x3033e,chrome.exe,1672,0,0,512,539,50,0x3033e,1,0
2024-05-10T14:01:04.816,shetinin,0x1,1,0x3033e,chrome.exe,1672,0,0,512,539,46,0x3033e,1,0
2024-05-10T14:01:04.826,shetinin,0x1,1,0x3033e,chrome.exe,1672,0,0,512,540,43,0x3033e,1,0
2024-05-10T14:01:04.832,shetinin,0x1,1,0x3033e,chrome.exe,1672,0,0,512,541,40,0x3033e,1,0
2024-05-10T14:01:04.848,shetinin,0x1,1,0x3033e,chrome.exe,1672,0,0,512,542,35,0x3033e,1,0
2024-05-10T14:01:04.851,shetinin,0x1,1,0x3033e,chrome.exe,1672,0,0,512,544,33,0x3033e,1,0
2024-05-10T14:01:04.858,shetinin,0x1,1,0x3033e,chrome.exe,1672,0,0,512,545,30,0x3033e,1,0
2024-05-10T14:01:04.865,shetinin,0x1,1,0x3033e,chrome.exe,1672,0,0,512,547,27,0x3033e,1,0
2024-05-10T14:01:04.880,shetinin,0x1,1,0x3033e,chrome.exe,1672,0,0,512,550,24,0x3033e,1,0
2024-05-10T14:01:04.886,shetinin,0x1,1,0x3033e,chrome.exe,1672,0,0,512,552,22,0x3033e,1,0
2024-05-10T14:01:04.894,shetinin,0x1,1,0x3033e,chrome.exe,1672,0,0,512,554,21,0x3033e,1,0
2024-05-10T14:01:04.900,shetinin,0x1,1,0x3033e,chrome.exe,1672,0,0,512,557,19,0x3033e,1,0
2024-05-10T14:01:04.907,shetinin,0x1,1,0x3033e,chrome.exe,1672,0,0,512,559,18,0x3033e,1,0
2024-05-10T14:01:04.914,shetinin,0x1,1,0x3033e,chrome.exe,1672,0,0,512,562,17,0x3033e,1,0
2024-05-10T14:01:04.921,shetinin,0x1,1,0x3033e,chrome.exe,1672,0,0,512,565,16,0x3033e,1,0
2024-05-10T14:01:04.928,shetinin,0x1,1,0x3033e,chrome.exe,1672,0,0,512,567,16,0x3033e,1,0
2024-05-10T14:01:04.948,shetinin,0x1,1,0x3033e,chrome.exe,1672,0,0,512,573,15,0x3033e,1,0
2024-05-10T14:01:04.965,shetinin,0x1,1,0x3033e,chrome.exe,1672,0,0,512,585,15,0x3033e,1,0
2024-05-10T14:01:04.972,shetinin,0x1,1,0x3033e,chrome.exe,1672,0,0,512,591,16,0x3033e,1,0
2024-05-10T14:01:04.981,shetinin,0x1,1,0x3033e,chrome.exe,1672,0,0,512,598,17,0x3033e,1,0
2024-05-10T14:01:04.986,shetinin,0x1,1,0x3033e,chrome.exe,1672,0,0,512,606,18,0x3033e,1,0
2024-05-10T14:01:04.993,shetinin,0x1,1,0x3033e,chrome.exe,1672,0,0,512,615,19,0x3033e,1,0
2024-05-10T14:01:05.000,shetinin,0x1,1,0x3033e,chrome.exe,1672,0,0,512,624,19,0x3033e,1,0
2024-05-10T14:01:05.006,shetinin,0x1,1,0x3033e,chrome.exe,1672,0,0,512,633,19,0x3033e,1,0
2024-05-10T14:01:05.017,shetinin,0x1,1,0x3033e,chrome.exe,1672,0,0,512,641,20,0x3033e,1,0
2024-05-10T14:01:05.021,shetinin,0x1,1,0x3033e,chrome.exe,1672,0,0,512,649,21,0x3033e,1,0
2024-05-10T14:01:05.028,shetinin,0x1,1,0x3033e,chrome.exe,1672,0,0,512,656,22,0x3033e,1,0
2024-05-10T14:01:05.037,shetinin,0x1,1,0x3033e,chrome.exe,1672,0,0,512,663,23,0x3033e,1,0
2024-05-10T14:01:05.042,shetinin,0x1,1,0x3033e,chrome.exe,1672,0,0,512,669,24,0x3033e,1,0
2024-05-10T14:01:05.049,shetinin,0x1,1,0x3033e,chrome.exe,1672,0,0,512,675,24,0x3033e,1,0
2024-05-10T14:01:05.057,shetinin,0x1,1,0x3033e,chrome.exe,1672,0,0,512,682,24,0x3033e,1,0
2024-05-10T14:01:05.068,shetinin,0x1,1,0x3033e,chrome.exe,1672,0,0,512,689,23,0x3033e,1,0
2024-05-10T14:01:05.070,shetinin,0x1,1,0x3033e,chrome.exe,1672,0,0,512,697,23,0x3033e,1,0
2024-05-10T14:01:05.077,shetinin,0x1,1,0x3033e,chrome.exe,1672,0,0,512,705,23,0x3033e,1,0
2024-05-10T14:01:05.084,shetinin,0x1,1,0x3033e,chrome.exe,1672,0,0,512,714,24,0x3033e,1,0
2024-05-10T14:01:05.094,shetinin,0x1,1,0x3033e,chrome.exe,1672,0,0,512,723,25,0x3033e,1,0
2024-05-10T14:01:05.098,shetinin,0x1,1,0x3033e,chrome.exe,1672,0,0,512,731,26,0x3033e,1,0
2024-05-10T14:01:05.105,shetinin,0x1,1,0x3033e,chrome.exe,1672,0,0,512,740,26,0x3033e,1,0
2024-05-10T14:01:05.112,shetinin,0x1,1,0x3033e,chrome.exe,1672,0,0,512,749,26,0x3033e,1,0
2024-05-10T14:01:05.120,shetinin,0x1,1,0x3033e,chrome.exe,1672,0,0,512,757,27,0x3033e,1,0
2024-05-10T14:01:05.129,shetinin,0x1,1,0x3033e,chrome.exe,1672,0,0,512,765,27,0x3033e,1,0
2024-05-10T14:01:05.133,shetinin,0x1,1,0x3033e,chrome.exe,1672,0,0,512,771,28,0x3033e,1,0
2024-05-10T14:01:05.145,shetinin,0x1,1,0x3033e,chrome.exe,1672,0,0,512,777,28,0x3033e,1,0
2024-05-10T14:01:05.164,shetinin,0x1,1,0x3033e,chrome.exe,1672,0,0,512,791,29,0x3033e,1,0
2024-05-10T14:01:05.169,shetinin,0x1,1,0x3033e,chrome.exe,1672,0,0,512,796,29,0x3033e,1,0
2024-05-10T14:01:05.180,shetinin,0x1,1,0x3033e,chrome.exe,1672,0,0,512,800,29,0x3033e,1,0
2024-05-10T14:01:05.185,shetinin,0x1,1,0x3033e,chrome.exe,1672,0,0,512,805,29,0x3033e,1,0
2024-05-10T14:01:05.190,shetinin,0x1,1,0x3033e,chrome.exe,1672,0,0,512,810,28,0x3033e,1,0
2024-05-10T14:01:05.197,shetinin,0x1,1,0x3033e,chrome.exe,1672,0,0,512,816,27,0x3033e,1,0
2024-05-10T14:01:05.204,shetinin,0x1,1,0x3033e,chrome.exe,1672,0,0,512,822,26,0x3033e,1,0
2024-05-10T14:01:05.211,shetinin,0x1,1,0x3033e,chrome.exe,1672,0,0,512,829,25,0x3033e,1,0
2024-05-10T14:01:05.219,shetinin,0x1,1,0x3033e,chrome.exe,1672,0,0,512,836,24,0x3033e,1,0
2024-05-10T14:01:05.226,shetinin,0x1,1,0x3033e,chrome.exe,1672,0,0,512,842,24,0x3033e,1,0
2024-05-10T14:01:05.233,shetinin,0x1,1,0x3033e,chrome.exe,1672,0,0,512,848,24,0x3033e,1,0
2024-05-10T14:01:05.240,shetinin,0x1,1,0x3033e,chrome.exe,1672,0,0,512,853,24,0x3033e,1,0
2024-05-10T14:01:05.248,shetinin,0x1,1,0x3033e,chrome.exe,1672,0,0,512,857,24,0x3033e,1,0
2024-05-10T14:01:05.253,shetinin,0x1,1,0x3033e,chrome.exe,1672,0,0,512,861,24,0x3033e,1,0
2024-05-10T14:01:05.262,shetinin,0x1,1,0x3033e,chrome.exe,1672,0,0,512,864,24,0x3033e,1,0
2024-05-10T14:01:05.267,shetinin,0x1,1,0x3033e,chrome.exe,1672,0,0,512,867,24,0x3033e,1,0
2024-05-10T14:01:05.275,shetinin,0x1,1,0x3033e,chrome.exe,1672,0,0,512,869,24,0x3033e,1,0
2024-05-10T14:01:05.284,shetinin,0x1,1,0x3033e,chrome.exe,1672,0,0,512,871,24,0x3033e,1,0
2024-05-10T14:01:05.289,shetinin,0x1,1,0x3033e,chrome.exe,1672,0,0,512,873,24,0x3033e,1,0
2024-05-10T14:01:05.295,shetinin,0x1,1,0x3033e,chrome.exe,1672,0,0,512,876,24,0x3033e,1,0
2024-05-10T14:01:05.303,shetinin,0x1,1,0x3033e,chrome.exe,1672,0,0,512,878,23,0x3033e,1,0
2024-05-10T14:01:05.310,shetinin,0x1,1,0x3033e,chrome.exe,1672,0,0,512,881,22,0x3033e,1,0
2024-05-10T14:01:05.317,shetinin,0x1,1,0x3033e,chrome.exe,1672,0,0,512,885,22,0x3033e,1,0
2024-05-10T14:01:05.325,shetinin,0x1,1,0x3033e,chrome.exe,1672,0,0,512,889,21,0x3033e,1,0
2024-05-10T14:01:05.331,shetinin,0x1,1,0x3033e,chrome.exe,1672,0,0,512,893,21,0x3033e,1,0
2024-05-10T14:01:05.338,shetinin,0x1,1,0x3033e,chrome.exe,1672,0,0,512,897,21,0x3033e,1,0
2024-05-10T14:01:05.345,shetinin,0x1,1,0x3033e,chrome.exe,1672,0,0,512,901,20,0x3033e,1,0
2024-05-10T14:01:05.352,shetinin,0x1,1,0x3033e,chrome.exe,1672,0,0,512,905,20,0x3033e,1,0
2024-05-10T14:01:05.360,shetinin,0x1,1,0x3033e,chrome.exe,1672,0,0,512,909,19,0x3033e,1,0
2024-05-10T14:01:05.366,shetinin,0x1,1,0x3033e,chrome.exe,1672,0,0,512,912,18,0x3033e,1,0
2024-05-10T14:01:05.373,shetinin,0x1,1,0x3033e,chrome.exe,1672,0,0,512,914,18,0x3033e,1,0
2024-05-10T14:01:05.380,shetinin,0x1,1,0x3033e,chrome.exe,1672,0,0,512,916,18,0x3033e,1,0
2024-05-10T14:01:05.387,shetinin,0x1,1,0x3033e,chrome.exe,1672,0,0,512,917,17,0x3033e,1,0
2024-05-10T14:01:05.399,shetinin,0x1,1,0x3033e,chrome.exe,1672,0,0,512,918,17,0x3033e,1,0
2024-05-10T14:01:05.406,shetinin,0x1,1,0x3033e,chrome.exe,1672,0,0,512,919,16,0x3033e,1,0
2024-05-10T14:01:05.415,shetinin,0x1,1,0x3033e,chrome.exe,1672,0,0,512,920,16,0x3033e,1,0
2024-05-10T14:01:05.544,shetinin,0x1,1,0x3033e,chrome.exe,1672,0,0,513,920,16,0x3033e,1,0
2024-05-10T14:01:05.548,shetinin,0x1,1,0x3033e,chrome.exe,1672,0,0,512,920,16,0x3033e,1,0
2024-05-10T14:01:05.665,shetinin,0x1,1,0x3033e,chrome.exe,1672,0,0,514,920,16,0x3033e,1,0
2024-05-10T14:01:05.665,shetinin,0x1,1,0x3033e,chrome.exe,1672,0,0,512,920,16,0x3033e,1,0
2024-05-10T14:01:05.720,shetinin,0x1,1,0x3033e,chrome.exe,1672,0,0,512,914,21,0x3033e,1,0
2024-05-10T14:01:05.726,shetinin,0x1,1,0x3033e,chrome.exe,1672,0,0,512,905,29,0x3033e,1,0
2024-05-10T14:01:05.734,shetinin,0x1,1,0x3033e,chrome.exe,1672,0,0,512,891,41,0x3033e,1,0
2024-05-10T14:01:05.740,shetinin,0x1,1,0x3033e,chrome.exe,1672,0,0,512,870,58,0x3033e,1,0
2024-05-10T14:01:05.747,shetinin,0x1,1,0x3033e,chrome.exe,1672,0,0,512,839,80,0x3033e,1,0
2024-05-10T14:01:05.754,shetinin,0x1,1,0x3033e,chrome.exe,1672,0,0,512,802,104,0x280446,1,0
2024-05-10T14:01:05.761,shetinin,0x1,1,0x3033e,chrome.exe,1672,0,0,512,761,131,0x280446,1,0
2024-05-10T14:01:05.770,shetinin,0x1,1,0x3033e,chrome.exe,1672,0,0,512,724,155,0x280446,1,0
2024-05-10T14:01:05.775,shetinin,0x1,1,0x3033e,chrome.exe,1672,0,0,512,692,175,0x280446,1,0
2024-05-10T14:01:05.783,shetinin,0x1,1,0x3033e,chrome.exe,1672,0,0,512,666,190,0x280446,1,0
2024-05-10T14:01:05.800,shetinin,0x1,1,0x3033e,chrome.exe,1672,0,0,512,614,221,0x280446,1,0
2024-05-10T14:01:05.803,shetinin,0x1,1,0x3033e,chrome.exe,1672,0,0,512,594,234,0x280446,1,0
2024-05-10T14:01:05.810,shetinin,0x1,1,0x3033e,chrome.exe,1672,0,0,512,577,247,0x280446,1,0
2024-05-10T14:01:05.821,shetinin,0x1,1,0x3033e,chrome.exe,1672,0,0,512,561,258,0x280446,1,0
2024-05-10T14:01:05.824,shetinin,0x1,1,0x3033e,chrome.exe,1672,0,0,512,549,269,0x280446,1,0
2024-05-10T14:01:05.831,shetinin,0x1,1,0x3033e,chrome.exe,1672,0,0,512,538,279,0x280446,1,0
2024-05-10T14:01:05.838,shetinin,0x1,1,0x3033e,chrome.exe,1672,0,0,512,529,288,0x280446,1,0
2024-05-10T14:01:05.845,shetinin,0x1,1,0x3033e,chrome.exe,1672,0,0,512,521,295,0x280446,1,0
2024-05-10T14:01:05.852,shetinin,0x1,1,0x3033e,chrome.exe,1672,0,0,512,514,304,0x280446,1,0
2024-05-10T14:01:05.860,shetinin,0x1,1,0x3033e,chrome.exe,1672,0,0,512,507,312,0x280446,1,0
2024-05-10T14:01:05.869,shetinin,0x1,1,0x3033e,chrome.exe,1672,0,0,512,499,320,0x280446,1,0
2024-05-10T14:01:05.876,shetinin,0x1,1,0x3033e,chrome.exe,1672,0,0,512,493,325,0x280446,1,0
2024-05-10T14:01:05.879,shetinin,0x1,1,0x3033e,chrome.exe,1672,0,0,512,490,328,0x280446,1,0
