time,username,winsession_id,intsession_id,hwnd_orig,processname,PID,hookmode,provocation,message_id,x_pos,y_pos,hwnd,hittest, extra_info
2024-05-05T17:47:44.253,shetinin@70,0x1,3,0x4096e,VsDebugConsole.exe,8628,0,0,512,826,324,0x4096e,1,0
2024-05-05T17:47:44.261,shetinin@70,0x1,3,0x4096e,VsDebugConsole.exe,8628,0,0,512,793,317,0x4096e,1,0
2024-05-05T17:47:44.269,shetinin@70,0x1,3,0x4096e,VsDebugConsole.exe,8628,0,0,512,750,308,0x4096e,1,0
2024-05-05T17:47:44.273,shetinin@70,0x1,3,0x4096e,VsDebugConsole.exe,8628,0,0,512,696,298,0x4096e,1,0
2024-05-05T17:47:44.281,shetinin@70,0x1,3,0x4096e,VsDebugConsole.exe,8628,0,0,512,641,288,0x4096e,1,0
2024-05-05T17:47:44.290,shetinin@70,0x1,3,0x4096e,VsDebugConsole.exe,8628,0,0,512,600,281,0x4096e,1,0
2024-05-05T17:47:44.298,shetinin@70,0x1,3,0x4096e,VsDebugConsole.exe,8628,0,0,512,572,276,0x4096e,1,0
2024-05-05T17:47:44.301,shetinin@70,0x1,3,0x4096e,VsDebugConsole.exe,8628,0,0,512,545,270,0x4096e,1,0
2024-05-05T17:47:44.310,shetinin@70,0x1,3,0x4096e,VsDebugConsole.exe,8628,0,0,512,521,265,0x4096e,1,0
2024-05-05T17:47:44.318,shetinin@70,0x1,3,0x4096e,VsDebugConsole.exe,8628,0,0,512,503,260,0x4096e,1,0
2024-05-05T17:47:44.325,shetinin@70,0x1,3,0x4096e,VsDebugConsole.exe,8628,0,0,512,487,255,0x4096e,1,0
2024-05-05T17:47:44.333,shetinin@70,0x1,3,0x4096e,VsDebugConsole.exe,8628,0,0,512,471,251,0x4096e,1,0
2024-05-05T17:47:44.342,shetinin@70,0x1,3,0x4096e,VsDebugConsole.exe,8628,0,0,512,457,245,0x4096e,1,0
2024-05-05T17:47:44.346,shetinin@70,0x1,3,0x4096e,VsDebugConsole.exe,8628,0,0,512,447,241,0x4096e,1,0
2024-05-05T17:47:44.354,shetinin@70,0x1,3,0x4096e,VsDebugConsole.exe,8628,0,0,512,438,235,0x4096e,1,0
2024-05-05T17:47:44.357,shetinin@70,0x1,3,0x4096e,VsDebugConsole.exe,8628,0,0,512,430,230,0x4096e,1,0
2024-05-05T17:47:44.365,shetinin@70,0x1,3,0x4096e,VsDebugConsole.exe,8628,0,0,512,422,226,0x4096e,1,0
2024-05-05T17:47:44.373,shetinin@70,0x1,3,0x4096e,VsDebugConsole.exe,8628,0,0,512,416,224,0x4096e,1,0
2024-05-05T17:47:44.382,shetinin@70,0x1,3,0x4096e,VsDebugConsole.exe,8628,0,0,512,411,221,0x4096e,1,0
2024-05-05T17:47:44.390,shetinin@70,0x1,3,0x4096e,VsDebugConsole.exe,8628,0,0,512,406,217,0x4096e,1,0
2024-05-05T17:47:44.394,shetinin@70,0x1,3,0x4096e,VsDebugConsole.exe,8628,0,0,512,401,214,0x4096e,1,0
2024-05-05T17:47:44.402,shetinin@70,0x1,3,0x4096e,VsDebugConsole.exe,8628,0,0,512,395,212,0x4096e,1,0
2024-05-05T17:47:44.410,shetinin@70,0x1,3,0x4096e,VsDebugConsole.exe,8628,0,0,512,390,209,0x4096e,1,0
2024-05-05T17:47:44.417,shetinin@70,0x1,3,0x4096e,VsDebugConsole.exe,8628,0,0,512,386,207,0x4096e,1,0
2024-05-05T17:47:44.422,shetinin@70,0x1,3,0x4096e,VsDebugConsole.exe,8628,0,0,512,382,206,0x4096e,1,0
2024-05-05T17:47:44.429,shetinin@70,0x1,3,0x4096e,VsDebugConsole.exe,8628,0,0,512,378,206,0x4096e,1,0
2024-05-05T17:47:44.437,shetinin@70,0x1,3,0x4096e,VsDebugConsole.exe,8628,0,0,512,374,206,0x4096e,1,0
2024-05-05T17:47:44.445,shetinin@70,0x1,3,0x4096e,VsDebugConsole.exe,8628,0,0,512,370,207,0x4096e,1,0
2024-05-05T17:47:44.449,shetinin@70,0x1,3,0x4096e,VsDebugConsole.exe,8628,0,0,512,366,209,0x4096e,1,0
2024-05-05T17:47:44.457,shetinin@70,0x1,3,0x4096e,VsDebugConsole.exe,8628,0,0,512,362,210,0x4096e,1,0
2024-05-05T17:47:44.465,shetinin@70,0x1,3,0x4096e,VsDebugConsole.exe,8628,0,0,512,358,211,0x4096e,1,0
2024-05-05T17:47:44.473,shetinin@70,0x1,3,0x4096e,VsDebugConsole.exe,8628,0,0,512,353,212,0x4096e,1,0
2024-05-05T17:47:44.481,shetinin@70,0x1,3,0x4096e,VsDebugConsole.exe,8628,0,0,512,349,214,0x4096e,1,0
2024-05-05T17:47:44.485,shetinin@70,0x1,3,0x4096e,VsDebugConsole.exe,8628,0,0,512,344,216,0x4096e,1,0
2024-05-05T17:47:44.493,shetinin@70,0x1,3,0x4096e,VsDebugConsole.exe,8628,0,0,512,340,219,0x4096e,1,0
2024-05-05T17:47:44.502,shetinin@70,0x1,3,0x4096e,VsDebugConsole.exe,8628,0,0,512,335,222,0x4096e,1,0
2024-05-05T17:47:44.510,shetinin@70,0x1,3,0x4096e,VsDebugConsole.exe,8628,0,0,512,330,226,0x4096e,1,0
2024-05-05T17:47:44.513,shetinin@70,0x1,3,0x4096e,VsDebugConsole.exe,8628,0,0,512,326,230,0x4096e,1,0
2024-05-05T17:47:44.521,shetinin@70,0x1,3,0x4096e,VsDebugConsole.exe,8628,0,0,512,322,234,0x4096e,1,0
2024-05-05T17:47:44.530,shetinin@70,0x1,3,0x4096e,VsDebugConsole.exe,8628,0,0,512,317,239,0x4096e,1,0
2024-05-05T17:47:44.534,shetinin@70,0x1,3,0x4096e,VsDebugConsole.exe,8628,0,0,512,312,247,0x4096e,1,0
2024-05-05T17:47:44.546,shetinin@70,0x1,3,0x4096e,VsDebugConsole.exe,8628,0,0,512,308,254,0x4096e,1,0
2024-05-05T17:47:44.550,shetinin@70,0x1,3,0x4096e,VsDebugConsole.exe,8628,0,0,512,305,260,0x4096e,1,0
2024-05-05T17:47:44.558,shetinin@70,0x1,3,0x4096e,VsDebugConsole.exe,8628,0,0,512,301,265,0x4096e,1,0
2024-05-05T17:47:44.562,shetinin@70,0x1,3,0x4096e,VsDebugConsole.exe,8628,0,0,512,299,269,0x4096e,1,0
2024-05-05T17:47:44.569,shetinin@70,0x1,3,0x4096e,VsDebugConsole.exe,8628,0,0,512,296,273,0x4096e,1,0
2024-05-05T17:47:44.577,shetinin@70,0x1,3,0x4096e,VsDebugConsole.exe,8628,0,0,512,294,276,0x4096e,1,0
2024-05-05T17:47:44.585,shetinin@70,0x1,3,0x4096e,VsDebugConsole.exe,8628,0,0,512,293,278,0x4096e,1,0
2024-05-05T17:47:44.593,shetinin@70,0x1,3,0x4096e,VsDebugConsole.exe,8628,0,0,512,292,280,0x4096e,1,0
2024-05-05T17:47:44.597,shetinin@70,0x1,3,0x4096e,VsDebugConsole.exe,8628,0,0,512,291,282,0x4096e,1,0
2024-05-05T17:47:44.605,shetinin@70,0x1,3,0x4096e,VsDebugConsole.exe,8628,0,0,512,291,284,0x4096e,1,0
2024-05-05T17:47:44.613,shetinin@70,0x1,3,0x4096e,VsDebugConsole.exe,8628,0,0,512,290,285,0x4096e,1,0
2024-05-05T17:47:44.621,shetinin@70,0x1,3,0x4096e,VsDebugConsole.exe,8628,0,0,512,290,287,0x4096e,1,0
2024-05-05T17:47:44.625,shetinin@70,0x1,3,0x4096e,VsDebugConsole.exe,8628,0,0,512,290,288,0x4096e,1,0
2024-05-05T17:47:44.634,shetinin@70,0x1,3,0x4096e,VsDebugConsole.exe,8628,0,0,512,290,289,0x4096e,1,0
2024-05-05T17:47:44.641,shetinin@70,0x1,3,0x4096e,VsDebugConsole.exe,8628,0,0,512,290,290,0x4096e,1,0
2024-05-05T17:47:44.658,shetinin@70,0x1,3,0x4096e,VsDebugConsole.exe,8628,0,0,512,291,292,0x4096e,1,0
2024-05-05T17:47:44.661,shetinin@70,0x1,3,0x4096e,VsDebugConsole.exe,8628,0,0,512,291,294,0x4096e,1,0
2024-05-05T17:47:44.669,shetinin@70,0x1,3,0x4096e,VsDebugConsole.exe,8628,0,0,512,291,296,0x4096e,1,0
2024-05-05T17:47:44.677,shetinin@70,0x1,3,0x4096e,VsDebugConsole.exe,8628,0,0,512,293,297,0x4096e,1,0
2024-05-05T17:47:44.686,shetinin@70,0x1,3,0x4096e,VsDebugConsole.exe,8628,0,0,512,294,299,0x4096e,1,0
2024-05-05T17:47:44.690,shetinin@70,0x1,3,0x4096e,VsDebugConsole.exe,8628,0,0,512,295,301,0x4096e,1,0
2024-05-05T17:47:44.697,shetinin@70,0x1,3,0x4096e,VsDebugConsole.exe,8628,0,0,512,297,304,0x4096e,1,0
2024-05-05T17:47:44.705,shetinin@70,0x1,3,0x4096e,VsDebugConsole.exe,8628,0,0,512,299,307,0x4096e,1,0
2024-05-05T17:47:44.713,shetinin@70,0x1,3,0x4096e,VsDebugConsole.exe,8628,0,0,512,300,310,0x4096e,1,0
2024-05-05T17:47:44.717,shetinin@70,0x1,3,0x4096e,VsDebugConsole.exe,8628,0,0,512,302,313,0x4096e,1,0
2024-05-05T17:47:44.725,shetinin@70,0x1,3,0x4096e,VsDebugConsole.exe,8628,0,0,512,304,315,0x4096e,1,0
2024-05-05T17:47:44.733,shetinin@70,0x1,3,0x4096e,VsDebugConsole.exe,8628,0,0,512,306,317,0x4096e,1,0
2024-05-05T17:47:44.742,shetinin@70,0x1,3,0x4096e,VsDebugConsole.exe,8628,0,0,512,308,319,0x4096e,1,0
2024-05-05T17:47:44.749,shetinin@70,0x1,3,0x4096e,VsDebugConsole.exe,8628,0,0,512,310,321,0x4096e,1,0
2024-05-05T17:47:44.753,shetinin@70,0x1,3,0x4096e,VsDebugConsole.exe,8628,0,0,512,313,323,0x4096e,1,0
2024-05-05T17:47:44.766,shetinin@70,0x1,3,0x4096e,VsDebugConsole.exe,8628,0,0,512,315,326,0x4096e,1,0
2024-05-05T17:47:44.769,shetinin@70,0x1,3,0x4096e,VsDebugConsole.exe,8628,0,0,512,319,328,0x4096e,1,0
2024-05-05T17:47:44.777,shetinin@70,0x1,3,0x4096e,VsDebugConsole.exe,8628,0,0,512,322,331,0x4096e,1,0
2024-05-05T17:47:44.782,shetinin@70,0x1,3,0x4096e,VsDebugConsole.exe,8628,0,0,512,325,334,0x4096e,1,0
2024-05-05T17:47:44.789,shetinin@70,0x1,3,0x4096e,VsDebugConsole.exe,8628,0,0,512,328,337,0x4096e,1,0
2024-05-05T17:47:44.798,shetinin@70,0x1,3,0x4096e,VsDebugConsole.exe,8628,0,0,512,331,339,0x4096e,1,0
2024-05-05T17:47:44.805,shetinin@70,0x1,3,0x4096e,VsDebugConsole.exe,8628,0,0,512,334,342,0x4096e,1,0
2024-05-05T17:47:44.813,shetinin@70,0x1,3,0x4096e,VsDebugConsole.exe,8628,0,0,512,338,345,0x4096e,1,0
2024-05-05T17:47:44.818,shetinin@70,0x1,3,0x4096e,VsDebugConsole.exe,8628,0,0,512,341,347,0x4096e,1,0
2024-05-05T17:47:44.826,shetinin@70,0x1,3,0x4096e,VsDebugConsole.exe,8628,0,0,512,344,350,0x4096e,1,0
2024-05-05T17:47:44.833,shetinin@70,0x1,3,0x4096e,VsDebugConsole.exe,8628,0,0,512,346,352,0x4096e,1,0
2024-05-05T17:47:44.837,shetinin@70,0x1,3,0x4096e,VsDebugConsole.exe,8628,0,0,512,349,354,0x4096e,1,0
2024-05-05T17:47:44.846,shetinin@70,0x1,3,0x4096e,VsDebugConsole.exe,8628,0,0,512,351,356,0x4096e,1,0
2024-05-05T17:47:44.858,shetinin@70,0x1,3,0x4096e,VsDebugConsole.exe,8628,0,0,512,353,357,0x4096e,1,0
2024-05-05T17:47:44.862,shetinin@70,0x1,3,0x4096e,VsDebugConsole.exe,8628,0,0,512,355,359,0x4096e,1,0
2024-05-05T17:47:44.865,shetinin@70,0x1,3,0x4096e,VsDebugConsole.exe,8628,0,0,512,357,360,0x4096e,1,0
2024-05-05T17:47:44.873,shetinin@70,0x1,3,0x4096e,VsDebugConsole.exe,8628,0,0,512,358,362,0x4096e,1,0
2024-05-05T17:47:44.882,shetinin@70,0x1,3,0x4096e,VsDebugConsole.exe,8628,0,0,512,359,363,0x4096e,1,0
2024-05-05T17:47:44.889,shetinin@70,0x1,3,0x4096e,VsDebugConsole.exe,8628,0,0,512,360,363,0x4096e,1,0
2024-05-05T17:47:44.893,shetinin@70,0x1,3,0x4096e,VsDebugConsole.exe,8628,0,0,512,360,364,0x4096e,1,0
2024-05-05T17:47:44.902,shetinin@70,0x1,3,0x4096e,VsDebugConsole.exe,8628,0,0,512,362,364,0x4096e,1,0
2024-05-05T17:47:44.910,shetinin@70,0x1,3,0x4096e,VsDebugConsole.exe,8628,0,0,512,363,365,0x4096e,1,0
2024-05-05T17:47:44.922,shetinin@70,0x1,3,0x4096e,VsDebugConsole.exe,8628,0,0,512,364,365,0x4096e,1,0
2024-05-05T17:47:44.929,shetinin@70,0x1,3,0x4096e,VsDebugConsole.exe,8628,0,0,512,365,365,0x4096e,1,0
2024-05-05T17:47:44.937,shetinin@70,0x1,3,0x4096e,VsDebugConsole.exe,8628,0,0,512,366,366,0x4096e,1,0
2024-05-05T17:47:44.945,shetinin@70,0x1,3,0x4096e,VsDebugConsole.exe,8628,0,0,512,368,367,0x4096e,1,0
2024-05-05T17:47:44.953,shetinin@70,0x1,3,0x4096e,VsDebugConsole.exe,8628,0,0,512,370,367,0x4096e,1,0
2024-05-05T17:47:44.957,shetinin@70,0x1,3,0x4096e,VsDebugConsole.exe,8628,0,0,512,372,368,0x4096e,1,0
2024-05-05T17:47:44.966,shetinin@70,0x1,3,0x4096e,VsDebugConsole.exe,8628,0,0,512,374,369,0x4096e,1,0
2024-05-05T17:47:44.973,shetinin@70,0x1,3,0x4096e,VsDebugConsole.exe,8628,0,0,512,375,369,0x4096e,1,0
2024-05-05T17:47:44.981,shetinin@70,0x1,3,0x4096e,VsDebugConsole.exe,8628,0,0,512,376,370,0x4096e,1,0
2024-05-05T17:47:44.985,shetinin@70,0x1,3,0x4096e,VsDebugConsole.exe,8628,0,0,512,377,370,0x4096e,1,0
2024-05-05T17:47:44.993,shetinin@70,0x1,3,0x4096e,VsDebugConsole.exe,8628,0,0,512,379,371,0x4096e,1,0
2024-05-05T17:47:45.001,shetinin@70,0x1,3,0x4096e,VsDebugConsole.exe,8628,0,0,512,380,371,0x4096e,1,0
2024-05-05T17:47:45.009,shetinin@70,0x1,3,0x4096e,VsDebugConsole.exe,8628,0,0,512,382,371,0x4096e,1,0
2024-05-05T17:47:45.013,shetinin@70,0x1,3,0x4096e,VsDebugConsole.exe,8628,0,0,512,383,372,0x4096e,1,0
2024-05-05T17:47:45.022,shetinin@70,0x1,3,0x4096e,VsDebugConsole.exe,8628,0,0,512,385,374,0x4096e,1,0
2024-05-05T17:47:45.029,shetinin@70,0x1,3,0x4096e,VsDebugConsole.exe,8628,0,0,512,387,375,0x4096e,1,0
2024-05-05T17:47:45.033,shetinin@70,0x1,3,0x4096e,VsDebugConsole.exe,8628,0,0,512,389,376,0x4096e,1,0
2024-05-05T17:47:45.045,shetinin@70,0x1,3,0x4096e,VsDebugConsole.exe,8628,0,0,512,390,377,0x4096e,1,0
2024-05-05T17:47:45.050,shetinin@70,0x1,3,0x4096e,VsDebugConsole.exe,8628,0,0,512,392,377,0x4096e,1,0
2024-05-05T17:47:45.058,shetinin@70,0x1,3,0x4096e,VsDebugConsole.exe,8628,0,0,512,393,377,0x4096e,1,0
2024-05-05T17:47:45.065,shetinin@70,0x1,3,0x4096e,VsDebugConsole.exe,8628,0,0,512,394,377,0x4096e,1,0
2024-05-05T17:47:45.074,shetinin@70,0x1,3,0x4096e,VsDebugConsole.exe,8628,0,0,512,395,377,0x4096e,1,0
2024-05-05T17:47:45.086,shetinin@70,0x1,3,0x4096e,VsDebugConsole.exe,8628,0,0,512,396,377,0x4096e,1,0
2024-05-05T17:47:45.097,shetinin@70,0x1,3,0x4096e,VsDebugConsole.exe,8628,0,0,512,397,377,0x4096e,1,0
2024-05-05T17:47:45.137,shetinin@70,0x1,3,0x4096e,VsDebugConsole.exe,8628,0,0,512,398,378,0x4096e,1,0
2024-05-05T17:47:45.189,shetinin@70,0x1,3,0x4096e,VsDebugConsole.exe,8628,0,0,512,396,378,0x4096e,1,0
2024-05-05T17:47:45.198,shetinin@70,0x1,3,0x4096e,VsDebugConsole.exe,8628,0,0,512,393,377,0x4096e,1,0
2024-05-05T17:47:45.213,shetinin@70,0x1,3,0x4096e,VsDebugConsole.exe,8628,0,0,512,389,375,0x4096e,1,0
2024-05-05T17:47:45.213,shetinin@70,0x1,3,0x4096e,VsDebugConsole.exe,8628,0,0,512,384,375,0x4096e,1,0
2024-05-05T17:47:45.218,shetinin@70,0x1,3,0x4096e,VsDebugConsole.exe,8628,0,0,512,378,375,0x4096e,1,0
2024-05-05T17:47:45.225,shetinin@70,0x1,3,0x4096e,VsDebugConsole.exe,8628,0,0,512,371,373,0x4096e,1,0
2024-05-05T17:47:45.233,shetinin@70,0x1,3,0x4096e,VsDebugConsole.exe,8628,0,0,512,363,372,0x4096e,1,0
2024-05-05T17:47:45.237,shetinin@70,0x1,3,0x4096e,VsDebugConsole.exe,8628,0,0,512,355,371,0x4096e,1,0
2024-05-05T17:47:45.249,shetinin@70,0x1,3,0x4096e,VsDebugConsole.exe,8628,0,0,512,347,370,0x4096e,1,0
2024-05-05T17:47:45.253,shetinin@70,0x1,3,0x4096e,VsDebugConsole.exe,8628,0,0,512,339,369,0x4096e,1,0
2024-05-05T17:47:45.261,shetinin@70,0x1,3,0x4096e,VsDebugConsole.exe,8628,0,0,512,332,368,0x4096e,1,0
2024-05-05T17:47:45.270,shetinin@70,0x1,3,0x4096e,VsDebugConsole.exe,8628,0,0,512,325,367,0x4096e,1,0
2024-05-05T17:47:45.278,shetinin@70,0x1,3,0x4096e,VsDebugConsole.exe,8628,0,0,512,317,367,0x4096e,1,0
2024-05-05T17:47:45.282,shetinin@70,0x1,3,0x4096e,VsDebugConsole.exe,8628,0,0,512,311,365,0x4096e,1,0
2024-05-05T17:47:45.290,shetinin@70,0x1,3,0x4096e,VsDebugConsole.exe,8628,0,0,512,305,364,0x4096e,1,0
2024-05-05T17:47:45.294,shetinin@70,0x1,3,0x4096e,VsDebugConsole.exe,8628,0,0,512,299,364,0x4096e,1,0
2024-05-05T17:47:45.305,shetinin@70,0x1,3,0x4096e,VsDebugConsole.exe,8628,0,0,512,294,363,0x4096e,1,0
2024-05-05T17:47:45.309,shetinin@70,0x1,3,0x4096e,VsDebugConsole.exe,8628,0,0,512,290,363,0x4096e,1,0
2024-05-05T17:47:45.317,shetinin@70,0x1,3,0x4096e,VsDebugConsole.exe,8628,0,0,512,285,363,0x4096e,1,0
2024-05-05T17:47:45.325,shetinin@70,0x1,3,0x4096e,VsDebugConsole.exe,8628,0,0,512,281,363,0x4096e,1,0
2024-05-05T17:47:45.333,shetinin@70,0x1,3,0x4096e,VsDebugConsole.exe,8628,0,0,512,276,363,0x4096e,1,0
2024-05-05T17:47:45.337,shetinin@70,0x1,3,0x4096e,VsDebugConsole.exe,8628,0,0,512,272,363,0x4096e,1,0
2024-05-05T17:47:45.345,shetinin@70,0x1,3,0x4096e,VsDebugConsole.exe,8628,0,0,512,268,363,0x4096e,1,0
2024-05-05T17:47:45.353,shetinin@70,0x1,3,0x4096e,VsDebugConsole.exe,8628,0,0,512,265,363,0x4096e,1,0
2024-05-05T17:47:45.369,shetinin@70,0x1,3,0x4096e,VsDebugConsole.exe,8628,0,0,512,261,362,0x4096e,1,0
2024-05-05T17:47:45.370,shetinin@70,0x1,3,0x4096e,VsDebugConsole.exe,8628,0,0,512,258,362,0x4096e,1,0
2024-05-05T17:47:45.374,shetinin@70,0x1,3,0x4096e,VsDebugConsole.exe,8628,0,0,512,256,362,0x4096e,1,0
2024-05-05T17:47:45.381,shetinin@70,0x1,3,0x4096e,VsDebugConsole.exe,8628,0,0,512,253,362,0x4096e,1,0
2024-05-05T17:47:45.389,shetinin@70,0x1,3,0x4096e,VsDebugConsole.exe,8628,0,0,512,252,361,0x4096e,1,0
2024-05-05T17:47:45.397,shetinin@70,0x1,3,0x4096e,VsDebugConsole.exe,8628,0,0,512,250,362,0x4096e,1,0
2024-05-05T17:47:45.401,shetinin@70,0x1,3,0x4096e,VsDebugConsole.exe,8628,0,0,512,248,361,0x4096e,1,0
2024-05-05T17:47:45.409,shetinin@70,0x1,3,0x4096e,VsDebugConsole.exe,8628,0,0,512,247,361,0x4096e,1,0
2024-05-05T17:47:45.425,shetinin@70,0x1,3,0x4096e,VsDebugConsole.exe,8628,0,0,512,246,361,0x4096e,1,0
2024-05-05T17:47:45.513,shetinin@70,0x1,3,0x4096e,VsDebugConsole.exe,8628,0,0,512,248,362,0x4096e,1,0
2024-05-05T17:47:45.522,shetinin@70,0x1,3,0x4096e,VsDebugConsole.exe,8628,0,0,512,249,362,0x4096e,1,0
2024-05-05T17:47:45.530,shetinin@70,0x1,3,0x4096e,VsDebugConsole.exe,8628,0,0,512,251,363,0x4096e,1,0
2024-05-05T17:47:45.537,shetinin@70,0x1,3,0x4096e,VsDebugConsole.exe,8628,0,0,512,253,364,0x4096e,1,0
2024-05-05T17:47:45.549,shetinin@70,0x1,3,0x4096e,VsDebugConsole.exe,8628,0,0,512,257,365,0x4096e,1,0
2024-05-05T17:47:45.549,shetinin@70,0x1,3,0x4096e,VsDebugConsole.exe,8628,0,0,512,261,365,0x4096e,1,0
2024-05-05T17:47:45.558,shetinin@70,0x1,3,0x4096e,VsDebugConsole.exe,8628,0,0,512,266,365,0x4096e,1,0
2024-05-05T17:47:45.566,shetinin@70,0x1,3,0x4096e,VsDebugConsole.exe,8628,0,0,512,272,366,0x4096e,1,0
2024-05-05T17:47:45.569,shetinin@70,0x1,3,0x4096e,VsDebugConsole.exe,8628,0,0,512,279,367,0x4096e,1,0
2024-05-05T17:47:45.578,shetinin@70,0x1,3,0x4096e,VsDebugConsole.exe,8628,0,0,512,286,369,0x4096e,1,0
2024-05-05T17:47:45.586,shetinin@70,0x1,3,0x4096e,VsDebugConsole.exe,8628,0,0,512,294,371,0x4096e,1,0
2024-05-05T17:47:45.593,shetinin@70,0x1,3,0x4096e,VsDebugConsole.exe,8628,0,0,512,302,372,0x4096e,1,0
2024-05-05T17:47:45.602,shetinin@70,0x1,3,0x4096e,VsDebugConsole.exe,8628,0,0,512,311,373,0x4096e,1,0
2024-05-05T17:47:45.605,shetinin@70,0x1,3,0x4096e,VsDebugConsole.exe,8628,0,0,512,320,373,0x4096e,1,0
2024-05-05T17:47:45.613,shetinin@70,0x1,3,0x4096e,VsDebugConsole.exe,8628,0,0,512,328,373,0x4096e,1,0
2024-05-05T17:47:45.621,shetinin@70,0x1,3,0x4096e,VsDebugConsole.exe,8628,0,0,512,336,375,0x4096e,1,0
2024-05-05T17:47:45.630,shetinin@70,0x1,3,0x4096e,VsDebugConsole.exe,8628,0,0,512,344,376,0x4096e,1,0
2024-05-05T17:47:45.633,shetinin@70,0x1,3,0x4096e,VsDebugConsole.exe,8628,0,0,512,352,377,0x4096e,1,0
2024-05-05T17:47:45.641,shetinin@70,0x1,3,0x4096e,VsDebugConsole.exe,8628,0,0,512,360,378,0x4096e,1,0
2024-05-05T17:47:45.650,shetinin@70,0x1,3,0x4096e,VsDebugConsole.exe,8628,0,0,512,368,379,0x4096e,1,0
2024-05-05T17:47:45.654,shetinin@70,0x1,3,0x4096e,VsDebugConsole.exe,8628,0,0,512,376,379,0x4096e,1,0
2024-05-05T17:47:45.666,shetinin@70,0x1,3,0x4096e,VsDebugConsole.exe,8628,0,0,512,384,380,0x4096e,1,0
2024-05-05T17:47:45.670,shetinin@70,0x1,3,0x4096e,VsDebugConsole.exe,8628,0,0,512,391,381,0x4096e,1,0
2024-05-05T17:47:45.677,shetinin@70,0x1,3,0x4096e,VsDebugConsole.exe,8628,0,0,512,397,383,0x4096e,1,0
2024-05-05T17:47:45.685,shetinin@70,0x1,3,0x4096e,VsDebugConsole.exe,8628,0,0,512,403,385,0x4096e,1,0
2024-05-05T17:47:45.690,shetinin@70,0x1,3,0x4096e,VsDebugConsole.exe,8628,0,0,512,409,387,0x4096e,1,0
2024-05-05T17:47:45.697,shetinin@70,0x1,3,0x4096e,VsDebugConsole.exe,8628,0,0,512,414,388,0x4096e,1,0
2024-05-05T17:47:45.705,shetinin@70,0x1,3,0x4096e,VsDebugConsole.exe,8628,0,0,512,419,389,0x4096e,1,0
2024-05-05T17:47:45.709,shetinin@70,0x1,3,0x4096e,VsDebugConsole.exe,8628,0,0,512,423,389,0x4096e,1,0
2024-05-05T17:47:45.717,shetinin@70,0x1,3,0x4096e,VsDebugConsole.exe,8628,0,0,512,427,389,0x4096e,1,0
2024-05-05T17:47:45.725,shetinin@70,0x1,3,0x4096e,VsDebugConsole.exe,8628,0,0,512,430,389,0x4096e,1,0
2024-05-05T17:47:45.734,shetinin@70,0x1,3,0x4096e,VsDebugConsole.exe,8628,0,0,512,433,389,0x4096e,1,0
2024-05-05T17:47:45.742,shetinin@70,0x1,3,0x4096e,VsDebugConsole.exe,8628,0,0,512,435,389,0x4096e,1,0
2024-05-05T17:47:45.749,shetinin@70,0x1,3,0x4096e,VsDebugConsole.exe,8628,0,0,512,437,390,0x4096e,1,0
2024-05-05T17:47:45.753,shetinin@70,0x1,3,0x4096e,VsDebugConsole.exe,8628,0,0,512,439,390,0x4096e,1,0
2024-05-05T17:47:45.769,shetinin@70,0x1,3,0x4096e,VsDebugConsole.exe,8628,0,0,512,440,390,0x4096e,1,0
2024-05-05T17:47:45.777,shetinin@70,0x1,3,0x4096e,VsDebugConsole.exe,8628,0,0,512,441,390,0x4096e,1,0
2024-05-05T17:47:45.782,shetinin@70,0x1,3,0x4096e,VsDebugConsole.exe,8628,0,0,512,442,390,0x4096e,1,0
2024-05-05T17:47:45.797,shetinin@70,0x1,3,0x4096e,VsDebugConsole.exe,8628,0,0,512,442,391,0x4096e,1,0
2024-05-05T17:47:45.805,shetinin@70,0x1,3,0x4096e,VsDebugConsole.exe,8628,0,0,512,443,391,0x4096e,1,0
2024-05-05T17:47:45.809,shetinin@70,0x1,3,0x4096e,VsDebugConsole.exe,8628,0,0,512,443,392,0x4096e,1,0
2024-05-05T17:47:45.817,shetinin@70,0x1,3,0x4096e,VsDebugConsole.exe,8628,0,0,512,444,392,0x4096e,1,0
2024-05-05T17:47:45.834,shetinin@70,0x1,3,0x4096e,VsDebugConsole.exe,8628,0,0,512,445,393,0x4096e,1,0
2024-05-05T17:47:45.861,shetinin@70,0x1,3,0x4096e,VsDebugConsole.exe,8628,0,0,513,445,393,0x4096e,1,0
2024-05-05T17:47:45.910,shetinin@70,0x1,3,0x4096e,VsDebugConsole.exe,8628,0,0,512,442,392,0x4096e,1,0
2024-05-05T17:47:45.918,shetinin@70,0x1,3,0x4096e,VsDebugConsole.exe,8628,0,0,512,438,391,0x4096e,1,0
2024-05-05T17:47:45.926,shetinin@70,0x1,3,0x4096e,VsDebugConsole.exe,8628,0,0,512,434,391,0x4096e,1,0
2024-05-05T17:47:45.929,shetinin@70,0x1,3,0x4096e,VsDebugConsole.exe,8628,0,0,512,429,389,0x4096e,1,0
2024-05-05T17:47:45.937,shetinin@70,0x1,3,0x4096e,VsDebugConsole.exe,8628,0,0,512,423,387,0x4096e,1,0
2024-05-05T17:47:45.953,shetinin@70,0x1,3,0x4096e,VsDebugConsole.exe,8628,0,0,512,408,385,0x4096e,1,0
2024-05-05T17:47:45.957,shetinin@70,0x1,3,0x4096e,VsDebugConsole.exe,8628,0,0,512,400,385,0x4096e,1,0
2024-05-05T17:47:45.965,shetinin@70,0x1,3,0x4096e,VsDebugConsole.exe,8628,0,0,512,392,385,0x4096e,1,0
2024-05-05T17:47:45.973,shetinin@70,0x1,3,0x4096e,VsDebugConsole.exe,8628,0,0,512,383,385,0x4096e,1,0
2024-05-05T17:47:45.986,shetinin@70,0x1,3,0x4096e,VsDebugConsole.exe,8628,0,0,512,374,385,0x4096e,1,0
2024-05-05T17:47:45.994,shetinin@70,0x1,3,0x4096e,VsDebugConsole.exe,8628,0,0,512,355,383,0x4096e,1,0
2024-05-05T17:47:46.002,shetinin@70,0x1,3,0x4096e,VsDebugConsole.exe,8628,0,0,512,345,383,0x4096e,1,0
2024-05-05T17:47:46.005,shetinin@70,0x1,3,0x4096e,VsDebugConsole.exe,8628,0,0,512,335,381,0x4096e,1,0
2024-05-05T17:47:46.025,shetinin@70,0x1,3,0x4096e,VsDebugConsole.exe,8628,0,0,512,317,381,0x4096e,1,0
2024-05-05T17:47:46.029,shetinin@70,0x1,3,0x4096e,VsDebugConsole.exe,8628,0,0,512,309,381,0x4096e,1,0
2024-05-05T17:47:46.038,shetinin@70,0x1,3,0x4096e,VsDebugConsole.exe,8628,0,0,512,301,380,0x4096e,1,0
2024-05-05T17:47:46.057,shetinin@70,0x1,3,0x4096e,VsDebugConsole.exe,8628,0,0,512,282,378,0x4096e,1,0
2024-05-05T17:47:46.066,shetinin@70,0x1,3,0x4096e,VsDebugConsole.exe,8628,0,0,512,277,378,0x4096e,1,0
2024-05-05T17:47:46.073,shetinin@70,0x1,3,0x4096e,VsDebugConsole.exe,8628,0,0,512,273,378,0x4096e,1,0
2024-05-05T17:47:46.077,shetinin@70,0x1,3,0x4096e,VsDebugConsole.exe,8628,0,0,512,269,378,0x4096e,1,0
2024-05-05T17:47:46.085,shetinin@70,0x1,3,0x4096e,VsDebugConsole.exe,8628,0,0,512,266,377,0x4096e,1,0
2024-05-05T17:47:46.093,shetinin@70,0x1,3,0x4096e,VsDebugConsole.exe,8628,0,0,512,264,377,0x4096e,1,0
2024-05-05T17:47:46.098,shetinin@70,0x1,3,0x4096e,VsDebugConsole.exe,8628,0,0,512,261,377,0x4096e,1,0
2024-05-05T17:47:46.105,shetinin@70,0x1,3,0x4096e,VsDebugConsole.exe,8628,0,0,512,259,376,0x4096e,1,0
2024-05-05T17:47:46.125,shetinin@70,0x1,3,0x4096e,VsDebugConsole.exe,8628,0,0,512,255,375,0x4096e,1,0
2024-05-05T17:47:46.134,shetinin@70,0x1,3,0x4096e,VsDebugConsole.exe,8628,0,0,512,251,374,0x4096e,1,0
2024-05-05T17:47:46.145,shetinin@70,0x1,3,0x4096e,VsDebugConsole.exe,8628,0,0,512,249,374,0x4096e,1,0
2024-05-05T17:47:46.149,shetinin@70,0x1,3,0x4096e,VsDebugConsole.exe,8628,0,0,512,248,374,0x4096e,1,0
2024-05-05T17:47:46.157,shetinin@70,0x1,3,0x4096e,VsDebugConsole.exe,8628,0,0,512,246,373,0x4096e,1,0
2024-05-05T17:47:46.166,shetinin@70,0x1,3,0x4096e,VsDebugConsole.exe,8628,0,0,512,244,373,0x4096e,1,0
2024-05-05T17:47:46.177,shetinin@70,0x1,3,0x4096e,VsDebugConsole.exe,8628,0,0,512,242,372,0x4096e,1,0
2024-05-05T17:47:46.177,shetinin@70,0x1,3,0x4096e,VsDebugConsole.exe,8628,0,0,512,240,371,0x4096e,1,0
2024-05-05T17:47:46.185,shetinin@70,0x1,3,0x4096e,VsDebugConsole.exe,8628,0,0,512,239,371,0x4096e,1,0
2024-05-05T17:47:46.201,shetinin@70,0x1,3,0x4096e,VsDebugConsole.exe,8628,0,0,512,236,371,0x4096e,1,0
2024-05-05T17:47:46.213,shetinin@70,0x1,3,0x4096e,VsDebugConsole.exe,8628,0,0,512,234,371,0x4096e,1,0
2024-05-05T17:47:46.221,shetinin@70,0x1,3,0x4096e,VsDebugConsole.exe,8628,0,0,512,233,371,0x4096e,1,0
2024-05-05T17:47:46.230,shetinin@70,0x1,3,0x4096e,VsDebugConsole.exe,8628,0,0,512,232,371,0x4096e,1,0
2024-05-05T17:47:46.242,shetinin@70,0x1,3,0x4096e,VsDebugConsole.exe,8628,0,0,512,230,371,0x4096e,1,0
2024-05-05T17:47:46.245,shetinin@70,0x1,3,0x4096e,VsDebugConsole.exe,8628,0,0,512,229,371,0x4096e,1,0
2024-05-05T17:47:46.254,shetinin@70,0x1,3,0x4096e,VsDebugConsole.exe,8628,0,0,512,228,371,0x4096e,1,0
2024-05-05T17:47:46.277,shetinin@70,0x1,3,0x4096e,VsDebugConsole.exe,8628,0,0,512,227,371,0x4096e,1,0
2024-05-05T17:47:46.333,shetinin@70,0x1,3,0x4096e,VsDebugConsole.exe,8628,0,0,514,227,371,0x4096e,1,0
2024-05-05T17:47:46.333,shetinin@70,0x1,3,0x4096e,VsDebugConsole.exe,8628,0,0,512,227,371,0x4096e,1,0
2024-05-05T17:47:46.362,shetinin@70,0x1,3,0x4096e,VsDebugConsole.exe,8628,0,0,512,228,371,0x4096e,1,0
2024-05-05T17:47:46.370,shetinin@70,0x1,3,0x4096e,VsDebugConsole.exe,8628,0,0,512,229,371,0x4096e,1,0
2024-05-05T17:47:46.374,shetinin@70,0x1,3,0x4096e,VsDebugConsole.exe,8628,0,0,512,231,372,0x4096e,1,0
2024-05-05T17:47:46.382,shetinin@70,0x1,3,0x4096e,VsDebugConsole.exe,8628,0,0,512,234,372,0x4096e,1,0
2024-05-05T17:47:46.389,shetinin@70,0x1,3,0x4096e,VsDebugConsole.exe,8628,0,0,512,237,373,0x4096e,1,0
2024-05-05T17:47:46.397,shetinin@70,0x1,3,0x4096e,VsDebugConsole.exe,8628,0,0,512,243,373,0x4096e,1,0
2024-05-05T17:47:46.401,shetinin@70,0x1,3,0x4096e,VsDebugConsole.exe,8628,0,0,512,251,374,0x4096e,1,0
2024-05-05T17:47:46.409,shetinin@70,0x1,3,0x4096e,VsDebugConsole.exe,8628,0,0,512,260,375,0x4096e,1,0
2024-05-05T17:47:46.417,shetinin@70,0x1,3,0x4096e,VsDebugConsole.exe,8628,0,0,512,273,376,0x4096e,1,0
2024-05-05T17:47:46.425,shetinin@70,0x1,3,0x4096e,VsDebugConsole.exe,8628,0,0,512,289,377,0x4096e,1,0
2024-05-05T17:47:46.429,shetinin@70,0x1,3,0x4096e,VsDebugConsole.exe,8628,0,0,512,315,378,0x4096e,1,0
2024-05-05T17:47:46.437,shetinin@70,0x1,3,0x4096e,VsDebugConsole.exe,8628,0,0,512,346,379,0x4096e,1,0
2024-05-05T17:47:46.445,shetinin@70,0x1,3,0x4096e,VsDebugConsole.exe,8628,0,0,512,384,380,0x4096e,1,0
2024-05-05T17:47:46.453,shetinin@70,0x1,3,0x4096e,VsDebugConsole.exe,8628,0,0,512,417,379,0x4096e,1,0
2024-05-05T17:47:46.461,shetinin@70,0x1,3,0x4096e,VsDebugConsole.exe,8628,0,0,512,445,378,0x4096e,1,0
2024-05-05T17:47:46.465,shetinin@70,0x1,3,0x4096e,VsDebugConsole.exe,8628,0,0,512,465,376,0x4096e,1,0
2024-05-05T17:47:46.473,shetinin@70,0x1,3,0x4096e,VsDebugConsole.exe,8628,0,0,512,481,375,0x4096e,1,0
2024-05-05T17:47:46.482,shetinin@70,0x1,3,0x4096e,VsDebugConsole.exe,8628,0,0,512,492,374,0x4096e,1,0
2024-05-05T17:47:46.490,shetinin@70,0x1,3,0x4096e,VsDebugConsole.exe,8628,0,0,512,501,374,0x4096e,1,0
2024-05-05T17:47:46.493,shetinin@70,0x1,3,0x4096e,VsDebugConsole.exe,8628,0,0,512,509,373,0x4096e,1,0
2024-05-05T17:47:46.501,shetinin@70,0x1,3,0x4096e,VsDebugConsole.exe,8628,0,0,512,514,373,0x4096e,1,0
2024-05-05T17:47:46.509,shetinin@70,0x1,3,0x4096e,VsDebugConsole.exe,8628,0,0,512,517,373,0x4096e,1,0
2024-05-05T17:47:46.513,shetinin@70,0x1,3,0x4096e,VsDebugConsole.exe,8628,0,0,513,517,373,0x4096e,1,0
2024-05-05T17:47:46.602,shetinin@70,0x1,3,0x4096e,VsDebugConsole.exe,8628,0,0,514,517,373,0x4096e,1,0
2024-05-05T17:47:46.602,shetinin@70,0x1,3,0x4096e,VsDebugConsole.exe,8628,0,0,512,517,373,0x4096e,1,0
2024-05-05T17:47:46.633,shetinin@70,0x1,3,0x4096e,VsDebugConsole.exe,8628,0,0,512,522,372,0x4096e,1,0
2024-05-05T17:47:46.645,shetinin@70,0x1,3,0x4096e,VsDebugConsole.exe,8628,0,0,512,528,370,0x4096e,1,0
2024-05-05T17:47:46.649,shetinin@70,0x1,3,0x4096e,VsDebugConsole.exe,8628,0,0,512,536,367,0x4096e,1,0
2024-05-05T17:47:46.657,shetinin@70,0x1,3,0x4096e,VsDebugConsole.exe,8628,0,0,512,546,365,0x4096e,1,0
2024-05-05T17:47:46.662,shetinin@70,0x1,3,0x4096e,VsDebugConsole.exe,8628,0,0,512,558,362,0x4096e,1,0
2024-05-05T17:47:46.669,shetinin@70,0x1,3,0x4096e,VsDebugConsole.exe,8628,0,0,512,572,360,0x4096e,1,0
2024-05-05T17:47:46.678,shetinin@70,0x1,3,0x4096e,VsDebugConsole.exe,8628,0,0,512,589,358,0x4096e,1,0
2024-05-05T17:47:46.685,shetinin@70,0x1,3,0x4096e,VsDebugConsole.exe,8628,0,0,512,607,356,0x4096e,1,0
2024-05-05T17:47:46.689,shetinin@70,0x1,3,0x4096e,VsDebugConsole.exe,8628,0,0,512,633,355,0x4096e,1,0
2024-05-05T17:47:46.701,shetinin@70,0x1,3,0x4096e,VsDebugConsole.exe,8628,0,0,512,662,353,0x4096e,1,0
2024-05-05T17:47:46.706,shetinin@70,0x1,3,0x4096e,VsDebugConsole.exe,8628,0,0,512,691,351,0x4096e,1,0
2024-05-05T17:47:46.713,shetinin@70,0x1,3,0x4096e,VsDebugConsole.exe,8628,0,0,512,714,349,0x4096e,1,0
2024-05-05T17:47:46.721,shetinin@70,0x1,3,0x4096e,VsDebugConsole.exe,8628,0,0,512,731,347,0x4096e,1,0
2024-05-05T17:47:46.730,shetinin@70,0x1,3,0x4096e,VsDebugConsole.exe,8628,0,0,512,745,344,0x4096e,1,0
2024-05-05T17:47:46.734,shetinin@70,0x1,3,0x4096e,VsDebugConsole.exe,8628,0,0,512,755,342,0x4096e,1,0
2024-05-05T17:47:46.741,shetinin@70,0x1,3,0x4096e,VsDebugConsole.exe,8628,0,0,512,764,340,0x4096e,1,0
2024-05-05T17:47:46.749,shetinin@70,0x1,3,0x4096e,VsDebugConsole.exe,8628,0,0,512,772,337,0x4096e,1,0
2024-05-05T17:47:46.753,shetinin@70,0x1,3,0x4096e,VsDebugConsole.exe,8628,0,0,512,778,337,0x4096e,1,0
2024-05-05T17:47:46.761,shetinin@70,0x1,3,0x4096e,VsDebugConsole.exe,8628,0,0,512,783,335,0x4096e,1,0
2024-05-05T17:47:46.769,shetinin@70,0x1,3,0x4096e,VsDebugConsole.exe,8628,0,0,512,788,335,0x4096e,1,0
2024-05-05T17:47:46.777,shetinin@70,0x1,3,0x4096e,VsDebugConsole.exe,8628,0,0,512,793,334,0x4096e,1,0
2024-05-05T17:47:46.785,shetinin@70,0x1,3,0x4096e,VsDebugConsole.exe,8628,0,0,512,798,334,0x4096e,1,0
2024-05-05T17:47:46.789,shetinin@70,0x1,3,0x4096e,VsDebugConsole.exe,8628,0,0,512,804,333,0x4096e,1,0
2024-05-05T17:47:46.797,shetinin@70,0x1,3,0x4096e,VsDebugConsole.exe,8628,0,0,512,809,332,0x4096e,1,0
2024-05-05T17:47:46.805,shetinin@70,0x1,3,0x4096e,VsDebugConsole.exe,8628,0,0,512,815,331,0x4096e,1,0
2024-05-05T17:47:46.814,shetinin@70,0x1,3,0x4096e,VsDebugConsole.exe,8628,0,0,512,820,331,0x4096e,1,0
2024-05-05T17:47:46.818,shetinin@70,0x1,3,0x4096e,VsDebugConsole.exe,8628,0,0,512,825,331,0x4096e,1,0
2024-05-05T17:47:46.825,shetinin@70,0x1,3,0x4096e,VsDebugConsole.exe,8628,0,0,512,830,331,0x4096e,1,0
2024-05-05T17:47:46.833,shetinin@70,0x1,3,0x4096e,VsDebugConsole.exe,8628,0,0,512,835,331,0x4096e,1,0
2024-05-05T17:47:46.841,shetinin@70,0x1,3,0x4096e,VsDebugConsole.exe,8628,0,0,512,841,332,0x4096e,1,0
2024-05-05T17:47:46.845,shetinin@70,0x1,3,0x4096e,VsDebugConsole.exe,8628,0,0,512,848,333,0x4096e,1,0
2024-05-05T17:47:46.854,shetinin@70,0x1,3,0x4096e,VsDebugConsole.exe,8628,0,0,512,855,334,0x4096e,1,0
2024-05-05T17:47:46.861,shetinin@70,0x1,3,0x4096e,VsDebugConsole.exe,8628,0,0,512,861,334,0x4096e,1,0
2024-05-05T17:47:46.869,shetinin@70,0x1,3,0x4096e,VsDebugConsole.exe,8628,0,0,512,867,335,0x4096e,1,0
2024-05-05T17:47:46.873,shetinin@70,0x1,3,0x4096e,VsDebugConsole.exe,8628,0,0,512,873,334,0x4096e,1,0
2024-05-05T17:47:46.882,shetinin@70,0x1,3,0x4096e,VsDebugConsole.exe,8628,0,0,512,879,334,0x4096e,1,0
2024-05-05T17:47:46.889,shetinin@70,0x1,3,0x4096e,VsDebugConsole.exe,8628,0,0,512,885,333,0x4096e,1,0
2024-05-05T17:47:46.897,shetinin@70,0x1,3,0x4096e,VsDebugConsole.exe,8628,0,0,512,891,332,0x4096e,1,0
2024-05-05T17:47:46.906,shetinin@70,0x1,3,0x4096e,VsDebugConsole.exe,8628,0,0,512,897,332,0x4096e,1,0
2024-05-05T17:47:46.909,shetinin@70,0x1,3,0x4096e,VsDebugConsole.exe,8628,0,0,512,905,332,0x4096e,1,0
2024-05-05T17:47:46.921,shetinin@70,0x1,3,0x4096e,VsDebugConsole.exe,8628,0,0,512,912,332,0x4096e,1,0
2024-05-05T17:47:46.925,shetinin@70,0x1,3,0x4096e,VsDebugConsole.exe,8628,0,0,512,920,332,0x4096e,1,0
2024-05-05T17:47:46.929,shetinin@70,0x1,3,0x4096e,VsDebugConsole.exe,8628,0,0,512,928,332,0x4096e,1,0
2024-05-05T17:47:46.937,shetinin@70,0x1,3,0x4096e,VsDebugConsole.exe,8628,0,0,512,938,332,0x4096e,1,0
2024-05-05T17:47:46.945,shetinin@70,0x1,3,0x4096e,VsDebugConsole.exe,8628,0,0,512,947,332,0x4096e,1,0
2024-05-05T17:47:46.954,shetinin@70,0x1,3,0x4096e,VsDebugConsole.exe,8628,0,0,512,958,332,0x4096e,1,0
2024-05-05T17:47:46.961,shetinin@70,0x1,3,0x4096e,VsDebugConsole.exe,8628,0,0,512,969,333,0x4096e,1,0
2024-05-05T17:47:46.966,shetinin@70,0x1,3,0x4096e,VsDebugConsole.exe,8628,0,0,512,980,332,0x4096e,1,0
2024-05-05T17:47:46.973,shetinin@70,0x1,3,0x4096e,VsDebugConsole.exe,8628,0,0,512,990,331,0x4096e,1,0
2024-05-05T17:47:46.981,shetinin@70,0x1,3,0x4096e,VsDebugConsole.exe,8628,0,0,512,1001,330,0x4096e,1,0
2024-05-05T17:47:46.990,shetinin@70,0x1,3,0x4096e,VsDebugConsole.exe,8628,0,0,512,1010,330,0x4096e,1,0
2024-05-05T17:47:46.994,shetinin@70,0x1,3,0x4096e,VsDebugConsole.exe,8628,0,0,512,1018,329,0x4096e,1,0
2024-05-05T17:47:47.002,shetinin@70,0x1,3,0x4096e,VsDebugConsole.exe,8628,0,0,512,1026,329,0x4096e,1,0
2024-05-05T17:47:47.009,shetinin@70,0x1,3,0x4096e,VsDebugConsole.exe,8628,0,0,512,1033,329,0x4096e,1,0
2024-05-05T17:47:47.017,shetinin@70,0x1,3,0x4096e,VsDebugConsole.exe,8628,0,0,512,1039,329,0x4096e,1,0
2024-05-05T17:47:47.021,shetinin@70,0x1,3,0x4096e,VsDebugConsole.exe,8628,0,0,512,1044,329,0x4096e,1,0
2024-05-05T17:47:47.029,shetinin@70,0x1,3,0x4096e,VsDebugConsole.exe,8628,0,0,512,1049,329,0x4096e,1,0
2024-05-05T17:47:47.038,shetinin@70,0x1,3,0x4096e,VsDebugConsole.exe,8628,0,0,512,1053,329,0x4096e,1,0
2024-05-05T17:47:47.045,shetinin@70,0x1,3,0x4096e,VsDebugConsole.exe,8628,0,0,512,1055,329,0x4096e,1,0
2024-05-05T17:47:47.049,shetinin@70,0x1,3,0x4096e,VsDebugConsole.exe,8628,0,0,512,1058,329,0x4096e,1,0
2024-05-05T17:47:47.065,shetinin@70,0x1,3,0x4096e,VsDebugConsole.exe,8628,0,0,512,1060,329,0x4096e,1,0
2024-05-05T17:47:47.069,shetinin@70,0x1,3,0x4096e,VsDebugConsole.exe,8628,0,0,512,1062,329,0x4096e,1,0
2024-05-05T17:47:47.073,shetinin@70,0x1,3,0x4096e,VsDebugConsole.exe,8628,0,0,512,1063,329,0x4096e,1,0
2024-05-05T17:47:47.077,shetinin@70,0x1,3,0x4096e,VsDebugConsole.exe,8628,0,0,512,1064,329,0x4096e,1,0
2024-05-05T17:47:47.085,shetinin@70,0x1,3,0x4096e,VsDebugConsole.exe,8628,0,0,512,1066,329,0x4096e,1,0
2024-05-05T17:47:47.094,shetinin@70,0x1,3,0x4096e,VsDebugConsole.exe,8628,0,0,512,1067,329,0x4096e,1,0
2024-05-05T17:47:47.102,shetinin@70,0x1,3,0x4096e,VsDebugConsole.exe,8628,0,0,512,1068,329,0x4096e,1,0
2024-05-05T17:47:47.114,shetinin@70,0x1,3,0x4096e,VsDebugConsole.exe,8628,0,0,512,1069,330,0x4096e,1,0
2024-05-05T17:47:47.114,shetinin@70,0x1,3,0x4096e,VsDebugConsole.exe,8628,0,0,512,1070,330,0x4096e,1,0
2024-05-05T17:47:47.121,shetinin@70,0x1,3,0x4096e,VsDebugConsole.exe,8628,0,0,512,1071,330,0x4096e,1,0
2024-05-05T17:47:47.129,shetinin@70,0x1,3,0x4096e,VsDebugConsole.exe,8628,0,0,512,1072,330,0x4096e,1,0
2024-05-05T17:47:47.137,shetinin@70,0x1,3,0x4096e,VsDebugConsole.exe,8628,0,0,512,1073,330,0x4096e,1,0
2024-05-05T17:47:47.141,shetinin@70,0x1,3,0x4096e,VsDebugConsole.exe,8628,0,0,512,1074,329,0x4096e,1,0
2024-05-05T17:47:47.149,shetinin@70,0x1,3,0x4096e,VsDebugConsole.exe,8628,0,0,512,1076,329,0x4096e,1,0
2024-05-05T17:47:47.157,shetinin@70,0x1,3,0x4096e,VsDebugConsole.exe,8628,0,0,512,1077,329,0x4096e,1,0
2024-05-05T17:47:47.165,shetinin@70,0x1,3,0x4096e,VsDebugConsole.exe,8628,0,0,512,1078,329,0x4096e,1,0
2024-05-05T17:47:47.173,shetinin@70,0x1,3,0x4096e,VsDebugConsole.exe,8628,0,0,160,1079,329,0x4096e,7,0
2024-05-05T17:47:47.177,shetinin@70,0x1,3,0x4096e,VsDebugConsole.exe,8628,0,0,160,1081,329,0x4096e,7,0
2024-05-05T17:47:47.185,shetinin@70,0x1,3,0x4096e,VsDebugConsole.exe,8628,0,0,160,1083,329,0x4096e,7,0
2024-05-05T17:47:47.194,shetinin@70,0x1,3,0x4096e,VsDebugConsole.exe,8628,0,0,160,1085,329,0x4096e,7,0
2024-05-05T17:47:47.197,shetinin@70,0x1,3,0x4096e,VsDebugConsole.exe,8628,0,0,160,1087,328,0x4096e,7,0
2024-05-05T17:47:47.205,shetinin@70,0x1,3,0x4096e,VsDebugConsole.exe,8628,0,0,160,1089,328,0x4096e,7,0
2024-05-05T17:47:47.213,shetinin@70,0x1,3,0x4096e,VsDebugConsole.exe,8628,0,0,160,1090,328,0x4096e,7,0
2024-05-05T17:47:47.221,shetinin@70,0x1,3,0x4096e,VsDebugConsole.exe,8628,0,0,160,1091,328,0x4096e,7,0
2024-05-05T17:47:47.233,shetinin@70,0x1,3,0x4096e,VsDebugConsole.exe,8628,0,0,160,1093,328,0x4096e,7,0
2024-05-05T17:47:47.278,shetinin@70,0x1,3,0x4096e,VsDebugConsole.exe,8628,0,0,160,1094,328,0x4096e,7,0
2024-05-05T17:47:47.305,shetinin@70,0x1,3,0x4096e,VsDebugConsole.exe,8628,0,0,160,1095,328,0x4096e,7,0
2024-05-05T17:47:47.317,shetinin@70,0x1,3,0x4096e,VsDebugConsole.exe,8628,0,0,160,1096,329,0x4096e,11,0
2024-05-05T17:47:47.325,shetinin@70,0x1,3,0x4096e,VsDebugConsole.exe,8628,0,0,160,1097,329,0x4096e,11,0
2024-05-05T17:47:47.354,shetinin@70,0x1,3,0x4096e,VsDebugConsole.exe,8628,0,0,160,1098,329,0x4096e,11,0
2024-05-05T17:47:47.566,shetinin@70,0x1,3,0x4096e,VsDebugConsole.exe,8628,0,0,161,1098,329,0x4096e,11,0
2024-05-05T17:47:47.566,shetinin@70,0x1,3,0x4096e,VsDebugConsole.exe,8628,0,0,512,1098,329,0x4096e,1,0
2024-05-05T17:47:47.673,shetinin@70,0x1,3,0x4096e,VsDebugConsole.exe,8628,0,0,512,1103,329,0x4096e,1,0
2024-05-05T17:47:47.677,shetinin@70,0x1,3,0x4096e,VsDebugConsole.exe,8628,0,0,512,1109,329,0x4096e,1,0
2024-05-05T17:47:47.686,shetinin@70,0x1,3,0x4096e,VsDebugConsole.exe,8628,0,0,512,1117,328,0x4096e,1,0
2024-05-05T17:47:47.694,shetinin@70,0x1,3,0x4096e,VsDebugConsole.exe,8628,0,0,512,1125,328,0x4096e,1,0
2024-05-05T17:47:47.701,shetinin@70,0x1,3,0x4096e,VsDebugConsole.exe,8628,0,0,512,1134,328,0x4096e,1,0
2024-05-05T17:47:47.709,shetinin@70,0x1,3,0x4096e,VsDebugConsole.exe,8628,0,0,512,1143,328,0x4096e,1,0
2024-05-05T17:47:47.717,shetinin@70,0x1,3,0x4096e,VsDebugConsole.exe,8628,0,0,512,1152,328,0x4096e,1,0
2024-05-05T17:47:47.721,shetinin@70,0x1,3,0x4096e,VsDebugConsole.exe,8628,0,0,512,1160,328,0x4096e,1,0
2024-05-05T17:47:47.742,shetinin@70,0x1,3,0x4096e,VsDebugConsole.exe,8628,0,0,512,1174,329,0x4096e,1,0
2024-05-05T17:47:47.742,shetinin@70,0x1,3,0x4096e,VsDebugConsole.exe,8628,0,0,512,1180,329,0x4096e,1,0
2024-05-05T17:47:47.749,shetinin@70,0x1,3,0x4096e,VsDebugConsole.exe,8628,0,0,512,1185,329,0x4096e,1,0
2024-05-05T17:47:47.757,shetinin@70,0x1,3,0x4096e,VsDebugConsole.exe,8628,0,0,512,1189,329,0x4096e,1,0
2024-05-05T17:47:47.762,shetinin@70,0x1,3,0x4096e,VsDebugConsole.exe,8628,0,0,512,1192,329,0x4096e,1,0
2024-05-05T17:47:47.769,shetinin@70,0x1,3,0x4096e,VsDebugConsole.exe,8628,0,0,512,1195,329,0x4096e,1,0
2024-05-05T17:47:47.777,shetinin@70,0x1,3,0x4096e,VsDebugConsole.exe,8628,0,0,512,1196,329,0x4096e,1,0
2024-05-05T17:47:47.785,shetinin@70,0x1,3,0x4096e,VsDebugConsole.exe,8628,0,0,512,1198,330,0x4096e,1,0
2024-05-05T17:47:47.793,shetinin@70,0x1,3,0x4096e,VsDebugConsole.exe,8628,0,0,512,1199,330,0x4096e,1,0
2024-05-05T17:47:47.798,shetinin@70,0x1,3,0x4096e,VsDebugConsole.exe,8628,0,0,512,1200,330,0x4096e,1,0
2024-05-05T17:47:47.818,shetinin@70,0x1,3,0x4096e,VsDebugConsole.exe,8628,0,0,512,1201,330,0x4096e,1,0
2024-05-05T17:47:47.833,shetinin@70,0x1,3,0x4096e,VsDebugConsole.exe,8628,0,0,514,1201,330,0x4096e,1,0
2024-05-05T17:47:47.837,shetinin@70,0x1,3,0x4096e,VsDebugConsole.exe,8628,0,0,160,1201,330,0x4096e,11,0
2024-05-05T17:47:47.917,shetinin@70,0x1,3,0x4096e,VsDebugConsole.exe,8628,0,0,160,1202,330,0x4096e,11,0
2024-05-05T17:47:48.341,shetinin@70,0x1,3,0x4096e,VsDebugConsole.exe,8628,0,0,161,1202,330,0x4096e,11,0
2024-05-05T17:47:48.341,shetinin@70,0x1,3,0x4096e,VsDebugConsole.exe,8628,0,0,512,1202,330,0x4096e,1,0
2024-05-05T17:47:48.461,shetinin@70,0x1,3,0x4096e,VsDebugConsole.exe,8628,0,0,512,1204,330,0x4096e,1,0
2024-05-05T17:47:48.469,shetinin@70,0x1,3,0x4096e,VsDebugConsole.exe,8628,0,0,512,1208,330,0x4096e,1,0
2024-05-05T17:47:48.477,shetinin@70,0x1,3,0x4096e,VsDebugConsole.exe,8628,0,0,512,1212,330,0x4096e,1,0
2024-05-05T17:47:48.485,shetinin@70,0x1,3,0x4096e,VsDebugConsole.exe,8628,0,0,512,1216,330,0x4096e,1,0
2024-05-05T17:47:48.489,shetinin@70,0x1,3,0x4096e,VsDebugConsole.exe,8628,0,0,512,1220,330,0x4096e,1,0
2024-05-05T17:47:48.497,shetinin@70,0x1,3,0x4096e,VsDebugConsole.exe,8628,0,0,512,1224,329,0x4096e,1,0
2024-05-05T17:47:48.501,shetinin@70,0x1,3,0x4096e,VsDebugConsole.exe,8628,0,0,512,1228,330,0x4096e,1,0
2024-05-05T17:47:48.517,shetinin@70,0x1,3,0x4096e,VsDebugConsole.exe,8628,0,0,512,1235,333,0x4096e,1,0
2024-05-05T17:47:48.525,shetinin@70,0x1,3,0x4096e,VsDebugConsole.exe,8628,0,0,512,1237,334,0x4096e,1,0
2024-05-05T17:47:48.530,shetinin@70,0x1,3,0x4096e,VsDebugConsole.exe,8628,0,0,512,1239,335,0x4096e,1,0
2024-05-05T17:47:48.537,shetinin@70,0x1,3,0x4096e,VsDebugConsole.exe,8628,0,0,512,1241,336,0x4096e,1,0
2024-05-05T17:47:48.549,shetinin@70,0x1,3,0x4096e,VsDebugConsole.exe,8628,0,0,512,1243,336,0x4096e,1,0
2024-05-05T17:47:48.557,shetinin@70,0x1,3,0x4096e,VsDebugConsole.exe,8628,0,0,512,1245,337,0x4096e,1,0
2024-05-05T17:47:48.557,shetinin@70,0x1,3,0x4096e,VsDebugConsole.exe,8628,0,0,512,1247,338,0x4096e,1,0
2024-05-05T17:47:48.565,shetinin@70,0x1,3,0x4096e,VsDebugConsole.exe,8628,0,0,512,1249,338,0x4096e,1,0
2024-05-05T17:47:48.573,shetinin@70,0x1,3,0x4096e,VsDebugConsole.exe,8628,0,0,512,1250,338,0x4096e,1,0
2024-05-05T17:47:48.581,shetinin@70,0x1,3,0x4096e,VsDebugConsole.exe,8628,0,0,512,1252,339,0x4096e,1,0
2024-05-05T17:47:48.585,shetinin@70,0x1,3,0x4096e,VsDebugConsole.exe,8628,0,0,512,1254,339,0x4096e,1,0
2024-05-05T17:47:48.609,shetinin@70,0x1,3,0x4096e,VsDebugConsole.exe,8628,0,0,512,1258,337,0x4096e,1,0
2024-05-05T17:47:48.617,shetinin@70,0x1,3,0x4096e,VsDebugConsole.exe,8628,0,0,512,1261,336,0x4096e,1,0
2024-05-05T17:47:48.633,shetinin@70,0x1,3,0x4096e,VsDebugConsole.exe,8628,0,0,512,1262,336,0x4096e,1,0
2024-05-05T17:47:48.641,shetinin@70,0x1,3,0x4096e,VsDebugConsole.exe,8628,0,0,512,1263,336,0x4096e,1,0
2024-05-05T17:47:48.681,shetinin@70,0x1,3,0x4096e,VsDebugConsole.exe,8628,0,0,514,1263,336,0x4096e,1,0
2024-05-05T17:47:48.685,shetinin@70,0x1,3,0x4096e,VsDebugConsole.exe,8628,0,0,160,1264,336,0x4096e,11,0
2024-05-05T17:47:48.685,shetinin@70,0x1,3,0x4096e,VsDebugConsole.exe,8628,0,0,160,1264,336,0x4096e,11,0
2024-05-05T17:47:48.858,shetinin@70,0x1,3,0x4096e,VsDebugConsole.exe,8628,0,0,160,1264,337,0x4096e,11,0
2024-05-05T17:47:48.862,shetinin@70,0x1,3,0x4096e,VsDebugConsole.exe,8628,0,0,160,1265,337,0x4096e,11,0
2024-05-05T17:47:49.629,shetinin@70,0x1,3,0x4096e,VsDebugConsole.exe,8628,0,0,160,1266,336,0x4096e,11,0
2024-05-05T17:47:49.637,shetinin@70,0x1,3,0x4096e,chrome.exe,1672,0,0,512,1268,335,0xa0804,1,0
2024-05-05T17:47:49.645,shetinin@70,0x1,3,0x4096e,chrome.exe,1672,0,0,512,1270,334,0xa0804,1,0
2024-05-05T17:47:49.653,shetinin@70,0x1,3,0x4096e,chrome.exe,1672,0,0,512,1271,333,0xa0804,1,0
2024-05-05T17:47:49.657,shetinin@70,0x1,3,0x4096e,chrome.exe,1672,0,0,512,1273,333,0xa0804,1,0
2024-05-05T17:47:49.665,shetinin@70,0x1,3,0x4096e,chrome.exe,1672,0,0,512,1274,333,0xa0804,1,0
2024-05-05T17:47:49.674,shetinin@70,0x1,3,0,chrome.exe,1672,0,0,513,1274,333,0xa0804,1,0
2024-05-05T17:47:49.675,shetinin@70,0x1,3,0x3033e,chrome.exe,1672,0,0,512,1274,333,0x3033e,1,0
2024-05-05T17:47:50.093,shetinin@70,0x1,3,0x3033e,chrome.exe,1672,0,0,514,1274,333,0x3033e,1,0
2024-05-05T17:47:50.093,shetinin@70,0x1,3,0x3033e,chrome.exe,1672,0,0,512,1274,333,0xa0804,1,0
2024-05-05T17:47:50.429,shetinin@70,0x1,3,0x3033e,chrome.exe,1672,0,0,512,1255,334,0xa0804,1,0
2024-05-05T17:47:50.434,shetinin@70,0x1,3,0x3033e,chrome.exe,1672,0,0,512,1208,337,0xa0804,1,0
2024-05-05T17:47:50.442,shetinin@70,0x1,3,0x3033e,chrome.exe,1672,0,0,512,1141,341,0xa0804,1,0
2024-05-05T17:47:50.449,shetinin@70,0x1,3,0x3033e,chrome.exe,1672,0,0,512,1086,343,0xa0804,1,0
2024-05-05T17:47:50.453,shetinin@70,0x1,3,0x3033e,chrome.exe,1672,0,0,512,1053,344,0xa0804,1,0
2024-05-05T17:47:50.465,shetinin@70,0x1,3,0x3033e,chrome.exe,1672,0,0,512,1032,343,0xa0804,1,0
2024-05-05T17:47:50.469,shetinin@70,0x1,3,0x3033e,chrome.exe,1672,0,0,512,1015,343,0xa0804,1,0
2024-05-05T17:47:50.477,shetinin@70,0x1,3,0x3033e,chrome.exe,1672,0,0,512,1002,342,0xa0804,1,0
2024-05-05T17:47:50.486,shetinin@70,0x1,3,0x3033e,chrome.exe,1672,0,0,512,989,340,0xa0804,1,0
2024-05-05T17:47:50.489,shetinin@70,0x1,3,0x3033e,chrome.exe,1672,0,0,512,977,340,0xa0804,1,0
2024-05-05T17:47:50.497,shetinin@70,0x1,3,0x3033e,chrome.exe,1672,0,0,512,966,338,0xa0804,1,0
2024-05-05T17:47:50.505,shetinin@70,0x1,3,0x3033e,chrome.exe,1672,0,0,512,955,336,0xa0804,1,0
2024-05-05T17:47:50.513,shetinin@70,0x1,3,0x3033e,chrome.exe,1672,0,0,512,946,333,0xa0804,1,0
2024-05-05T17:47:50.517,shetinin@70,0x1,3,0x3033e,chrome.exe,1672,0,0,512,938,332,0xa0804,1,0
2024-05-05T17:47:50.525,shetinin@70,0x1,3,0x3033e,chrome.exe,1672,0,0,512,932,331,0xa0804,1,0
2024-05-05T17:47:50.533,shetinin@70,0x1,3,0x3033e,chrome.exe,1672,0,0,512,927,331,0xa0804,1,0
2024-05-05T17:47:50.541,shetinin@70,0x1,3,0x3033e,chrome.exe,1672,0,0,512,924,331,0xa0804,1,0
2024-05-05T17:47:50.545,shetinin@70,0x1,3,0x3033e,chrome.exe,1672,0,0,512,919,333,0xa0804,1,0
2024-05-05T17:47:50.553,shetinin@70,0x1,3,0x3033e,chrome.exe,1672,0,0,512,915,334,0xa0804,1,0
2024-05-05T17:47:50.565,shetinin@70,0x1,3,0x3033e,chrome.exe,1672,0,0,512,910,337,0xa0804,1,0
2024-05-05T17:47:51.072,shetinin@70,0x1,3,0x3033e,chrome.exe,1672,0,0,512,910,337,0xa0804,1,0
2024-05-05T17:47:51.082,shetinin@70,0x1,3,0x3033e,chrome.exe,1672,0,0,512,932,540,0xa0804,1,0
2024-05-05T17:47:51.082,shetinin@70,0x1,3,0x3033e,chrome.exe,1672,0,0,512,932,540,0xa0804,1,0
2024-05-05T17:47:51.093,shetinin@70,0x1,3,0x3033e,chrome.exe,1672,0,0,512,928,545,0xa0804,1,0
2024-05-05T17:47:51.309,shetinin@70,0x1,3,0x3033e,chrome.exe,1672,0,0,512,935,541,0xa0804,1,0
2024-05-05T17:47:51.325,shetinin@70,0x1,3,0x3033e,chrome.exe,1672,0,0,512,949,533,0xa0804,1,0
2024-05-05T17:47:51.341,shetinin@70,0x1,3,0x3033e,chrome.exe,1672,0,0,512,966,522,0xa0804,1,0
2024-05-05T17:47:51.361,shetinin@70,0x1,3,0x3033e,chrome.exe,1672,0,0,512,993,506,0xa0804,1,0
2024-05-05T17:47:51.377,shetinin@70,0x1,3,0x3033e,chrome.exe,1672,0,0,512,1008,500,0xa0804,1,0
2024-05-05T17:47:51.393,shetinin@70,0x1,3,0x3033e,chrome.exe,1672,0,0,512,1021,495,0xa0804,1,0
2024-05-05T17:47:51.409,shetinin@70,0x1,3,0x3033e,chrome.exe,1672,0,0,512,1044,488,0xa0804,1,0
2024-05-05T17:47:51.425,shetinin@70,0x1,3,0x3033e,chrome.exe,1672,0,0,512,1062,483,0xa0804,1,0
2024-05-05T17:47:51.429,shetinin@70,0x1,3,0x3033e,chrome.exe,1672,0,0,512,1071,480,0xa0804,1,0
2024-05-05T17:47:51.433,shetinin@70,0x1,3,0x3033e,chrome.exe,1672,0,0,512,1079,478,0xa0804,1,0
2024-05-05T17:47:51.441,shetinin@70,0x1,3,0x3033e,chrome.exe,1672,0,0,512,1087,475,0xa0804,1,0
2024-05-05T17:47:51.449,shetinin@70,0x1,3,0x3033e,chrome.exe,1672,0,0,512,1094,473,0xa0804,1,0
2024-05-05T17:47:51.457,shetinin@70,0x1,3,0x3033e,chrome.exe,1672,0,0,512,1102,471,0xa0804,1,0
2024-05-05T17:47:51.465,shetinin@70,0x1,3,0x3033e,chrome.exe,1672,0,0,512,1108,468,0xa0804,1,0
2024-05-05T17:47:51.469,shetinin@70,0x1,3,0x3033e,chrome.exe,1672,0,0,512,1113,466,0xa0804,1,0
2024-05-05T17:47:51.477,shetinin@70,0x1,3,0x3033e,chrome.exe,1672,0,0,512,1118,464,0xa0804,1,0
2024-05-05T17:47:51.485,shetinin@70,0x1,3,0x3033e,chrome.exe,1672,0,0,512,1121,463,0xa0804,1,0
2024-05-05T17:47:51.489,shetinin@70,0x1,3,0x3033e,chrome.exe,1672,0,0,512,1122,461,0xa0804,1,0
2024-05-05T17:47:51.497,shetinin@70,0x1,3,0x3033e,chrome.exe,1672,0,0,512,1124,460,0xa0804,1,0
2024-05-05T17:47:51.550,shetinin@70,0x1,3,0x3033e,chrome.exe,1672,0,0,512,1122,461,0xa0804,1,0
2024-05-05T17:47:51.554,shetinin@70,0x1,3,0x3033e,chrome.exe,1672,0,0,512,1120,463,0xa0804,1,0
2024-05-05T17:47:51.562,shetinin@70,0x1,3,0x3033e,chrome.exe,1672,0,0,512,1114,467,0xa0804,1,0
2024-05-05T17:47:51.570,shetinin@70,0x1,3,0x3033e,chrome.exe,1672,0,0,512,1104,472,0xa0804,1,0
2024-05-05T17:47:51.577,shetinin@70,0x1,3,0x3033e,chrome.exe,1672,0,0,512,1089,481,0xa0804,1,0
2024-05-05T17:47:51.581,shetinin@70,0x1,3,0x3033e,chrome.exe,1672,0,0,512,1067,493,0xa0804,1,0
2024-05-05T17:47:51.589,shetinin@70,0x1,3,0x3033e,chrome.exe,1672,0,0,512,1037,509,0xa0804,1,0
2024-05-05T17:47:51.597,shetinin@70,0x1,3,0x3033e,chrome.exe,1672,0,0,512,1000,528,0xa0804,1,0
2024-05-05T17:47:51.605,shetinin@70,0x1,3,0x3033e,chrome.exe,1672,0,0,512,957,551,0xa0804,1,0
2024-05-05T17:47:51.609,shetinin@70,0x1,3,0x3033e,chrome.exe,1672,0,0,512,910,574,0xa0804,1,0
2024-05-05T17:47:51.617,shetinin@70,0x1,3,0x3033e,chrome.exe,1672,0,0,512,862,598,0xa0804,1,0
2024-05-05T17:47:51.625,shetinin@70,0x1,3,0x3033e,chrome.exe,1672,0,0,512,803,627,0xa0804,1,0
2024-05-05T17:47:51.633,shetinin@70,0x1,3,0x3033e,chrome.exe,1672,0,0,512,735,666,0xa0804,1,0
2024-05-05T17:47:51.637,shetinin@70,0x1,3,0x3033e,chrome.exe,1672,0,0,512,669,711,0xa0804,1,0
2024-05-05T17:47:51.645,shetinin@70,0x1,3,0x3033e,chrome.exe,1672,0,0,512,626,750,0xa0804,1,0
2024-05-05T17:47:51.653,shetinin@70,0x1,3,0x3033e,explorer.exe,6940,0,0,512,602,775,0x20024,1,0
2024-05-05T17:47:51.657,shetinin@70,0x1,3,0x3033e,explorer.exe,6940,0,0,512,587,791,0x20024,1,0
2024-05-05T17:47:51.801,shetinin@70,0x1,3,0x3033e,explorer.exe,6940,0,0,512,546,796,0x20024,1,0
2024-05-05T17:47:51.817,shetinin@70,0x1,3,0x3033e,explorer.exe,6940,0,0,512,545,795,0x20024,1,0
2024-05-05T17:47:51.830,shetinin@70,0x1,3,0x3033e,explorer.exe,6940,0,0,512,544,794,0x20024,1,0
2024-05-05T17:47:51.837,shetinin@70,0x1,3,0x3033e,explorer.exe,6940,0,0,512,543,793,0x20024,1,0
2024-05-05T17:47:51.845,shetinin@70,0x1,3,0x3033e,explorer.exe,6940,0,0,512,543,792,0x20024,1,0
2024-05-05T17:47:51.850,shetinin@70,0x1,3,0x3033e,explorer.exe,6940,0,0,512,542,792,0x20024,1,0
2024-05-05T17:47:51.857,shetinin@70,0x1,3,0x3033e,explorer.exe,6940,0,0,512,542,791,0x20024,1,0
2024-05-05T17:47:51.865,shetinin@70,0x1,3,0x3033e,explorer.exe,6940,0,0,512,541,791,0x20024,1,0
2024-05-05T17:47:51.877,shetinin@70,0x1,3,0x3033e,explorer.exe,6940,0,0,512,541,790,0x20024,1,0
2024-05-05T17:47:51.905,shetinin@70,0x1,3,0x3033e,explorer.exe,6940,0,0,512,541,789,0x20024,1,0
2024-05-05T17:47:51.913,shetinin@70,0x1,3,0x3033e,explorer.exe,6940,0,0,512,540,789,0x20024,1,0
2024-05-05T17:47:51.949,shetinin@70,0x1,3,0x3033e,explorer.exe,6940,0,0,512,540,788,0x20024,1,0
2024-05-05T17:47:51.965,shetinin@70,0x1,3,0x3033e,explorer.exe,6940,0,0,512,540,787,0x20024,1,0
2024-05-05T17:47:51.969,shetinin@70,0x1,3,0x3033e,explorer.exe,6940,0,0,512,539,787,0x20024,1,0
2024-05-05T17:47:51.985,shetinin@70,0x1,3,0x3033e,explorer.exe,6940,0,0,512,539,785,0x20024,1,0
2024-05-05T17:47:51.994,shetinin@70,0x1,3,0x3033e,explorer.exe,6940,0,0,512,538,784,0x100da,1,0
2024-05-05T17:47:51.997,shetinin@70,0x1,3,0x3033e,explorer.exe,6940,0,0,512,537,782,0x100da,1,0
2024-05-05T17:47:52.005,shetinin@70,0x1,3,0x3033e,explorer.exe,6940,0,0,512,536,779,0x100da,1,0
2024-05-05T17:47:52.013,shetinin@70,0x1,3,0x3033e,explorer.exe,6940,0,0,512,536,776,0x100da,1,0
2024-05-05T17:47:52.016,shetinin@70,0x1,3,0x3033e,explorer.exe,6940,0,0,512,535,774,0x100da,1,0
2024-05-05T17:47:52.026,shetinin@70,0x1,3,0x3033e,explorer.exe,6940,0,0,512,534,773,0x100da,1,0
2024-05-05T17:47:52.033,shetinin@70,0x1,3,0x3033e,explorer.exe,6940,0,0,512,533,771,0x100da,1,0
2024-05-05T17:47:52.041,shetinin@70,0x1,3,0x3033e,explorer.exe,6940,0,0,512,532,770,0x100da,1,0
2024-05-05T17:47:52.053,shetinin@70,0x1,3,0x3033e,explorer.exe,6940,0,0,512,531,769,0x100da,1,0
2024-05-05T17:47:52.057,shetinin@70,0x1,3,0x3033e,explorer.exe,6940,0,0,512,531,768,0x100da,1,0
2024-05-05T17:47:52.061,shetinin@70,0x1,3,0x3033e,explorer.exe,6940,0,0,512,530,767,0x100da,1,0
2024-05-05T17:47:52.077,shetinin@70,0x1,3,0x3033e,explorer.exe,6940,0,0,512,529,767,0x100da,1,0
2024-05-05T17:47:52.081,shetinin@70,0x1,3,0x3033e,explorer.exe,6940,0,0,512,529,766,0x100da,1,0
2024-05-05T17:47:52.097,shetinin@70,0x1,3,0x3033e,explorer.exe,6940,0,0,512,528,766,0x100da,1,0
2024-05-05T17:47:52.141,shetinin@70,0x1,3,0,explorer.exe,6940,0,0,513,528,766,0x100da,1,0
2024-05-05T17:47:52.253,shetinin@70,0x1,3,0,explorer.exe,6940,0,0,514,528,766,0x100da,1,0
2024-05-05T17:47:52.254,shetinin@70,0x1,3,0x4096e,explorer.exe,6940,0,0,512,528,766,0x100da,1,0
2024-05-05T17:47:52.378,shetinin@70,0x1,3,0x4096e,explorer.exe,6940,0,0,512,528,767,0x100da,1,0
2024-05-05T17:47:52.389,shetinin@70,0x1,3,0x4096e,explorer.exe,6940,0,0,512,526,768,0x100da,1,0
2024-05-05T17:47:52.393,shetinin@70,0x1,3,0x4096e,explorer.exe,6940,0,0,512,524,769,0x100da,1,0
2024-05-05T17:47:52.401,shetinin@70,0x1,3,0x4096e,explorer.exe,6940,0,0,512,523,770,0x100da,1,0
2024-05-05T17:47:52.405,shetinin@70,0x1,3,0x4096e,explorer.exe,6940,0,0,512,521,771,0x100da,1,0
2024-05-05T17:47:52.413,shetinin@70,0x1,3,0x4096e,explorer.exe,6940,0,0,512,520,772,0x100da,1,0
2024-05-05T17:47:52.421,shetinin@70,0x1,3,0x4096e,explorer.exe,6940,0,0,512,519,772,0x100da,1,0
2024-05-05T17:47:52.437,shetinin@70,0x1,3,0x4096e,explorer.exe,6940,0,0,512,518,773,0x100da,1,0
2024-05-05T17:47:52.457,shetinin@70,0x1,3,0x4096e,explorer.exe,6940,0,0,512,517,773,0x100da,1,0
2024-05-05T17:47:52.493,shetinin@70,0x1,3,0x4096e,explorer.exe,6940,0,0,512,516,773,0x100da,1,0
2024-05-05T17:47:52.522,shetinin@70,0x1,3,0x4096e,explorer.exe,6940,0,0,512,515,774,0x100da,1,0
2024-05-05T17:47:52.578,shetinin@70,0x1,3,0x4096e,explorer.exe,6940,0,0,512,516,771,0x100da,1,0
2024-05-05T17:47:52.585,shetinin@70,0x1,3,0x4096e,explorer.exe,6940,0,0,512,519,768,0x100da,1,0
2024-05-05T17:47:52.589,shetinin@70,0x1,3,0x4096e,explorer.exe,6940,0,0,512,523,764,0x100da,1,0
2024-05-05T17:47:52.597,shetinin@70,0x1,3,0x4096e,explorer.exe,6940,0,0,512,530,758,0x100da,1,0
2024-05-05T17:47:52.606,shetinin@70,0x1,3,0x4096e,chrome.exe,1672,0,0,512,541,750,0xa0804,1,0
2024-05-05T17:47:52.609,shetinin@70,0x1,3,0x4096e,chrome.exe,1672,0,0,512,557,739,0xa0804,1,0
2024-05-05T17:47:52.621,shetinin@70,0x1,3,0x4096e,chrome.exe,1672,0,0,512,583,726,0xa0804,1,0
2024-05-05T17:47:52.625,shetinin@70,0x1,3,0x4096e,chrome.exe,1672,0,0,512,620,707,0xa0804,1,0
2024-05-05T17:47:52.633,shetinin@70,0x1,3,0x4096e,chrome.exe,1672,0,0,512,669,682,0xa0804,1,0
2024-05-05T17:47:52.641,shetinin@70,0x1,3,0x4096e,VsDebugConsole.exe,8628,0,0,512,716,655,0x4096e,1,0
2024-05-05T17:47:52.645,shetinin@70,0x1,3,0x4096e,VsDebugConsole.exe,8628,0,0,512,762,625,0x4096e,1,0
2024-05-05T17:47:52.653,shetinin@70,0x1,3,0x4096e,VsDebugConsole.exe,8628,0,0,512,806,598,0x4096e,1,0
2024-05-05T17:47:52.669,shetinin@70,0x1,3,0x4096e,VsDebugConsole.exe,8628,0,0,512,848,572,0x4096e,1,0
2024-05-05T17:47:52.677,shetinin@70,0x1,3,0x4096e,VsDebugConsole.exe,8628,0,0,512,912,538,0x4096e,1,0
2024-05-05T17:47:52.681,shetinin@70,0x1,3,0x4096e,VsDebugConsole.exe,8628,0,0,512,932,529,0x4096e,1,0
2024-05-05T17:47:52.689,shetinin@70,0x1,3,0x4096e,VsDebugConsole.exe,8628,0,0,512,945,522,0x4096e,1,0
2024-05-05T17:47:52.709,shetinin@70,0x1,3,0x4096e,VsDebugConsole.exe,8628,0,0,512,961,512,0x4096e,1,0
2024-05-05T17:47:52.709,shetinin@70,0x1,3,0x4096e,VsDebugConsole.exe,8628,0,0,512,965,509,0x4096e,1,0
2024-05-05T17:47:52.717,shetinin@70,0x1,3,0x4096e,VsDebugConsole.exe,8628,0,0,512,967,507,0x4096e,1,0
2024-05-05T17:47:52.917,shetinin@70,0x1,3,0x4096e,VsDebugConsole.exe,8628,0,0,512,977,505,0x4096e,1,0
2024-05-05T17:47:52.921,shetinin@70,0x1,3,0x4096e,VsDebugConsole.exe,8628,0,0,512,989,502,0x4096e,1,0
2024-05-05T17:47:52.928,shetinin@70,0x1,3,0x4096e,VsDebugConsole.exe,8628,0,0,512,1005,498,0x4096e,1,0
2024-05-05T17:47:52.938,shetinin@70,0x1,3,0x4096e,VsDebugConsole.exe,8628,0,0,512,1029,492,0x4096e,1,0
2024-05-05T17:47:52.941,shetinin@70,0x1,3,0x4096e,VsDebugConsole.exe,8628,0,0,512,1058,484,0x4096e,1,0
2024-05-05T17:47:52.949,shetinin@70,0x1,3,0x4096e,VsDebugConsole.exe,8628,0,0,512,1087,475,0x4096e,1,0
2024-05-05T17:47:52.956,shetinin@70,0x1,3,0x4096e,VsDebugConsole.exe,8628,0,0,512,1112,468,0x4096e,1,0
2024-05-05T17:47:52.965,shetinin@70,0x1,3,0x4096e,VsDebugConsole.exe,8628,0,0,512,1130,462,0x4096e,1,0
2024-05-05T17:47:52.970,shetinin@70,0x1,3,0x4096e,VsDebugConsole.exe,8628,0,0,512,1146,455,0x4096e,1,0
2024-05-05T17:47:52.977,shetinin@70,0x1,3,0x4096e,VsDebugConsole.exe,8628,0,0,512,1160,450,0x4096e,1,0
2024-05-05T17:47:52.985,shetinin@70,0x1,3,0x4096e,VsDebugConsole.exe,8628,0,0,512,1172,445,0x4096e,1,0
2024-05-05T17:47:52.993,shetinin@70,0x1,3,0x4096e,VsDebugConsole.exe,8628,0,0,512,1181,441,0x4096e,1,0
2024-05-05T17:47:53.001,shetinin@70,0x1,3,0x4096e,VsDebugConsole.exe,8628,0,0,512,1190,438,0x4096e,1,0
2024-05-05T17:47:53.005,shetinin@70,0x1,3,0x4096e,VsDebugConsole.exe,8628,0,0,512,1197,435,0x4096e,1,0
2024-05-05T17:47:53.013,shetinin@70,0x1,3,0x4096e,VsDebugConsole.exe,8628,0,0,512,1202,433,0x4096e,1,0
2024-05-05T17:47:53.021,shetinin@70,0x1,3,0x4096e,VsDebugConsole.exe,8628,0,0,512,1205,431,0x4096e,1,0
2024-05-05T17:47:53.029,shetinin@70,0x1,3,0x4096e,VsDebugConsole.exe,8628,0,0,512,1207,429,0x4096e,1,0
2024-05-05T17:47:53.033,shetinin@70,0x1,3,0x4096e,VsDebugConsole.exe,8628,0,0,512,1208,428,0x4096e,1,0
2024-05-05T17:47:53.042,shetinin@70,0x1,3,0x4096e,VsDebugConsole.exe,8628,0,0,512,1209,428,0x4096e,1,0
2024-05-05T17:47:53.049,shetinin@70,0x1,3,0x4096e,VsDebugConsole.exe,8628,0,0,512,1210,427,0x4096e,1,0
2024-05-05T17:47:53.053,shetinin@70,0x1,3,0x4096e,VsDebugConsole.exe,8628,0,0,512,1211,426,0x4096e,1,0
2024-05-05T17:47:53.065,shetinin@70,0x1,3,0x4096e,VsDebugConsole.exe,8628,0,0,512,1212,425,0x4096e,1,0
2024-05-05T17:47:53.069,shetinin@70,0x1,3,0x4096e,VsDebugConsole.exe,8628,0,0,512,1213,425,0x4096e,1,0
2024-05-05T17:47:53.077,shetinin@70,0x1,3,0x4096e,VsDebugConsole.exe,8628,0,0,512,1213,424,0x4096e,1,0
2024-05-05T17:47:53.085,shetinin@70,0x1,3,0x4096e,VsDebugConsole.exe,8628,0,0,512,1214,424,0x4096e,1,0
2024-05-05T17:47:53.093,shetinin@70,0x1,3,0x4096e,VsDebugConsole.exe,8628,0,0,512,1215,424,0x4096e,1,0
2024-05-05T17:47:53.097,shetinin@70,0x1,3,0x4096e,VsDebugConsole.exe,8628,0,0,512,1215,423,0x4096e,1,0
2024-05-05T17:47:53.105,shetinin@70,0x1,3,0x4096e,VsDebugConsole.exe,8628,0,0,512,1216,423,0x4096e,1,0
2024-05-05T17:47:53.117,shetinin@70,0x1,3,0x4096e,VsDebugConsole.exe,8628,0,0,512,1217,423,0x4096e,1,0
2024-05-05T17:47:53.133,shetinin@70,0x1,3,0x4096e,VsDebugConsole.exe,8628,0,0,512,1218,422,0x4096e,1,0
2024-05-05T17:47:53.149,shetinin@70,0x1,3,0x4096e,VsDebugConsole.exe,8628,0,0,512,1219,421,0x4096e,1,0
2024-05-05T17:47:53.153,shetinin@70,0x1,3,0x4096e,VsDebugConsole.exe,8628,0,0,512,1220,421,0x4096e,1,0
2024-05-05T17:47:53.161,shetinin@70,0x1,3,0x4096e,VsDebugConsole.exe,8628,0,0,512,1221,420,0x4096e,1,0
2024-05-05T17:47:53.177,shetinin@70,0x1,3,0x4096e,VsDebugConsole.exe,8628,0,0,512,1222,420,0x4096e,1,0
2024-05-05T17:47:53.197,shetinin@70,0x1,3,0x4096e,VsDebugConsole.exe,8628,0,0,512,1223,420,0x4096e,1,0
2024-05-05T17:47:53.209,shetinin@70,0x1,3,0x4096e,VsDebugConsole.exe,8628,0,0,512,1223,419,0x4096e,1,0
2024-05-05T17:47:53.237,shetinin@70,0x1,3,0x4096e,VsDebugConsole.exe,8628,0,0,512,1224,419,0x4096e,1,0
2024-05-05T17:47:53.253,shetinin@70,0x1,3,0x4096e,VsDebugConsole.exe,8628,0,0,512,1224,418,0x4096e,1,0
2024-05-05T17:47:53.261,shetinin@70,0x1,3,0x4096e,VsDebugConsole.exe,8628,0,0,512,1225,418,0x4096e,1,0
2024-05-05T17:47:53.265,shetinin@70,0x1,3,0x4096e,VsDebugConsole.exe,8628,0,0,512,1226,418,0x4096e,1,0
2024-05-05T17:47:53.273,shetinin@70,0x1,3,0x4096e,VsDebugConsole.exe,8628,0,0,512,1227,417,0x4096e,1,0
2024-05-05T17:47:53.289,shetinin@70,0x1,3,0x4096e,VsDebugConsole.exe,8628,0,0,512,1228,417,0x4096e,1,0
2024-05-05T17:47:53.297,shetinin@70,0x1,3,0x4096e,VsDebugConsole.exe,8628,0,0,512,1229,417,0x4096e,1,0
2024-05-05T17:47:53.301,shetinin@70,0x1,3,0x4096e,VsDebugConsole.exe,8628,0,0,512,1230,416,0x4096e,1,0
2024-05-05T17:47:53.310,shetinin@70,0x1,3,0x4096e,VsDebugConsole.exe,8628,0,0,512,1231,416,0x4096e,1,0
2024-05-05T17:47:53.317,shetinin@70,0x1,3,0x4096e,VsDebugConsole.exe,8628,0,0,512,1232,416,0x4096e,1,0
2024-05-05T17:47:53.321,shetinin@70,0x1,3,0x4096e,VsDebugConsole.exe,8628,0,0,512,1234,416,0x4096e,1,0
2024-05-05T17:47:53.329,shetinin@70,0x1,3,0x4096e,VsDebugConsole.exe,8628,0,0,512,1235,416,0x4096e,1,0
2024-05-05T17:47:53.337,shetinin@70,0x1,3,0x4096e,VsDebugConsole.exe,8628,0,0,512,1237,416,0x4096e,1,0
2024-05-05T17:47:53.345,shetinin@70,0x1,3,0x4096e,VsDebugConsole.exe,8628,0,0,512,1239,416,0x4096e,1,0
2024-05-05T17:47:53.349,shetinin@70,0x1,3,0x4096e,VsDebugConsole.exe,8628,0,0,512,1241,417,0x4096e,1,0
2024-05-05T17:47:53.357,shetinin@70,0x1,3,0x4096e,VsDebugConsole.exe,8628,0,0,160,1243,418,0x4096e,7,0
2024-05-05T17:47:53.365,shetinin@70,0x1,3,0x4096e,VsDebugConsole.exe,8628,0,0,160,1244,419,0x4096e,7,0
2024-05-05T17:47:53.373,shetinin@70,0x1,3,0x4096e,VsDebugConsole.exe,8628,0,0,160,1246,419,0x4096e,7,0
2024-05-05T17:47:53.381,shetinin@70,0x1,3,0x4096e,VsDebugConsole.exe,8628,0,0,160,1247,420,0x4096e,7,0
2024-05-05T17:47:53.389,shetinin@70,0x1,3,0x4096e,VsDebugConsole.exe,8628,0,0,160,1249,421,0x4096e,7,0
2024-05-05T17:47:53.401,shetinin@70,0x1,3,0x4096e,VsDebugConsole.exe,8628,0,0,160,1251,421,0x4096e,7,0
2024-05-05T17:47:53.409,shetinin@70,0x1,3,0x4096e,VsDebugConsole.exe,8628,0,0,160,1252,421,0x4096e,7,0
2024-05-05T17:47:53.413,shetinin@70,0x1,3,0x4096e,VsDebugConsole.exe,8628,0,0,160,1253,420,0x4096e,7,0
2024-05-05T17:47:53.429,shetinin@70,0x1,3,0x4096e,VsDebugConsole.exe,8628,0,0,160,1254,421,0x4096e,7,0
2024-05-05T17:47:53.445,shetinin@70,0x1,3,0x4096e,VsDebugConsole.exe,8628,0,0,160,1255,421,0x4096e,7,0
2024-05-05T17:47:53.557,shetinin@70,0x1,3,0x4096e,VsDebugConsole.exe,8628,0,0,160,1256,421,0x4096e,7,0
2024-05-05T17:47:53.753,shetinin@70,0x1,3,0x4096e,VsDebugConsole.exe,8628,0,0,160,1256,422,0x4096e,7,0
2024-05-05T17:47:53.773,shetinin@70,0x1,3,0x4096e,VsDebugConsole.exe,8628,0,0,160,1257,422,0x4096e,7,0
2024-05-05T17:47:53.837,shetinin@70,0x1,3,0x4096e,VsDebugConsole.exe,8628,0,0,160,1258,422,0x4096e,7,0
2024-05-05T17:47:53.853,shetinin@70,0x1,3,0x4096e,VsDebugConsole.exe,8628,0,0,160,1258,423,0x4096e,7,0
2024-05-05T17:47:53.882,shetinin@70,0x1,3,0x4096e,VsDebugConsole.exe,8628,0,0,160,1259,423,0x4096e,7,0
2024-05-05T17:47:53.909,shetinin@70,0x1,3,0x4096e,VsDebugConsole.exe,8628,0,0,160,1260,423,0x4096e,11,0
2024-05-05T17:47:53.950,shetinin@70,0x1,3,0x4096e,VsDebugConsole.exe,8628,0,0,160,1261,423,0x4096e,11,0
2024-05-05T17:47:53.973,shetinin@70,0x1,3,0x4096e,VsDebugConsole.exe,8628,0,0,160,1262,423,0x4096e,11,0
2024-05-05T17:47:54.149,shetinin@70,0x1,3,0x4096e,VsDebugConsole.exe,8628,0,0,161,1262,423,0x4096e,11,0
2024-05-05T17:47:54.149,shetinin@70,0x1,3,0x4096e,VsDebugConsole.exe,8628,0,0,512,1262,423,0x4096e,1,0
2024-05-05T17:47:54.353,shetinin@70,0x1,3,0x4096e,VsDebugConsole.exe,8628,0,0,512,1270,423,0x4096e,1,0
2024-05-05T17:47:54.357,shetinin@70,0x1,3,0x4096e,VsDebugConsole.exe,8628,0,0,512,1283,425,0x4096e,1,0
2024-05-05T17:47:54.361,shetinin@70,0x1,3,0x4096e,VsDebugConsole.exe,8628,0,0,512,1286,425,0x4096e,1,0
2024-05-05T17:47:54.369,shetinin@70,0x1,3,0x4096e,VsDebugConsole.exe,8628,0,0,512,1289,425,0x4096e,1,0
2024-05-05T17:47:54.373,shetinin@70,0x1,3,0x4096e,VsDebugConsole.exe,8628,0,0,512,1292,425,0x4096e,1,0
2024-05-05T17:47:54.381,shetinin@70,0x1,3,0x4096e,VsDebugConsole.exe,8628,0,0,512,1294,425,0x4096e,1,0
2024-05-05T17:47:54.389,shetinin@70,0x1,3,0x4096e,VsDebugConsole.exe,8628,0,0,512,1296,425,0x4096e,1,0
2024-05-05T17:47:54.394,shetinin@70,0x1,3,0x4096e,VsDebugConsole.exe,8628,0,0,512,1298,425,0x4096e,1,0
2024-05-05T17:47:54.409,shetinin@70,0x1,3,0x4096e,VsDebugConsole.exe,8628,0,0,512,1299,426,0x4096e,1,0
2024-05-05T17:47:54.425,shetinin@70,0x1,3,0x4096e,VsDebugConsole.exe,8628,0,0,512,1302,426,0x4096e,1,0
2024-05-05T17:47:54.485,shetinin@70,0x1,3,0x4096e,VsDebugConsole.exe,8628,0,0,514,1302,426,0x4096e,1,0
2024-05-05T17:47:54.489,shetinin@70,0x1,3,0x4096e,VsDebugConsole.exe,8628,0,0,160,1302,426,0x4096e,11,0
2024-05-05T17:47:54.605,shetinin@70,0x1,3,0x4096e,VsDebugConsole.exe,8628,0,0,160,1301,425,0x4096e,11,0
2024-05-05T17:47:54.613,shetinin@70,0x1,3,0x4096e,VsDebugConsole.exe,8628,0,0,160,1299,425,0x4096e,7,0
2024-05-05T17:47:54.621,shetinin@70,0x1,3,0x4096e,VsDebugConsole.exe,8628,0,0,160,1297,424,0x4096e,7,0
2024-05-05T17:47:54.625,shetinin@70,0x1,3,0x4096e,VsDebugConsole.exe,8628,0,0,160,1296,424,0x4096e,7,0
2024-05-05T17:47:54.633,shetinin@70,0x1,3,0x4096e,VsDebugConsole.exe,8628,0,0,160,1294,424,0x4096e,7,0
2024-05-05T17:47:54.642,shetinin@70,0x1,3,0x4096e,VsDebugConsole.exe,8628,0,0,160,1292,424,0x4096e,7,0
2024-05-05T17:47:54.649,shetinin@70,0x1,3,0x4096e,VsDebugConsole.exe,8628,0,0,160,1289,424,0x4096e,7,0
2024-05-05T17:47:54.657,shetinin@70,0x1,3,0x4096e,VsDebugConsole.exe,8628,0,0,160,1285,425,0x4096e,7,0
2024-05-05T17:47:54.661,shetinin@70,0x1,3,0x4096e,VsDebugConsole.exe,8628,0,0,512,1280,426,0x4096e,1,0
2024-05-05T17:47:54.669,shetinin@70,0x1,3,0x4096e,VsDebugConsole.exe,8628,0,0,512,1273,429,0x4096e,1,0
2024-05-05T17:47:54.685,shetinin@70,0x1,3,0x4096e,VsDebugConsole.exe,8628,0,0,512,1254,438,0x4096e,1,0
2024-05-05T17:47:54.693,shetinin@70,0x1,3,0x4096e,VsDebugConsole.exe,8628,0,0,512,1244,442,0x4096e,1,0
2024-05-05T17:47:54.698,shetinin@70,0x1,3,0x4096e,VsDebugConsole.exe,8628,0,0,512,1235,447,0x4096e,1,0
2024-05-05T17:47:54.705,shetinin@70,0x1,3,0x4096e,VsDebugConsole.exe,8628,0,0,512,1227,451,0x4096e,1,0
2024-05-05T17:47:54.717,shetinin@70,0x1,3,0x4096e,VsDebugConsole.exe,8628,0,0,512,1219,455,0x4096e,1,0
2024-05-05T17:47:54.725,shetinin@70,0x1,3,0x4096e,VsDebugConsole.exe,8628,0,0,512,1212,459,0x4096e,1,0
2024-05-05T17:47:54.726,shetinin@70,0x1,3,0x4096e,VsDebugConsole.exe,8628,0,0,512,1206,462,0x4096e,1,0
2024-05-05T17:47:54.733,shetinin@70,0x1,3,0x4096e,VsDebugConsole.exe,8628,0,0,512,1200,465,0x4096e,1,0
2024-05-05T17:47:54.741,shetinin@70,0x1,3,0x4096e,VsDebugConsole.exe,8628,0,0,512,1194,468,0x4096e,1,0
2024-05-05T17:47:54.745,shetinin@70,0x1,3,0x4096e,VsDebugConsole.exe,8628,0,0,512,1189,471,0x4096e,1,0
2024-05-05T17:47:54.753,shetinin@70,0x1,3,0x4096e,VsDebugConsole.exe,8628,0,0,512,1185,473,0x4096e,1,0
2024-05-05T17:47:54.761,shetinin@70,0x1,3,0x4096e,VsDebugConsole.exe,8628,0,0,512,1180,475,0x4096e,1,0
2024-05-05T17:47:54.770,shetinin@70,0x1,3,0x4096e,VsDebugConsole.exe,8628,0,0,512,1177,477,0x4096e,1,0
2024-05-05T17:47:54.777,shetinin@70,0x1,3,0x4096e,VsDebugConsole.exe,8628,0,0,512,1174,477,0x4096e,1,0
2024-05-05T17:47:54.781,shetinin@70,0x1,3,0x4096e,VsDebugConsole.exe,8628,0,0,512,1172,479,0x4096e,1,0
2024-05-05T17:47:54.789,shetinin@70,0x1,3,0x4096e,VsDebugConsole.exe,8628,0,0,512,1170,479,0x4096e,1,0
2024-05-05T17:47:54.797,shetinin@70,0x1,3,0x4096e,VsDebugConsole.exe,8628,0,0,512,1169,479,0x4096e,1,0
2024-05-05T17:47:54.805,shetinin@70,0x1,3,0x4096e,VsDebugConsole.exe,8628,0,0,512,1168,479,0x4096e,1,0
2024-05-05T17:47:54.810,shetinin@70,0x1,3,0x4096e,VsDebugConsole.exe,8628,0,0,512,1167,479,0x4096e,1,0
2024-05-05T17:47:54.817,shetinin@70,0x1,3,0x4096e,VsDebugConsole.exe,8628,0,0,512,1166,479,0x4096e,1,0
2024-05-05T17:47:54.901,shetinin@70,0x1,3,0x4096e,VsDebugConsole.exe,8628,0,0,512,1165,479,0x4096e,1,0
2024-05-05T17:47:55.085,shetinin@70,0x1,3,0x4096e,VsDebugConsole.exe,8628,0,0,512,1164,479,0x4096e,1,0
2024-05-05T17:47:55.093,shetinin@70,0x1,3,0x4096e,VsDebugConsole.exe,8628,0,0,512,1162,478,0x4096e,1,0
2024-05-05T17:47:55.101,shetinin@70,0x1,3,0x4096e,VsDebugConsole.exe,8628,0,0,512,1160,477,0x4096e,1,0
2024-05-05T17:47:55.105,shetinin@70,0x1,3,0x4096e,VsDebugConsole.exe,8628,0,0,512,1156,476,0x4096e,1,0
2024-05-05T17:47:55.113,shetinin@70,0x1,3,0x4096e,VsDebugConsole.exe,8628,0,0,512,1149,476,0x4096e,1,0
2024-05-05T17:47:55.121,shetinin@70,0x1,3,0x4096e,VsDebugConsole.exe,8628,0,0,512,1137,476,0x4096e,1,0
2024-05-05T17:47:55.129,shetinin@70,0x1,3,0x4096e,VsDebugConsole.exe,8628,0,0,512,1124,476,0x4096e,1,0
2024-05-05T17:47:55.138,shetinin@70,0x1,3,0x4096e,VsDebugConsole.exe,8628,0,0,512,1109,475,0x4096e,1,0
2024-05-05T17:47:55.141,shetinin@70,0x1,3,0x4096e,VsDebugConsole.exe,8628,0,0,512,1093,472,0x4096e,1,0
2024-05-05T17:47:55.149,shetinin@70,0x1,3,0x4096e,VsDebugConsole.exe,8628,0,0,512,1070,468,0x4096e,1,0
2024-05-05T17:47:55.157,shetinin@70,0x1,3,0x4096e,VsDebugConsole.exe,8628,0,0,512,1039,462,0x4096e,1,0
2024-05-05T17:47:55.165,shetinin@70,0x1,3,0x4096e,VsDebugConsole.exe,8628,0,0,512,1004,456,0x4096e,1,0
2024-05-05T17:47:55.169,shetinin@70,0x1,3,0x4096e,VsDebugConsole.exe,8628,0,0,512,974,450,0x4096e,1,0
2024-05-05T17:47:55.177,shetinin@70,0x1,3,0x4096e,VsDebugConsole.exe,8628,0,0,512,949,445,0x4096e,1,0
2024-05-05T17:47:55.185,shetinin@70,0x1,3,0x4096e,VsDebugConsole.exe,8628,0,0,512,930,441,0x4096e,1,0
2024-05-05T17:47:55.193,shetinin@70,0x1,3,0x4096e,VsDebugConsole.exe,8628,0,0,512,913,437,0x4096e,1,0
2024-05-05T17:47:55.197,shetinin@70,0x1,3,0x4096e,VsDebugConsole.exe,8628,0,0,512,898,434,0x4096e,1,0
2024-05-05T17:47:55.205,shetinin@70,0x1,3,0x4096e,VsDebugConsole.exe,8628,0,0,512,882,432,0x4096e,1,0
2024-05-05T17:47:55.213,shetinin@70,0x1,3,0x4096e,VsDebugConsole.exe,8628,0,0,512,869,430,0x4096e,1,0
2024-05-05T17:47:55.222,shetinin@70,0x1,3,0x4096e,VsDebugConsole.exe,8628,0,0,512,856,427,0x4096e,1,0
2024-05-05T17:47:55.229,shetinin@70,0x1,3,0x4096e,VsDebugConsole.exe,8628,0,0,512,846,426,0x4096e,1,0
2024-05-05T17:47:55.233,shetinin@70,0x1,3,0x4096e,VsDebugConsole.exe,8628,0,0,512,837,424,0x4096e,1,0
2024-05-05T17:47:55.241,shetinin@70,0x1,3,0x4096e,VsDebugConsole.exe,8628,0,0,512,827,423,0x4096e,1,0
2024-05-05T17:47:55.249,shetinin@70,0x1,3,0x4096e,VsDebugConsole.exe,8628,0,0,512,818,423,0x4096e,1,0
2024-05-05T17:47:55.253,shetinin@70,0x1,3,0x4096e,VsDebugConsole.exe,8628,0,0,512,809,422,0x4096e,1,0
2024-05-05T17:47:55.262,shetinin@70,0x1,3,0x4096e,VsDebugConsole.exe,8628,0,0,512,803,422,0x4096e,1,0
2024-05-05T17:47:55.265,shetinin@70,0x1,3,0x4096e,VsDebugConsole.exe,8628,0,0,512,800,423,0x4096e,1,0
2024-05-05T17:47:55.273,shetinin@70,0x1,3,0x4096e,VsDebugConsole.exe,8628,0,0,512,798,424,0x4096e,1,0
2024-05-05T17:47:55.517,shetinin@70,0x1,3,0x4096e,VsDebugConsole.exe,8628,0,0,512,790,426,0x4096e,1,0
2024-05-05T17:47:55.521,shetinin@70,0x1,3,0x4096e,VsDebugConsole.exe,8628,0,0,512,780,428,0x4096e,1,0
2024-05-05T17:47:55.529,shetinin@70,0x1,3,0x4096e,VsDebugConsole.exe,8628,0,0,512,768,430,0x4096e,1,0
2024-05-05T17:47:55.537,shetinin@70,0x1,3,0x4096e,VsDebugConsole.exe,8628,0,0,512,754,432,0x4096e,1,0
2024-05-05T17:47:55.545,shetinin@70,0x1,3,0x4096e,VsDebugConsole.exe,8628,0,0,512,736,433,0x4096e,1,0
2024-05-05T17:47:55.549,shetinin@70,0x1,3,0x4096e,VsDebugConsole.exe,8628,0,0,512,711,432,0x4096e,1,0
2024-05-05T17:47:55.557,shetinin@70,0x1,3,0x4096e,VsDebugConsole.exe,8628,0,0,512,681,429,0x4096e,1,0
2024-05-05T17:47:55.565,shetinin@70,0x1,3,0x4096e,VsDebugConsole.exe,8628,0,0,512,651,426,0x4096e,1,0
2024-05-05T17:47:55.569,shetinin@70,0x1,3,0x4096e,VsDebugConsole.exe,8628,0,0,512,631,423,0x4096e,1,0
2024-05-05T17:47:55.577,shetinin@70,0x1,3,0x4096e,VsDebugConsole.exe,8628,0,0,512,617,421,0x4096e,1,0
2024-05-05T17:47:55.585,shetinin@70,0x1,3,0x4096e,VsDebugConsole.exe,8628,0,0,512,608,420,0x4096e,1,0
2024-05-05T17:47:55.597,shetinin@70,0x1,3,0x4096e,VsDebugConsole.exe,8628,0,0,512,599,419,0x4096e,1,0
2024-05-05T17:47:55.601,shetinin@70,0x1,3,0x4096e,VsDebugConsole.exe,8628,0,0,512,594,418,0x4096e,1,0
2024-05-05T17:47:55.609,shetinin@70,0x1,3,0x4096e,VsDebugConsole.exe,8628,0,0,512,590,418,0x4096e,1,0
2024-05-05T17:47:55.613,shetinin@70,0x1,3,0x4096e,VsDebugConsole.exe,8628,0,0,512,587,417,0x4096e,1,0
2024-05-05T17:47:55.621,shetinin@70,0x1,3,0x4096e,VsDebugConsole.exe,8628,0,0,512,584,416,0x4096e,1,0
2024-05-05T17:47:55.629,shetinin@70,0x1,3,0x4096e,VsDebugConsole.exe,8628,0,0,512,581,415,0x4096e,1,0
2024-05-05T17:47:55.633,shetinin@70,0x1,3,0x4096e,VsDebugConsole.exe,8628,0,0,512,580,414,0x4096e,1,0
2024-05-05T17:47:55.640,shetinin@70,0x1,3,0x4096e,VsDebugConsole.exe,8628,0,0,512,578,413,0x4096e,1,0
2024-05-05T17:47:55.657,shetinin@70,0x1,3,0x4096e,VsDebugConsole.exe,8628,0,0,512,577,413,0x4096e,1,0
2024-05-05T17:47:55.697,shetinin@70,0x1,3,0x4096e,VsDebugConsole.exe,8628,0,0,512,578,413,0x4096e,1,0
2024-05-05T17:47:55.705,shetinin@70,0x1,3,0x4096e,VsDebugConsole.exe,8628,0,0,512,580,413,0x4096e,1,0
2024-05-05T17:47:55.713,shetinin@70,0x1,3,0x4096e,VsDebugConsole.exe,8628,0,0,512,585,414,0x4096e,1,0
2024-05-05T17:47:55.720,shetinin@70,0x1,3,0x4096e,VsDebugConsole.exe,8628,0,0,512,591,414,0x4096e,1,0
2024-05-05T17:47:55.725,shetinin@70,0x1,3,0x4096e,VsDebugConsole.exe,8628,0,0,512,599,414,0x4096e,1,0
2024-05-05T17:47:55.733,shetinin@70,0x1,3,0x4096e,VsDebugConsole.exe,8628,0,0,512,609,414,0x4096e,1,0
2024-05-05T17:47:55.741,shetinin@70,0x1,3,0x4096e,VsDebugConsole.exe,8628,0,0,512,623,414,0x4096e,1,0
2024-05-05T17:47:55.749,shetinin@70,0x1,3,0x4096e,VsDebugConsole.exe,8628,0,0,512,641,416,0x4096e,1,0
2024-05-05T17:47:55.753,shetinin@70,0x1,3,0x4096e,VsDebugConsole.exe,8628,0,0,512,670,418,0x4096e,1,0
2024-05-05T17:47:55.761,shetinin@70,0x1,3,0x4096e,VsDebugConsole.exe,8628,0,0,512,706,422,0x4096e,1,0
2024-05-05T17:47:55.768,shetinin@70,0x1,3,0x4096e,VsDebugConsole.exe,8628,0,0,512,746,422,0x4096e,1,0
2024-05-05T17:47:55.777,shetinin@70,0x1,3,0x4096e,VsDebugConsole.exe,8628,0,0,512,773,422,0x4096e,1,0
2024-05-05T17:47:55.782,shetinin@70,0x1,3,0x4096e,VsDebugConsole.exe,8628,0,0,512,793,422,0x4096e,1,0
2024-05-05T17:47:55.788,shetinin@70,0x1,3,0x4096e,VsDebugConsole.exe,8628,0,0,512,807,422,0x4096e,1,0
2024-05-05T17:47:55.797,shetinin@70,0x1,3,0x4096e,VsDebugConsole.exe,8628,0,0,512,820,422,0x4096e,1,0
2024-05-05T17:47:55.805,shetinin@70,0x1,3,0x4096e,VsDebugConsole.exe,8628,0,0,512,829,421,0x4096e,1,0
2024-05-05T17:47:55.813,shetinin@70,0x1,3,0x4096e,VsDebugConsole.exe,8628,0,0,512,838,422,0x4096e,1,0
2024-05-05T17:47:55.817,shetinin@70,0x1,3,0x4096e,VsDebugConsole.exe,8628,0,0,512,846,422,0x4096e,1,0
2024-05-05T17:47:55.825,shetinin@70,0x1,3,0x4096e,VsDebugConsole.exe,8628,0,0,512,852,421,0x4096e,1,0
2024-05-05T17:47:55.833,shetinin@70,0x1,3,0x4096e,VsDebugConsole.exe,8628,0,0,512,856,420,0x4096e,1,0
2024-05-05T17:47:55.841,shetinin@70,0x1,3,0x4096e,VsDebugConsole.exe,8628,0,0,512,860,420,0x4096e,1,0
2024-05-05T17:47:55.845,shetinin@70,0x1,3,0x4096e,VsDebugConsole.exe,8628,0,0,512,864,419,0x4096e,1,0
2024-05-05T17:47:55.853,shetinin@70,0x1,3,0x4096e,VsDebugConsole.exe,8628,0,0,512,868,419,0x4096e,1,0
2024-05-05T17:47:55.861,shetinin@70,0x1,3,0x4096e,VsDebugConsole.exe,8628,0,0,512,871,418,0x4096e,1,0
2024-05-05T17:47:55.865,shetinin@70,0x1,3,0x4096e,VsDebugConsole.exe,8628,0,0,512,874,418,0x4096e,1,0
2024-05-05T17:47:55.873,shetinin@70,0x1,3,0x4096e,VsDebugConsole.exe,8628,0,0,512,875,418,0x4096e,1,0
2024-05-05T17:47:55.881,shetinin@70,0x1,3,0x4096e,VsDebugConsole.exe,8628,0,0,513,875,418,0x4096e,1,0
2024-05-05T17:47:55.993,shetinin@70,0x1,3,0x4096e,VsDebugConsole.exe,8628,0,0,514,875,418,0x4096e,1,0
2024-05-05T17:47:55.993,shetinin@70,0x1,3,0x4096e,VsDebugConsole.exe,8628,0,0,512,875,418,0x4096e,1,0
2024-05-05T17:47:56.054,shetinin@70,0x1,3,0x4096e,VsDebugConsole.exe,8628,0,0,512,883,417,0x4096e,1,0
2024-05-05T17:47:56.058,shetinin@70,0x1,3,0x4096e,VsDebugConsole.exe,8628,0,0,512,892,416,0x4096e,1,0
2024-05-05T17:47:56.065,shetinin@70,0x1,3,0x4096e,VsDebugConsole.exe,8628,0,0,512,901,415,0x4096e,1,0
2024-05-05T17:47:56.073,shetinin@70,0x1,3,0x4096e,VsDebugConsole.exe,8628,0,0,512,910,413,0x4096e,1,0
2024-05-05T17:47:56.081,shetinin@70,0x1,3,0x4096e,VsDebugConsole.exe,8628,0,0,512,919,411,0x4096e,1,0
2024-05-05T17:47:56.085,shetinin@70,0x1,3,0x4096e,VsDebugConsole.exe,8628,0,0,512,927,410,0x4096e,1,0
2024-05-05T17:47:56.093,shetinin@70,0x1,3,0x4096e,VsDebugConsole.exe,8628,0,0,512,935,408,0x4096e,1,0
2024-05-05T17:47:56.101,shetinin@70,0x1,3,0x4096e,VsDebugConsole.exe,8628,0,0,512,943,406,0x4096e,1,0
2024-05-05T17:47:56.105,shetinin@70,0x1,3,0x4096e,VsDebugConsole.exe,8628,0,0,512,950,404,0x4096e,1,0
2024-05-05T17:47:56.113,shetinin@70,0x1,3,0x4096e,VsDebugConsole.exe,8628,0,0,512,957,402,0x4096e,1,0
2024-05-05T17:47:56.121,shetinin@70,0x1,3,0x4096e,VsDebugConsole.exe,8628,0,0,512,963,401,0x4096e,1,0
2024-05-05T17:47:56.129,shetinin@70,0x1,3,0x4096e,VsDebugConsole.exe,8628,0,0,512,969,400,0x4096e,1,0
2024-05-05T17:47:56.137,shetinin@70,0x1,3,0x4096e,VsDebugConsole.exe,8628,0,0,512,975,399,0x4096e,1,0
2024-05-05T17:47:56.141,shetinin@70,0x1,3,0x4096e,VsDebugConsole.exe,8628,0,0,512,980,399,0x4096e,1,0
2024-05-05T17:47:56.149,shetinin@70,0x1,3,0x4096e,VsDebugConsole.exe,8628,0,0,512,984,399,0x4096e,1,0
2024-05-05T17:47:56.157,shetinin@70,0x1,3,0x4096e,VsDebugConsole.exe,8628,0,0,512,988,398,0x4096e,1,0
2024-05-05T17:47:56.161,shetinin@70,0x1,3,0x4096e,VsDebugConsole.exe,8628,0,0,512,991,398,0x4096e,1,0
2024-05-05T17:47:56.169,shetinin@70,0x1,3,0x4096e,VsDebugConsole.exe,8628,0,0,512,994,398,0x4096e,1,0
2024-05-05T17:47:56.181,shetinin@70,0x1,3,0x4096e,VsDebugConsole.exe,8628,0,0,512,997,397,0x4096e,1,0
2024-05-05T17:47:56.185,shetinin@70,0x1,3,0x4096e,VsDebugConsole.exe,8628,0,0,512,1000,397,0x4096e,1,0
2024-05-05T17:47:56.189,shetinin@70,0x1,3,0x4096e,VsDebugConsole.exe,8628,0,0,512,1002,396,0x4096e,1,0
2024-05-05T17:47:56.201,shetinin@70,0x1,3,0x4096e,VsDebugConsole.exe,8628,0,0,512,1003,396,0x4096e,1,0
2024-05-05T17:47:56.205,shetinin@70,0x1,3,0x4096e,VsDebugConsole.exe,8628,0,0,512,1005,395,0x4096e,1,0
2024-05-05T17:47:56.213,shetinin@70,0x1,3,0x4096e,VsDebugConsole.exe,8628,0,0,512,1006,394,0x4096e,1,0
2024-05-05T17:47:56.221,shetinin@70,0x1,3,0x4096e,VsDebugConsole.exe,8628,0,0,512,1008,393,0x4096e,1,0
2024-05-05T17:47:56.225,shetinin@70,0x1,3,0x4096e,VsDebugConsole.exe,8628,0,0,512,1009,392,0x4096e,1,0
2024-05-05T17:47:56.237,shetinin@70,0x1,3,0x4096e,VsDebugConsole.exe,8628,0,0,512,1011,392,0x4096e,1,0
2024-05-05T17:47:56.241,shetinin@70,0x1,3,0x4096e,VsDebugConsole.exe,8628,0,0,512,1012,391,0x4096e,1,0
2024-05-05T17:47:56.257,shetinin@70,0x1,3,0x4096e,VsDebugConsole.exe,8628,0,0,512,1013,390,0x4096e,1,0
2024-05-05T17:47:56.277,shetinin@70,0x1,3,0x4096e,VsDebugConsole.exe,8628,0,0,512,1014,390,0x4096e,1,0
2024-05-05T17:47:56.313,shetinin@70,0x1,3,0x4096e,VsDebugConsole.exe,8628,0,0,513,1014,390,0x4096e,1,0
2024-05-05T17:47:56.405,shetinin@70,0x1,3,0x4096e,VsDebugConsole.exe,8628,0,0,514,1014,390,0x4096e,1,0
2024-05-05T17:47:56.405,shetinin@70,0x1,3,0x4096e,VsDebugConsole.exe,8628,0,0,512,1014,390,0x4096e,1,0
2024-05-05T17:47:56.489,shetinin@70,0x1,3,0x4096e,VsDebugConsole.exe,8628,0,0,512,1014,392,0x4096e,1,0
2024-05-05T17:47:56.497,shetinin@70,0x1,3,0x4096e,VsDebugConsole.exe,8628,0,0,512,1016,396,0x4096e,1,0
2024-05-05T17:47:56.501,shetinin@70,0x1,3,0x4096e,VsDebugConsole.exe,8628,0,0,512,1016,401,0x4096e,1,0
2024-05-05T17:47:56.513,shetinin@70,0x1,3,0x4096e,VsDebugConsole.exe,8628,0,0,512,1016,405,0x4096e,1,0
2024-05-05T17:47:56.517,shetinin@70,0x1,3,0x4096e,VsDebugConsole.exe,8628,0,0,512,1016,408,0x4096e,1,0
2024-05-05T17:47:56.521,shetinin@70,0x1,3,0x4096e,VsDebugConsole.exe,8628,0,0,512,1016,412,0x4096e,1,0
2024-05-05T17:47:56.529,shetinin@70,0x1,3,0x4096e,VsDebugConsole.exe,8628,0,0,512,1014,415,0x4096e,1,0
2024-05-05T17:47:56.537,shetinin@70,0x1,3,0x4096e,VsDebugConsole.exe,8628,0,0,512,1012,421,0x4096e,1,0
2024-05-05T17:47:56.545,shetinin@70,0x1,3,0x4096e,VsDebugConsole.exe,8628,0,0,512,1009,427,0x4096e,1,0
2024-05-05T17:47:56.553,shetinin@70,0x1,3,0x4096e,VsDebugConsole.exe,8628,0,0,512,1005,434,0x4096e,1,0
2024-05-05T17:47:56.557,shetinin@70,0x1,3,0x4096e,VsDebugConsole.exe,8628,0,0,512,1001,440,0x4096e,1,0
2024-05-05T17:47:56.565,shetinin@70,0x1,3,0x4096e,VsDebugConsole.exe,8628,0,0,512,996,445,0x4096e,1,0
2024-05-05T17:47:56.573,shetinin@70,0x1,3,0x4096e,VsDebugConsole.exe,8628,0,0,512,991,451,0x4096e,1,0
2024-05-05T17:47:56.581,shetinin@70,0x1,3,0x4096e,VsDebugConsole.exe,8628,0,0,512,985,456,0x4096e,1,0
2024-05-05T17:47:56.585,shetinin@70,0x1,3,0x4096e,VsDebugConsole.exe,8628,0,0,512,979,461,0x4096e,1,0
2024-05-05T17:47:56.593,shetinin@70,0x1,3,0x4096e,VsDebugConsole.exe,8628,0,0,512,973,465,0x4096e,1,0
2024-05-05T17:47:56.601,shetinin@70,0x1,3,0x4096e,VsDebugConsole.exe,8628,0,0,512,965,470,0x4096e,1,0
2024-05-05T17:47:56.609,shetinin@70,0x1,3,0x4096e,VsDebugConsole.exe,8628,0,0,512,957,474,0x4096e,1,0
2024-05-05T17:47:56.614,shetinin@70,0x1,3,0x4096e,VsDebugConsole.exe,8628,0,0,512,948,479,0x4096e,1,0
2024-05-05T17:47:56.621,shetinin@70,0x1,3,0x4096e,VsDebugConsole.exe,8628,0,0,512,940,484,0x4096e,1,0
2024-05-05T17:47:56.629,shetinin@70,0x1,3,0x4096e,VsDebugConsole.exe,8628,0,0,512,933,487,0x4096e,1,0
2024-05-05T17:47:56.637,shetinin@70,0x1,3,0x4096e,VsDebugConsole.exe,8628,0,0,512,925,490,0x4096e,1,0
2024-05-05T17:47:56.645,shetinin@70,0x1,3,0x4096e,VsDebugConsole.exe,8628,0,0,512,918,492,0x4096e,1,0
2024-05-05T17:47:56.649,shetinin@70,0x1,3,0x4096e,VsDebugConsole.exe,8628,0,0,512,911,494,0x4096e,1,0
2024-05-05T17:47:56.657,shetinin@70,0x1,3,0x4096e,VsDebugConsole.exe,8628,0,0,512,904,496,0x4096e,1,0
2024-05-05T17:47:56.665,shetinin@70,0x1,3,0x4096e,VsDebugConsole.exe,8628,0,0,512,899,498,0x4096e,1,0
2024-05-05T17:47:56.673,shetinin@70,0x1,3,0x4096e,VsDebugConsole.exe,8628,0,0,512,895,499,0x4096e,1,0
2024-05-05T17:47:56.677,shetinin@70,0x1,3,0x4096e,VsDebugConsole.exe,8628,0,0,512,892,500,0x4096e,1,0
2024-05-05T17:47:56.685,shetinin@70,0x1,3,0x4096e,VsDebugConsole.exe,8628,0,0,512,890,500,0x4096e,1,0
2024-05-05T17:47:56.693,shetinin@70,0x1,3,0x4096e,VsDebugConsole.exe,8628,0,0,512,889,501,0x4096e,1,0
2024-05-05T17:47:56.701,shetinin@70,0x1,3,0x4096e,VsDebugConsole.exe,8628,0,0,512,888,501,0x4096e,1,0
2024-05-05T17:47:56.705,shetinin@70,0x1,3,0x4096e,VsDebugConsole.exe,8628,0,0,512,887,501,0x4096e,1,0
2024-05-05T17:47:56.761,shetinin@70,0x1,3,0x4096e,VsDebugConsole.exe,8628,0,0,513,887,501,0x4096e,1,0
2024-05-05T17:47:56.897,shetinin@70,0x1,3,0x4096e,VsDebugConsole.exe,8628,0,0,514,887,501,0x4096e,1,0
2024-05-05T17:47:56.897,shetinin@70,0x1,3,0x4096e,VsDebugConsole.exe,8628,0,0,512,887,501,0x4096e,1,0
2024-05-05T17:47:56.925,shetinin@70,0x1,3,0x4096e,VsDebugConsole.exe,8628,0,0,512,893,499,0x4096e,1,0
2024-05-05T17:47:56.933,shetinin@70,0x1,3,0x4096e,VsDebugConsole.exe,8628,0,0,512,901,496,0x4096e,1,0
2024-05-05T17:47:56.941,shetinin@70,0x1,3,0x4096e,VsDebugConsole.exe,8628,0,0,512,910,492,0x4096e,1,0
2024-05-05T17:47:56.945,shetinin@70,0x1,3,0x4096e,VsDebugConsole.exe,8628,0,0,512,922,487,0x4096e,1,0
2024-05-05T17:47:56.953,shetinin@70,0x1,3,0x4096e,VsDebugConsole.exe,8628,0,0,512,933,482,0x4096e,1,0
2024-05-05T17:47:56.961,shetinin@70,0x1,3,0x4096e,VsDebugConsole.exe,8628,0,0,512,946,476,0x4096e,1,0
2024-05-05T17:47:56.969,shetinin@70,0x1,3,0x4096e,VsDebugConsole.exe,8628,0,0,512,958,471,0x4096e,1,0
2024-05-05T17:47:56.973,shetinin@70,0x1,3,0x4096e,VsDebugConsole.exe,8628,0,0,512,970,466,0x4096e,1,0
2024-05-05T17:47:56.981,shetinin@70,0x1,3,0x4096e,VsDebugConsole.exe,8628,0,0,512,981,462,0x4096e,1,0
2024-05-05T17:47:56.989,shetinin@70,0x1,3,0x4096e,VsDebugConsole.exe,8628,0,0,512,990,459,0x4096e,1,0
2024-05-05T17:47:56.996,shetinin@70,0x1,3,0x4096e,VsDebugConsole.exe,8628,0,0,512,998,456,0x4096e,1,0
2024-05-05T17:47:57.004,shetinin@70,0x1,3,0x4096e,VsDebugConsole.exe,8628,0,0,512,1005,454,0x4096e,1,0
2024-05-05T17:47:57.009,shetinin@70,0x1,3,0x4096e,VsDebugConsole.exe,8628,0,0,512,1010,453,0x4096e,1,0
2024-05-05T17:47:57.017,shetinin@70,0x1,3,0x4096e,VsDebugConsole.exe,8628,0,0,512,1015,452,0x4096e,1,0
2024-05-05T17:47:57.025,shetinin@70,0x1,3,0x4096e,VsDebugConsole.exe,8628,0,0,512,1019,451,0x4096e,1,0
2024-05-05T17:47:57.029,shetinin@70,0x1,3,0x4096e,VsDebugConsole.exe,8628,0,0,512,1023,451,0x4096e,1,0
2024-05-05T17:47:57.037,shetinin@70,0x1,3,0x4096e,VsDebugConsole.exe,8628,0,0,512,1027,450,0x4096e,1,0
2024-05-05T17:47:57.045,shetinin@70,0x1,3,0x4096e,VsDebugConsole.exe,8628,0,0,512,1031,449,0x4096e,1,0
2024-05-05T17:47:57.053,shetinin@70,0x1,3,0x4096e,VsDebugConsole.exe,8628,0,0,512,1035,448,0x4096e,1,0
2024-05-05T17:47:57.061,shetinin@70,0x1,3,0x4096e,VsDebugConsole.exe,8628,0,0,512,1039,446,0x4096e,1,0
2024-05-05T17:47:57.065,shetinin@70,0x1,3,0x4096e,VsDebugConsole.exe,8628,0,0,512,1042,445,0x4096e,1,0
2024-05-05T17:47:57.077,shetinin@70,0x1,3,0x4096e,VsDebugConsole.exe,8628,0,0,512,1045,444,0x4096e,1,0
2024-05-05T17:47:57.081,shetinin@70,0x1,3,0x4096e,VsDebugConsole.exe,8628,0,0,512,1048,443,0x4096e,1,0
2024-05-05T17:47:57.085,shetinin@70,0x1,3,0x4096e,VsDebugConsole.exe,8628,0,0,512,1051,443,0x4096e,1,0
2024-05-05T17:47:57.093,shetinin@70,0x1,3,0x4096e,VsDebugConsole.exe,8628,0,0,512,1054,441,0x4096e,1,0
2024-05-05T17:47:57.101,shetinin@70,0x1,3,0x4096e,VsDebugConsole.exe,8628,0,0,512,1057,440,0x4096e,1,0
2024-05-05T17:47:57.109,shetinin@70,0x1,3,0x4096e,VsDebugConsole.exe,8628,0,0,512,1060,439,0x4096e,1,0
2024-05-05T17:47:57.113,shetinin@70,0x1,3,0x4096e,VsDebugConsole.exe,8628,0,0,512,1063,439,0x4096e,1,0
2024-05-05T17:47:57.125,shetinin@70,0x1,3,0x4096e,VsDebugConsole.exe,8628,0,0,512,1065,439,0x4096e,1,0
2024-05-05T17:47:57.129,shetinin@70,0x1,3,0x4096e,VsDebugConsole.exe,8628,0,0,512,1066,439,0x4096e,1,0
2024-05-05T17:47:57.137,shetinin@70,0x1,3,0x4096e,VsDebugConsole.exe,8628,0,0,512,1068,439,0x4096e,1,0
2024-05-05T17:47:57.145,shetinin@70,0x1,3,0x4096e,VsDebugConsole.exe,8628,0,0,512,1069,439,0x4096e,1,0
2024-05-05T17:47:57.149,shetinin@70,0x1,3,0x4096e,VsDebugConsole.exe,8628,0,0,512,1071,439,0x4096e,1,0
2024-05-05T17:47:57.158,shetinin@70,0x1,3,0x4096e,VsDebugConsole.exe,8628,0,0,512,1072,438,0x4096e,1,0
2024-05-05T17:47:57.165,shetinin@70,0x1,3,0x4096e,VsDebugConsole.exe,8628,0,0,512,1074,438,0x4096e,1,0
2024-05-05T17:47:57.173,shetinin@70,0x1,3,0x4096e,VsDebugConsole.exe,8628,0,0,512,1075,438,0x4096e,1,0
2024-05-05T17:47:57.177,shetinin@70,0x1,3,0x4096e,VsDebugConsole.exe,8628,0,0,512,1076,438,0x4096e,1,0
2024-05-05T17:47:57.185,shetinin@70,0x1,3,0x4096e,VsDebugConsole.exe,8628,0,0,512,1077,438,0x4096e,1,0
2024-05-05T17:47:57.193,shetinin@70,0x1,3,0x4096e,VsDebugConsole.exe,8628,0,0,512,1078,438,0x4096e,1,0
2024-05-05T17:47:57.201,shetinin@70,0x1,3,0x4096e,VsDebugConsole.exe,8628,0,0,512,1079,438,0x4096e,1,0
2024-05-05T17:47:57.221,shetinin@70,0x1,3,0x4096e,VsDebugConsole.exe,8628,0,0,512,1079,437,0x4096e,1,0
2024-05-05T17:47:57.229,shetinin@70,0x1,3,0x4096e,VsDebugConsole.exe,8628,0,0,512,1080,437,0x4096e,1,0
2024-05-05T17:47:57.289,shetinin@70,0x1,3,0x4096e,VsDebugConsole.exe,8628,0,0,512,1081,437,0x4096e,1,0
2024-05-05T17:47:57.305,shetinin@70,0x1,3,0x4096e,VsDebugConsole.exe,8628,0,0,512,1082,436,0x4096e,1,0
2024-05-05T17:47:57.313,shetinin@70,0x1,3,0x4096e,VsDebugConsole.exe,8628,0,0,512,1083,436,0x4096e,1,0
2024-05-05T17:47:57.321,shetinin@70,0x1,3,0x4096e,VsDebugConsole.exe,8628,0,0,512,1084,435,0x4096e,1,0
2024-05-05T17:47:57.340,shetinin@70,0x1,3,0x4096e,VsDebugConsole.exe,8628,0,0,512,1085,435,0x4096e,1,0
2024-05-05T17:47:57.349,shetinin@70,0x1,3,0x4096e,VsDebugConsole.exe,8628,0,0,512,1085,434,0x4096e,1,0
2024-05-05T17:47:57.361,shetinin@70,0x1,3,0x4096e,VsDebugConsole.exe,8628,0,0,512,1086,434,0x4096e,1,0
2024-05-05T17:47:57.393,shetinin@70,0x1,3,0x4096e,VsDebugConsole.exe,8628,0,0,513,1086,434,0x4096e,1,0
2024-05-05T17:47:57.461,shetinin@70,0x1,3,0x4096e,VsDebugConsole.exe,8628,0,0,514,1086,434,0x4096e,1,0
2024-05-05T17:47:57.461,shetinin@70,0x1,3,0x4096e,VsDebugConsole.exe,8628,0,0,512,1086,434,0x4096e,1,0
2024-05-05T17:47:57.645,shetinin@70,0x1,3,0x4096e,VsDebugConsole.exe,8628,0,0,515,1086,434,0x4096e,1,0
2024-05-05T17:47:57.765,shetinin@70,0x1,3,0x4096e,VsDebugConsole.exe,8628,0,0,514,1086,434,0x4096e,1,0
2024-05-05T17:47:57.865,shetinin@70,0x1,3,0x4096e,VsDebugConsole.exe,8628,0,0,512,1087,433,0x4096e,1,0
2024-05-05T17:47:57.870,shetinin@70,0x1,3,0x4096e,VsDebugConsole.exe,8628,0,0,512,1089,432,0x4096e,1,0
2024-05-05T17:47:57.878,shetinin@70,0x1,3,0x4096e,VsDebugConsole.exe,8628,0,0,512,1092,430,0x4096e,1,0
2024-05-05T17:47:57.885,shetinin@70,0x1,3,0x4096e,VsDebugConsole.exe,8628,0,0,512,1094,428,0x4096e,1,0
2024-05-05T17:47:57.893,shetinin@70,0x1,3,0x4096e,VsDebugConsole.exe,8628,0,0,512,1096,427,0x4096e,1,0
2024-05-05T17:47:57.897,shetinin@70,0x1,3,0x4096e,VsDebugConsole.exe,8628,0,0,512,1098,425,0x4096e,1,0
2024-05-05T17:47:57.905,shetinin@70,0x1,3,0x4096e,VsDebugConsole.exe,8628,0,0,512,1100,422,0x4096e,1,0
2024-05-05T17:47:57.914,shetinin@70,0x1,3,0x4096e,VsDebugConsole.exe,8628,0,0,512,1102,420,0x4096e,1,0
2024-05-05T17:47:57.917,shetinin@70,0x1,3,0x4096e,VsDebugConsole.exe,8628,0,0,512,1105,417,0x4096e,1,0
2024-05-05T17:47:57.925,shetinin@70,0x1,3,0x4096e,VsDebugConsole.exe,8628,0,0,512,1107,415,0x4096e,1,0
2024-05-05T17:47:57.933,shetinin@70,0x1,3,0x4096e,VsDebugConsole.exe,8628,0,0,512,1109,412,0x4096e,1,0
2024-05-05T17:47:57.941,shetinin@70,0x1,3,0x4096e,VsDebugConsole.exe,8628,0,0,512,1111,410,0x4096e,1,0
2024-05-05T17:47:57.945,shetinin@70,0x1,3,0x4096e,VsDebugConsole.exe,8628,0,0,512,1112,407,0x4096e,1,0
2024-05-05T17:47:57.957,shetinin@70,0x1,3,0x4096e,VsDebugConsole.exe,8628,0,0,512,1114,404,0x4096e,1,0
2024-05-05T17:47:57.961,shetinin@70,0x1,3,0x4096e,VsDebugConsole.exe,8628,0,0,512,1115,402,0x4096e,1,0
2024-05-05T17:47:57.969,shetinin@70,0x1,3,0x4096e,VsDebugConsole.exe,8628,0,0,512,1116,399,0x4096e,1,0
2024-05-05T17:47:57.973,shetinin@70,0x1,3,0x4096e,VsDebugConsole.exe,8628,0,0,512,1117,397,0x4096e,1,0
2024-05-05T17:47:57.980,shetinin@70,0x1,3,0x4096e,VsDebugConsole.exe,8628,0,0,512,1118,395,0x4096e,1,0
2024-05-05T17:47:57.989,shetinin@70,0x1,3,0x4096e,VsDebugConsole.exe,8628,0,0,512,1119,393,0x4096e,1,0
2024-05-05T17:47:57.997,shetinin@70,0x1,3,0x4096e,VsDebugConsole.exe,8628,0,0,512,1120,390,0x4096e,1,0
2024-05-05T17:47:58.001,shetinin@70,0x1,3,0x4096e,VsDebugConsole.exe,8628,0,0,512,1121,387,0x4096e,1,0
2024-05-05T17:47:58.009,shetinin@70,0x1,3,0x4096e,VsDebugConsole.exe,8628,0,0,512,1122,385,0x4096e,1,0
2024-05-05T17:47:58.021,shetinin@70,0x1,3,0x4096e,VsDebugConsole.exe,8628,0,0,512,1122,383,0x4096e,1,0
2024-05-05T17:47:58.025,shetinin@70,0x1,3,0x4096e,VsDebugConsole.exe,8628,0,0,512,1122,382,0x4096e,1,0
2024-05-05T17:47:58.033,shetinin@70,0x1,3,0x4096e,VsDebugConsole.exe,8628,0,0,512,1123,380,0x4096e,1,0
2024-05-05T17:47:58.037,shetinin@70,0x1,3,0x4096e,VsDebugConsole.exe,8628,0,0,512,1123,379,0x4096e,1,0
2024-05-05T17:47:58.049,shetinin@70,0x1,3,0x4096e,VsDebugConsole.exe,8628,0,0,512,1123,377,0x4096e,1,0
2024-05-05T17:47:58.053,shetinin@70,0x1,3,0x4096e,VsDebugConsole.exe,8628,0,0,512,1123,376,0x4096e,1,0
2024-05-05T17:47:58.065,shetinin@70,0x1,3,0x4096e,VsDebugConsole.exe,8628,0,0,512,1123,375,0x4096e,1,0
2024-05-05T17:47:58.073,shetinin@70,0x1,3,0x4096e,VsDebugConsole.exe,8628,0,0,512,1123,374,0x4096e,1,0
2024-05-05T17:47:58.085,shetinin@70,0x1,3,0x4096e,VsDebugConsole.exe,8628,0,0,512,1122,373,0x4096e,1,0
2024-05-05T17:47:58.101,shetinin@70,0x1,3,0x4096e,VsDebugConsole.exe,8628,0,0,512,1121,371,0x4096e,1,0
2024-05-05T17:47:58.109,shetinin@70,0x1,3,0x4096e,VsDebugConsole.exe,8628,0,0,512,1120,369,0x4096e,1,0
2024-05-05T17:47:58.117,shetinin@70,0x1,3,0x4096e,VsDebugConsole.exe,8628,0,0,512,1119,368,0x4096e,1,0
2024-05-05T17:47:58.125,shetinin@70,0x1,3,0x4096e,VsDebugConsole.exe,8628,0,0,512,1118,366,0x4096e,1,0
2024-05-05T17:47:58.129,shetinin@70,0x1,3,0x4096e,VsDebugConsole.exe,8628,0,0,512,1117,366,0x4096e,1,0
2024-05-05T17:47:58.137,shetinin@70,0x1,3,0x4096e,VsDebugConsole.exe,8628,0,0,512,1117,365,0x4096e,1,0
2024-05-05T17:47:58.217,shetinin@70,0x1,3,0x4096e,VsDebugConsole.exe,8628,0,0,513,1117,365,0x4096e,1,0
2024-05-05T17:47:58.301,shetinin@70,0x1,3,0x4096e,VsDebugConsole.exe,8628,0,0,514,1117,365,0x4096e,1,0
2024-05-05T17:47:58.301,shetinin@70,0x1,3,0x4096e,VsDebugConsole.exe,8628,0,0,512,1117,365,0x4096e,1,0
2024-05-05T17:47:58.365,shetinin@70,0x1,3,0x4096e,VsDebugConsole.exe,8628,0,0,515,1117,365,0x4096e,1,0
2024-05-05T17:47:58.482,shetinin@70,0x1,3,0x4096e,VsDebugConsole.exe,8628,0,0,514,1117,365,0x4096e,1,0
2024-05-05T17:47:58.553,shetinin@70,0x1,3,0x4096e,VsDebugConsole.exe,8628,0,0,512,1114,369,0x4096e,1,0
2024-05-05T17:47:58.561,shetinin@70,0x1,3,0x4096e,VsDebugConsole.exe,8628,0,0,512,1112,374,0x4096e,1,0
2024-05-05T17:47:58.565,shetinin@70,0x1,3,0x4096e,VsDebugConsole.exe,8628,0,0,512,1109,381,0x4096e,1,0
2024-05-05T17:47:58.577,shetinin@70,0x1,3,0x4096e,VsDebugConsole.exe,8628,0,0,512,1106,387,0x4096e,1,0
2024-05-05T17:47:58.581,shetinin@70,0x1,3,0x4096e,VsDebugConsole.exe,8628,0,0,512,1103,393,0x4096e,1,0
2024-05-05T17:47:58.589,shetinin@70,0x1,3,0x4096e,VsDebugConsole.exe,8628,0,0,512,1101,397,0x4096e,1,0
2024-05-05T17:47:58.593,shetinin@70,0x1,3,0x4096e,VsDebugConsole.exe,8628,0,0,512,1098,402,0x4096e,1,0
2024-05-05T17:47:58.605,shetinin@70,0x1,3,0x4096e,VsDebugConsole.exe,8628,0,0,512,1096,406,0x4096e,1,0
2024-05-05T17:47:58.609,shetinin@70,0x1,3,0x4096e,VsDebugConsole.exe,8628,0,0,512,1094,409,0x4096e,1,0
2024-05-05T17:47:58.617,shetinin@70,0x1,3,0x4096e,VsDebugConsole.exe,8628,0,0,512,1092,413,0x4096e,1,0
2024-05-05T17:47:58.625,shetinin@70,0x1,3,0x4096e,VsDebugConsole.exe,8628,0,0,512,1090,417,0x4096e,1,0
2024-05-05T17:47:58.629,shetinin@70,0x1,3,0x4096e,VsDebugConsole.exe,8628,0,0,512,1089,421,0x4096e,1,0
2024-05-05T17:47:58.637,shetinin@70,0x1,3,0x4096e,VsDebugConsole.exe,8628,0,0,512,1087,425,0x4096e,1,0
2024-05-05T17:47:58.645,shetinin@70,0x1,3,0x4096e,VsDebugConsole.exe,8628,0,0,512,1086,428,0x4096e,1,0
2024-05-05T17:47:58.649,shetinin@70,0x1,3,0x4096e,VsDebugConsole.exe,8628,0,0,512,1085,430,0x4096e,1,0
2024-05-05T17:47:58.657,shetinin@70,0x1,3,0x4096e,VsDebugConsole.exe,8628,0,0,512,1084,433,0x4096e,1,0
2024-05-05T17:47:58.665,shetinin@70,0x1,3,0x4096e,VsDebugConsole.exe,8628,0,0,512,1083,435,0x4096e,1,0
2024-05-05T17:47:58.673,shetinin@70,0x1,3,0x4096e,VsDebugConsole.exe,8628,0,0,512,1082,438,0x4096e,1,0
2024-05-05T17:47:58.681,shetinin@70,0x1,3,0x4096e,VsDebugConsole.exe,8628,0,0,512,1081,440,0x4096e,1,0
2024-05-05T17:47:58.685,shetinin@70,0x1,3,0x4096e,VsDebugConsole.exe,8628,0,0,512,1081,442,0x4096e,1,0
2024-05-05T17:47:58.692,shetinin@70,0x1,3,0x4096e,VsDebugConsole.exe,8628,0,0,512,1080,444,0x4096e,1,0
2024-05-05T17:47:58.700,shetinin@70,0x1,3,0x4096e,VsDebugConsole.exe,8628,0,0,512,1080,447,0x4096e,1,0
2024-05-05T17:47:58.713,shetinin@70,0x1,3,0x4096e,VsDebugConsole.exe,8628,0,0,512,1079,448,0x4096e,1,0
2024-05-05T17:47:58.717,shetinin@70,0x1,3,0x4096e,VsDebugConsole.exe,8628,0,0,512,1079,450,0x4096e,1,0
2024-05-05T17:47:58.721,shetinin@70,0x1,3,0x4096e,VsDebugConsole.exe,8628,0,0,512,1078,452,0x4096e,1,0
2024-05-05T17:47:58.737,shetinin@70,0x1,3,0x4096e,VsDebugConsole.exe,8628,0,0,512,1077,453,0x4096e,1,0
2024-05-05T17:47:58.749,shetinin@70,0x1,3,0x4096e,VsDebugConsole.exe,8628,0,0,513,1077,453,0x4096e,1,0
2024-05-05T17:47:58.841,shetinin@70,0x1,3,0x4096e,VsDebugConsole.exe,8628,0,0,514,1077,453,0x4096e,1,0
2024-05-05T17:47:58.841,shetinin@70,0x1,3,0x4096e,VsDebugConsole.exe,8628,0,0,512,1077,453,0x4096e,1,0
2024-05-05T17:47:59.237,shetinin@70,0x1,3,0x4096e,VsDebugConsole.exe,8628,0,0,512,1075,449,0x4096e,1,0
2024-05-05T17:47:59.237,shetinin@70,0x1,3,0x4096e,VsDebugConsole.exe,8628,0,0,512,1071,444,0x4096e,1,0
2024-05-05T17:47:59.241,shetinin@70,0x1,3,0x4096e,VsDebugConsole.exe,8628,0,0,512,1067,440,0x4096e,1,0
2024-05-05T17:47:59.249,shetinin@70,0x1,3,0x4096e,VsDebugConsole.exe,8628,0,0,512,1063,436,0x4096e,1,0
2024-05-05T17:47:59.257,shetinin@70,0x1,3,0x4096e,VsDebugConsole.exe,8628,0,0,512,1059,432,0x4096e,1,0
2024-05-05T17:47:59.265,shetinin@70,0x1,3,0x4096e,VsDebugConsole.exe,8628,0,0,512,1056,429,0x4096e,1,0
2024-05-05T17:47:59.273,shetinin@70,0x1,3,0x4096e,VsDebugConsole.exe,8628,0,0,512,1053,427,0x4096e,1,0
2024-05-05T17:47:59.281,shetinin@70,0x1,3,0x4096e,VsDebugConsole.exe,8628,0,0,512,1051,425,0x4096e,1,0
2024-05-05T17:47:59.285,shetinin@70,0x1,3,0x4096e,VsDebugConsole.exe,8628,0,0,512,1049,425,0x4096e,1,0
2024-05-05T17:47:59.293,shetinin@70,0x1,3,0x4096e,VsDebugConsole.exe,8628,0,0,512,1048,425,0x4096e,1,0
2024-05-05T17:47:59.301,shetinin@70,0x1,3,0x4096e,VsDebugConsole.exe,8628,0,0,512,1048,424,0x4096e,1,0
2024-05-05T17:47:59.305,shetinin@70,0x1,3,0x4096e,VsDebugConsole.exe,8628,0,0,512,1047,424,0x4096e,1,0
2024-05-05T17:47:59.329,shetinin@70,0x1,3,0x4096e,VsDebugConsole.exe,8628,0,0,513,1047,424,0x4096e,1,0
2024-05-05T17:47:59.421,shetinin@70,0x1,3,0x4096e,VsDebugConsole.exe,8628,0,0,514,1047,424,0x4096e,1,0
2024-05-05T17:47:59.421,shetinin@70,0x1,3,0x4096e,VsDebugConsole.exe,8628,0,0,512,1047,424,0x4096e,1,0
